PCBNEW-LibModule-V1  
# encoding utf-8
Units mm
$INDEX
XTAL_ABLS2-24.000MHZ-D4YF-T
$EndINDEX
$MODULE XTAL_ABLS2-24.000MHZ-D4YF-T
Po 0 0 0 15 00000000 00000000 ~~
Li XTAL_ABLS2-24.000MHZ-D4YF-T
Cd 
Sc 00000000
At SMD
Op 0 0 0
.SolderMask 0
.SolderPaste 0
T0 -1.27345 -3.82037 1.00272 1.00272 0 0.05 N V 21 "XTAL_ABLS2-24.000MHZ-D4YF-T"
T1 -0.63693 3.82153 1.00302 1.00302 0 0.05 N V 21 "VAL**"
DS -5.7 -1.4 -5.7 -2.35 0.127 21
DS -5.7 -2.35 5.7 -2.35 0.127 21
DS 5.7 -2.35 5.7 -1.4 0.127 21
DS 5.7 1.4 5.7 2.35 0.127 21
DS 5.7 2.35 -5.7 2.35 0.127 21
DS -5.7 2.35 -5.7 1.4 0.127 21
DS -5.7 -2.35 -5.7 2.35 0.127 24
DS -5.7 2.35 5.7 2.35 0.127 24
DS 5.7 2.35 5.7 -2.35 0.127 24
DS 5.7 -2.35 -5.7 -2.35 0.127 24
DS -7.8 -2.6 -7.8 2.6 0.05 24
DS -7.8 2.6 7.8 2.6 0.05 24
DS 7.8 2.6 7.8 -2.6 0.05 24
DS 7.8 -2.6 -7.8 -2.6 0.05 24
DC -6.858 -1.9558 -6.56179 -1.9558 0.254 21
$PAD
Sh "1" R 5.6 2.1 0 0 0
At SMD N 00888000
.SolderMask 0
.SolderPaste 0
Ne 0 ""
Po -4.75 0
$EndPAD
$PAD
Sh "2" R 5.6 2.1 0 0 0
At SMD N 00888000
.SolderMask 0
.SolderPaste 0
Ne 0 ""
Po 4.75 0
$EndPAD
$EndMODULE XTAL_ABLS2-24.000MHZ-D4YF-T
