(export (version D)
  (design
    (source C:/Users/jcloi/Documents/bracelight/bracelight.sch)
    (date "10/8/2018 10:09:49 AM")
    (tool "Eeschema 4.0.7")
    (sheet (number 1) (name /) (tstamps /)
      (title_block
        (title)
        (company)
        (rev)
        (date)
        (source bracelight.sch)
        (comment (number 1) (value ""))
        (comment (number 2) (value ""))
        (comment (number 3) (value ""))
        (comment (number 4) (value "")))))
  (components
    (comp (ref C7)
      (value 10uF)
      (footprint Capacitors_SMD:C_0402)
      (fields
        (field (name MFR) Murata)
        (field (name MPN) GRM155R60G106ME44D)
        (field (name SPR) Digikey)
        (field (name SPN) 490-10693-1-ND))
      (libsource (lib device) (part C_Small))
      (sheetpath (names /) (tstamps /))
      (tstamp 59F6A1FB))
    (comp (ref P1)
      (value CONN_MICRO_USB_B)
      (footprint DFTcustom:USB-MICRO-B-FCI-10118192)
      (datasheet DOCUMENTATION)
      (fields
        (field (name MFR) Amphenol)
        (field (name MPN) 10118192-0001LF)
        (field (name SPR) Digikey)
        (field (name SPN) "609-4613-2-ND "))
      (libsource (lib win) (part CONN_MICRO_USB_B))
      (sheetpath (names /) (tstamps /))
      (tstamp 5A0158E6))
    (comp (ref C3)
      (value 100nF)
      (footprint Capacitors_SMD:C_0402)
      (fields
        (field (name MFR) Murata)
        (field (name MPN) GRM155R61A104KA01D)
        (field (name SPR) Digikey)
        (field (name SPN) 490-1318-2-ND))
      (libsource (lib device) (part C_Small))
      (sheetpath (names /) (tstamps /))
      (tstamp 59F6ECD6))
    (comp (ref U3)
      (value TSOP753)
      (footprint DFTcustom:TSOP753_755)
      (fields
        (field (name MFR) Vishay)
        (field (name MPN) TSOP75338WTT)
        (field (name SPR) Digkey)
        (field (name SPN) TSOP75338WTTCT-ND)
        (field (name SPURL) -))
      (libsource (lib NorBot) (part TSOP753))
      (sheetpath (names /) (tstamps /))
      (tstamp 5A19BA4B))
    (comp (ref U2)
      (value "LIS2DE12 or LIS2HH12TR")
      (footprint DFTcustom:LGA12)
      (datasheet DOCUMENTATION)
      (fields
        (field (name MFR) ST)
        (field (name MPN) LIS2HH12TR)
        (field (name SPR) Digikey)
        (field (name SPN) 497-15069-1-ND)
        (field (name SPURL) -))
      (libsource (lib win) (part LIS2HH12))
      (sheetpath (names /) (tstamps /))
      (tstamp 59F6BBAA))
    (comp (ref JP1)
      (value Jumper)
      (footprint DFTcustom:JUMPER_2PIN)
      (fields
        (field (name MFR) DNS)
        (field (name MPN) -)
        (field (name SPR) -)
        (field (name SPN) -)
        (field (name SPURL) -))
      (libsource (lib device) (part Jumper))
      (sheetpath (names /) (tstamps /))
      (tstamp 5A67784B))
    (comp (ref R11)
      (value 10k)
      (footprint Resistors_SMD:R_0402)
      (fields
        (field (name MFR) Yageo)
        (field (name MPN) RC0402JR-0710KL)
        (field (name SPR) Digikey)
        (field (name SPN) 311-10KJRCT-ND))
      (libsource (lib device) (part R))
      (sheetpath (names /) (tstamps /))
      (tstamp 5A01502A))
    (comp (ref R12)
      (value 10k)
      (footprint Resistors_SMD:R_0402)
      (fields
        (field (name MFR) Yageo)
        (field (name MPN) RC0402JR-0710KL)
        (field (name SPR) Digikey)
        (field (name SPN) 311-10KJRCT-ND))
      (libsource (lib device) (part R))
      (sheetpath (names /) (tstamps /))
      (tstamp 59F6155D))
    (comp (ref C5)
      (value 10uF)
      (footprint Capacitors_SMD:C_0402)
      (fields
        (field (name MFR) Murata)
        (field (name MPN) GRM155R60G106ME44D)
        (field (name SPR) Digikey)
        (field (name SPN) 490-10693-1-ND))
      (libsource (lib device) (part C_Small))
      (sheetpath (names /) (tstamps /))
      (tstamp 5A6A63D5))
    (comp (ref R13)
      (value 10k)
      (footprint Resistors_SMD:R_0402)
      (fields
        (field (name MFR) Yageo)
        (field (name MPN) RC0402JR-0710KL)
        (field (name SPR) Digikey)
        (field (name SPN) 311-10KJRCT-ND))
      (libsource (lib device) (part R))
      (sheetpath (names /) (tstamps /))
      (tstamp 5ABBF8DF))
    (comp (ref R14)
      (value 10k)
      (footprint Resistors_SMD:R_0402)
      (fields
        (field (name MFR) Yageo)
        (field (name MPN) RC0402JR-0710KL)
        (field (name SPR) Digikey)
        (field (name SPN) 311-10KJRCT-ND)
        (field (name SPURL) -))
      (libsource (lib device) (part R))
      (sheetpath (names /) (tstamps /))
      (tstamp 5ABBFDB1))
    (comp (ref U5)
      (value MCP73812)
      (footprint DFTcustom:TSOT-23-5)
      (fields
        (field (name MFR) Microchip)
        (field (name MPN) MCP73812T-420I/OT)
        (field (name SPR) Digikey)
        (field (name SPN) MCP73812T-420I/OTCT-ND)
        (field (name SPURL) -))
      (libsource (lib MCP73831T-2ACI_OT) (part MCP73812))
      (sheetpath (names /) (tstamps /))
      (tstamp 5ABC6DE2))
    (comp (ref R15)
      (value 10k)
      (footprint Resistors_SMD:R_0402)
      (fields
        (field (name MFR) Yageo)
        (field (name MPN) RC0402JR-0710KL)
        (field (name SPR) Digikey)
        (field (name SPN) 311-10KJRCT-ND))
      (libsource (lib device) (part R))
      (sheetpath (names /) (tstamps /))
      (tstamp 5ABC7CA9))
    (comp (ref C8)
      (value 10uF)
      (footprint Capacitors_SMD:C_0402)
      (fields
        (field (name MFR) Murata)
        (field (name MPN) GRM155R60G106ME44D)
        (field (name SPR) Digikey)
        (field (name SPN) 490-10693-1-ND))
      (libsource (lib device) (part C_Small))
      (sheetpath (names /) (tstamps /))
      (tstamp 5ABC90D1))
    (comp (ref D2)
      (value LED_RGB_COMMON_ANODE)
      (footprint DFTcustom:LED-3528_soldermaskdefined)
      (fields
        (field (name MFR) "Will supply")
        (field (name MPN) -)
        (field (name SPR) -)
        (field (name SPN) -)
        (field (name SPURL) -))
      (libsource (lib win) (part LED_RGB_COMMON_ANODE))
      (sheetpath (names /) (tstamps /))
      (tstamp 5AC4726E))
    (comp (ref D3)
      (value LED_RGB_COMMON_ANODE)
      (footprint DFTcustom:LED-3528_soldermaskdefined)
      (fields
        (field (name MFR) "Will supply")
        (field (name MPN) -)
        (field (name SPR) -)
        (field (name SPN) -)
        (field (name SPURL) -))
      (libsource (lib win) (part LED_RGB_COMMON_ANODE))
      (sheetpath (names /) (tstamps /))
      (tstamp 5AC48F9D))
    (comp (ref D1)
      (value LED_RGB_COMMON_ANODE)
      (footprint DFTcustom:LED-3528_soldermaskdefined)
      (fields
        (field (name MFR) "Will supply")
        (field (name MPN) -)
        (field (name SPR) -)
        (field (name SPN) -)
        (field (name SPURL) -))
      (libsource (lib win) (part LED_RGB_COMMON_ANODE))
      (sheetpath (names /) (tstamps /))
      (tstamp 5AC49285))
    (comp (ref D5)
      (value LED_RGB_COMMON_ANODE)
      (footprint DFTcustom:LED-3528_soldermaskdefined)
      (fields
        (field (name MFR) "Will supply")
        (field (name MPN) -)
        (field (name SPR) -)
        (field (name SPN) -)
        (field (name SPURL) -))
      (libsource (lib win) (part LED_RGB_COMMON_ANODE))
      (sheetpath (names /) (tstamps /))
      (tstamp 5AC49889))
    (comp (ref D6)
      (value LED_RGB_COMMON_ANODE)
      (footprint DFTcustom:LED-3528_soldermaskdefined)
      (fields
        (field (name MFR) "Will supply")
        (field (name MPN) -)
        (field (name SPR) -)
        (field (name SPN) -)
        (field (name SPURL) -))
      (libsource (lib win) (part LED_RGB_COMMON_ANODE))
      (sheetpath (names /) (tstamps /))
      (tstamp 5AC49893))
    (comp (ref D4)
      (value LED_RGB_COMMON_ANODE)
      (footprint DFTcustom:LED-3528_soldermaskdefined)
      (fields
        (field (name MFR) "Will supply")
        (field (name MPN) -)
        (field (name SPR) -)
        (field (name SPN) -)
        (field (name SPURL) -))
      (libsource (lib win) (part LED_RGB_COMMON_ANODE))
      (sheetpath (names /) (tstamps /))
      (tstamp 5AC4989D))
    (comp (ref D8)
      (value LED_RGB_COMMON_ANODE)
      (footprint DFTcustom:LED-3528_soldermaskdefined)
      (fields
        (field (name MFR) "Will supply")
        (field (name MPN) -)
        (field (name SPR) -)
        (field (name SPN) -)
        (field (name SPURL) -))
      (libsource (lib win) (part LED_RGB_COMMON_ANODE))
      (sheetpath (names /) (tstamps /))
      (tstamp 5AC4A1E1))
    (comp (ref D9)
      (value LED_RGB_COMMON_ANODE)
      (footprint DFTcustom:LED-3528_soldermaskdefined)
      (fields
        (field (name MFR) "Will supply")
        (field (name MPN) -)
        (field (name SPR) -)
        (field (name SPN) -)
        (field (name SPURL) -))
      (libsource (lib win) (part LED_RGB_COMMON_ANODE))
      (sheetpath (names /) (tstamps /))
      (tstamp 5AC4A1EB))
    (comp (ref D7)
      (value LED_RGB_COMMON_ANODE)
      (footprint DFTcustom:LED-3528_soldermaskdefined)
      (fields
        (field (name MFR) "Will supply")
        (field (name MPN) -)
        (field (name SPR) -)
        (field (name SPN) -)
        (field (name SPURL) -))
      (libsource (lib win) (part LED_RGB_COMMON_ANODE))
      (sheetpath (names /) (tstamps /))
      (tstamp 5AC4A1F5))
    (comp (ref D11)
      (value LED_RGB_COMMON_ANODE)
      (footprint DFTcustom:LED-3528_soldermaskdefined)
      (fields
        (field (name MFR) "Will supply")
        (field (name MPN) -)
        (field (name SPR) -)
        (field (name SPN) -)
        (field (name SPURL) -))
      (libsource (lib win) (part LED_RGB_COMMON_ANODE))
      (sheetpath (names /) (tstamps /))
      (tstamp 5AC4A1FF))
    (comp (ref D12)
      (value LED_RGB_COMMON_ANODE)
      (footprint DFTcustom:LED-3528_soldermaskdefined)
      (fields
        (field (name MFR) "Will supply")
        (field (name MPN) -)
        (field (name SPR) -)
        (field (name SPN) -)
        (field (name SPURL) -))
      (libsource (lib win) (part LED_RGB_COMMON_ANODE))
      (sheetpath (names /) (tstamps /))
      (tstamp 5AC4A209))
    (comp (ref D10)
      (value LED_RGB_COMMON_ANODE)
      (footprint DFTcustom:LED-3528_soldermaskdefined)
      (fields
        (field (name MFR) "Will supply")
        (field (name MPN) -)
        (field (name SPR) -)
        (field (name SPN) -)
        (field (name SPURL) -))
      (libsource (lib win) (part LED_RGB_COMMON_ANODE))
      (sheetpath (names /) (tstamps /))
      (tstamp 5AC4A213))
    (comp (ref D14)
      (value LED_RGB_COMMON_ANODE)
      (footprint DFTcustom:LED-3528)
      (fields
        (field (name MFR) "Will supply")
        (field (name MPN) -)
        (field (name SPR) -)
        (field (name SPN) -)
        (field (name SPURL) -))
      (libsource (lib win) (part LED_RGB_COMMON_ANODE))
      (sheetpath (names /) (tstamps /))
      (tstamp 5AC4C0B1))
    (comp (ref D15)
      (value LED_RGB_COMMON_ANODE)
      (footprint DFTcustom:LED-3528)
      (fields
        (field (name MFR) "Will supply")
        (field (name MPN) -)
        (field (name SPR) -)
        (field (name SPN) -)
        (field (name SPURL) -))
      (libsource (lib win) (part LED_RGB_COMMON_ANODE))
      (sheetpath (names /) (tstamps /))
      (tstamp 5AC4C0BB))
    (comp (ref D13)
      (value LED_RGB_COMMON_ANODE)
      (footprint DFTcustom:LED-3528)
      (fields
        (field (name MFR) "Will supply")
        (field (name MPN) -)
        (field (name SPR) -)
        (field (name SPN) -)
        (field (name SPURL) -))
      (libsource (lib win) (part LED_RGB_COMMON_ANODE))
      (sheetpath (names /) (tstamps /))
      (tstamp 5AC4C0C5))
    (comp (ref D17)
      (value LED_RGB_COMMON_ANODE)
      (footprint DFTcustom:LED-3528_soldermaskdefined)
      (fields
        (field (name MFR) "Will supply")
        (field (name MPN) -)
        (field (name SPR) -)
        (field (name SPN) -)
        (field (name SPURL) -))
      (libsource (lib win) (part LED_RGB_COMMON_ANODE))
      (sheetpath (names /) (tstamps /))
      (tstamp 5AC4C0CF))
    (comp (ref D18)
      (value LED_RGB_COMMON_ANODE)
      (footprint DFTcustom:LED-3528_soldermaskdefined)
      (fields
        (field (name MFR) "Will supply")
        (field (name MPN) -)
        (field (name SPR) -)
        (field (name SPN) -)
        (field (name SPURL) -))
      (libsource (lib win) (part LED_RGB_COMMON_ANODE))
      (sheetpath (names /) (tstamps /))
      (tstamp 5AC4C0D9))
    (comp (ref D16)
      (value LED_RGB_COMMON_ANODE)
      (footprint DFTcustom:LED-3528)
      (fields
        (field (name MFR) "Will supply")
        (field (name MPN) -)
        (field (name SPR) -)
        (field (name SPN) -)
        (field (name SPURL) -))
      (libsource (lib win) (part LED_RGB_COMMON_ANODE))
      (sheetpath (names /) (tstamps /))
      (tstamp 5AC4C0E3))
    (comp (ref D20)
      (value LED_RGB_COMMON_ANODE)
      (footprint DFTcustom:LED-3528_soldermaskdefined)
      (fields
        (field (name MFR) "Will supply")
        (field (name MPN) -)
        (field (name SPR) -)
        (field (name SPN) -)
        (field (name SPURL) -))
      (libsource (lib win) (part LED_RGB_COMMON_ANODE))
      (sheetpath (names /) (tstamps /))
      (tstamp 5AC4C0ED))
    (comp (ref D21)
      (value LED_RGB_COMMON_ANODE)
      (footprint DFTcustom:LED-3528_soldermaskdefined)
      (fields
        (field (name MFR) "Will supply")
        (field (name MPN) -)
        (field (name SPR) -)
        (field (name SPN) -)
        (field (name SPURL) -))
      (libsource (lib win) (part LED_RGB_COMMON_ANODE))
      (sheetpath (names /) (tstamps /))
      (tstamp 5AC4C0F7))
    (comp (ref D19)
      (value LED_RGB_COMMON_ANODE)
      (footprint DFTcustom:LED-3528_soldermaskdefined)
      (fields
        (field (name MFR) "Will supply")
        (field (name MPN) -)
        (field (name SPR) -)
        (field (name SPN) -)
        (field (name SPURL) -))
      (libsource (lib win) (part LED_RGB_COMMON_ANODE))
      (sheetpath (names /) (tstamps /))
      (tstamp 5AC4C101))
    (comp (ref D23)
      (value LED_RGB_COMMON_ANODE)
      (footprint DFTcustom:LED-3528_soldermaskdefined)
      (fields
        (field (name MFR) "Will supply")
        (field (name MPN) -)
        (field (name SPR) -)
        (field (name SPN) -)
        (field (name SPURL) -))
      (libsource (lib win) (part LED_RGB_COMMON_ANODE))
      (sheetpath (names /) (tstamps /))
      (tstamp 5AC4C10B))
    (comp (ref D24)
      (value LED_RGB_COMMON_ANODE)
      (footprint DFTcustom:LED-3528_soldermaskdefined)
      (fields
        (field (name MFR) "Will supply")
        (field (name MPN) -)
        (field (name SPR) -)
        (field (name SPN) -)
        (field (name SPURL) -))
      (libsource (lib win) (part LED_RGB_COMMON_ANODE))
      (sheetpath (names /) (tstamps /))
      (tstamp 5AC4C115))
    (comp (ref D22)
      (value LED_RGB_COMMON_ANODE)
      (footprint DFTcustom:LED-3528_soldermaskdefined)
      (fields
        (field (name MFR) "Will supply")
        (field (name MPN) -)
        (field (name SPR) -)
        (field (name SPN) -)
        (field (name SPURL) -))
      (libsource (lib win) (part LED_RGB_COMMON_ANODE))
      (sheetpath (names /) (tstamps /))
      (tstamp 5AC4C11F))
    (comp (ref U6)
      (value Atmel_SMD_6pin)
      (footprint DFTcustom:Atmel_SMD_Header)
      (fields
        (field (name MFR) DNS)
        (field (name MPN) -)
        (field (name SPR) -)
        (field (name SPN) -)
        (field (name SPURL) -))
      (libsource (lib DFTCustom) (part Atmel_SMD_6pin))
      (sheetpath (names /) (tstamps /))
      (tstamp 5AD238AC))
    (comp (ref C2)
      (value 100nF)
      (footprint Capacitors_SMD:C_0402)
      (fields
        (field (name MFR) Murata)
        (field (name MPN) GRM155R61A104KA01D)
        (field (name SPR) Digikey)
        (field (name SPN) 490-1318-2-ND))
      (libsource (lib device) (part C_Small))
      (sheetpath (names /) (tstamps /))
      (tstamp 5AD270F3))
    (comp (ref C9)
      (value 100nF)
      (footprint Capacitors_SMD:C_0402)
      (fields
        (field (name MFR) Murata)
        (field (name MPN) GRM155R61A104KA01D)
        (field (name SPR) Digikey)
        (field (name SPN) 490-1318-2-ND))
      (libsource (lib device) (part C_Small))
      (sheetpath (names /) (tstamps /))
      (tstamp 5AD28F9D))
    (comp (ref R18)
      (value 10k)
      (footprint Resistors_SMD:R_0402)
      (fields
        (field (name MFR) Yageo)
        (field (name MPN) RC0402JR-0710KL)
        (field (name SPR) Digikey)
        (field (name SPN) 311-10KJRCT-ND))
      (libsource (lib device) (part R))
      (sheetpath (names /) (tstamps /))
      (tstamp 5AD2C3F2))
    (comp (ref R17)
      (value 10k)
      (footprint Resistors_SMD:R_0402)
      (fields
        (field (name MFR) Yageo)
        (field (name MPN) RC0402JR-0710KL)
        (field (name SPR) Digikey)
        (field (name SPN) 311-10KJRCT-ND))
      (libsource (lib device) (part R))
      (sheetpath (names /) (tstamps /))
      (tstamp 5AD2C3FD))
    (comp (ref D25)
      (value "IR LED")
      (footprint DFTcustom:IR_0603_soldermaskdefined)
      (fields
        (field (name MFR) "Will supply")
        (field (name MPN) -)
        (field (name SPR) -)
        (field (name SPN) -)
        (field (name SPURL) -))
      (libsource (lib device) (part LED))
      (sheetpath (names /) (tstamps /))
      (tstamp 5AD3D669))
    (comp (ref D26)
      (value "IR LED")
      (footprint DFTcustom:IR_0603_soldermaskdefined)
      (fields
        (field (name MFR) "Will supply")
        (field (name MPN) -)
        (field (name SPR) -)
        (field (name SPN) -)
        (field (name SPURL) -))
      (libsource (lib device) (part LED))
      (sheetpath (names /) (tstamps /))
      (tstamp 5AD3D74F))
    (comp (ref D27)
      (value "IR LED")
      (footprint DFTcustom:IR_0603_soldermaskdefined)
      (fields
        (field (name MFR) "Will supply")
        (field (name MPN) -)
        (field (name SPR) -)
        (field (name SPN) -)
        (field (name SPURL) -))
      (libsource (lib device) (part LED))
      (sheetpath (names /) (tstamps /))
      (tstamp 5AD3D9AB))
    (comp (ref C11)
      (value 100nF)
      (footprint Capacitors_SMD:C_0402)
      (fields
        (field (name MFR) Murata)
        (field (name MPN) GRM155R61A104KA01D)
        (field (name SPR) Digikey)
        (field (name SPN) 490-1318-2-ND))
      (libsource (lib device) (part C_Small))
      (sheetpath (names /) (tstamps /))
      (tstamp 5AD89628))
    (comp (ref Q1)
      (value IRLML2502)
      (footprint DFTcustom:IRLML2502)
      (datasheet -)
      (fields
        (field (name SPR) Digikey)
        (field (name SPURL) -)
        (field (name MFR) "Infineon Technologies")
        (field (name MPN) IRLML2502TRPBF)
        (field (name SPN) IRLML2502TRPBFCT-ND))
      (libsource (lib csd13383f4) (part CSD13383F4))
      (sheetpath (names /) (tstamps /))
      (tstamp 5ADAF795))
    (comp (ref R1)
      (value 47)
      (footprint Resistors_SMD:R_0402)
      (fields
        (field (name MFR) Yageo)
        (field (name MPN) RC0402JR-0747RL)
        (field (name SPR) Digikey)
        (field (name SPN) 311-47JRCT-ND))
      (libsource (lib device) (part R))
      (sheetpath (names /) (tstamps /))
      (tstamp 5ADB167D))
    (comp (ref U7)
      (value IS31FL3731_DFT)
      (footprint Housings_DFN_QFN:QFN-28-1EP_4x4mm_Pitch0.4mm)
      (fields
        (field (name MFR) ISSI)
        (field (name MPN) IS31FL3731-QFLS2-TR)
        (field (name SPR) Digikey)
        (field (name SPN) 706-1219-1-ND)
        (field (name SPURL) -))
      (libsource (lib IS31FL3731_DFT) (part IS31FL3731_DFT))
      (sheetpath (names /) (tstamps /))
      (tstamp 5AD782FF))
    (comp (ref D28)
      (value "IR LED")
      (footprint DFTcustom:IR_0603_soldermaskdefined)
      (fields
        (field (name MFR) "Will supply")
        (field (name MPN) -)
        (field (name SPR) -)
        (field (name SPN) -)
        (field (name SPURL) -))
      (libsource (lib device) (part LED))
      (sheetpath (names /) (tstamps /))
      (tstamp 5ADBFDAA))
    (comp (ref R2)
      (value 10k)
      (footprint Resistors_SMD:R_0402)
      (fields
        (field (name MFR) Yageo)
        (field (name MPN) RC0402JR-0710KL)
        (field (name SPR) Digikey)
        (field (name SPN) 311-10KJRCT-ND))
      (libsource (lib device) (part R))
      (sheetpath (names /) (tstamps /))
      (tstamp 5AD95B68))
    (comp (ref R3)
      (value 10k)
      (footprint Resistors_SMD:R_0402)
      (fields
        (field (name MFR) Yageo)
        (field (name MPN) RC0402JR-0710KL)
        (field (name SPR) Digikey)
        (field (name SPN) 311-10KJRCT-ND))
      (libsource (lib device) (part R))
      (sheetpath (names /) (tstamps /))
      (tstamp 5AD95E73))
    (comp (ref C14)
      (value 100nF)
      (footprint Capacitors_SMD:C_0402)
      (fields
        (field (name MFR) Murata)
        (field (name MPN) GRM155R61A104KA01D)
        (field (name SPR) Digikey)
        (field (name SPN) 490-1318-2-ND))
      (libsource (lib device) (part C_Small))
      (sheetpath (names /) (tstamps /))
      (tstamp 5AD96628))
    (comp (ref U8)
      (value SPU0410HR5H-1)
      (footprint DFTcustom:SPU0410HR5H-1)
      (fields
        (field (name MFR) Knowles)
        (field (name MPN) SPU0414HR5H-SB-7)
        (field (name SPR) Digikey)
        (field (name SPN) 423-1134-1-ND)
        (field (name SPURL) -))
      (libsource (lib DFTCustom) (part SPU0410HR5H-1))
      (sheetpath (names /) (tstamps /))
      (tstamp 5AD96DBB))
    (comp (ref C12)
      (value 100nF)
      (footprint Capacitors_SMD:C_0402)
      (fields
        (field (name MFR) Murata)
        (field (name MPN) GRM155R61A104KA01D)
        (field (name SPR) Digikey)
        (field (name SPN) 490-1318-2-ND))
      (libsource (lib device) (part C_Small))
      (sheetpath (names /) (tstamps /))
      (tstamp 5AD9883A))
    (comp (ref C13)
      (value 100nF)
      (footprint Capacitors_SMD:C_0402)
      (fields
        (field (name MFR) Murata)
        (field (name MPN) GRM155R61A104KA01D)
        (field (name SPR) Digikey)
        (field (name SPN) 490-1318-2-ND))
      (libsource (lib device) (part C_Small))
      (sheetpath (names /) (tstamps /))
      (tstamp 5AD991CD))
    (comp (ref C4)
      (value 100nF)
      (footprint Capacitors_SMD:C_0402)
      (fields
        (field (name MFR) Murata)
        (field (name MPN) GRM155R61A104KA01D)
        (field (name SPR) Digikey)
        (field (name SPN) 490-1318-2-ND))
      (libsource (lib device) (part C_Small))
      (sheetpath (names /) (tstamps /))
      (tstamp 5B0E6651))
    (comp (ref U4)
      (value ATSAMD21G18A-M)
      (footprint Housings_DFN_QFN:QFN-48-1EP_7x7mm_Pitch0.5mm)
      (fields
        (field (name MFR) Microchip)
        (field (name MPN) ATSAMD21G18A-MU)
        (field (name SPR) Microchip)
        (field (name SPN) ATSAMD21G18A-MU)
        (field (name SPURL) -))
      (libsource (lib atmel_armmcu) (part ATSAMD21G18A-M))
      (sheetpath (names /) (tstamps /))
      (tstamp 5B24382E))
    (comp (ref C10)
      (value 100nF)
      (footprint Capacitors_SMD:C_0402)
      (fields
        (field (name MFR) Murata)
        (field (name MPN) GRM155R61A104KA01D)
        (field (name SPR) Digikey)
        (field (name SPN) 490-1318-2-ND))
      (libsource (lib device) (part C_Small))
      (sheetpath (names /) (tstamps /))
      (tstamp 5B263B66))
    (comp (ref D29)
      (value LED_RGB_COMMON_ANODE)
      (footprint DFTcustom:LED-3528_soldermaskdefined)
      (fields
        (field (name MFR) "Will supply")
        (field (name MPN) -)
        (field (name SPR) -)
        (field (name SPN) -)
        (field (name SPURL) -))
      (libsource (lib win) (part LED_RGB_COMMON_ANODE))
      (sheetpath (names /) (tstamps /))
      (tstamp 5B268430))
    (comp (ref D30)
      (value LED_RGB_COMMON_ANODE)
      (footprint DFTcustom:LED-3528_soldermaskdefined)
      (fields
        (field (name MFR) "Will supply")
        (field (name MPN) -)
        (field (name SPR) -)
        (field (name SPN) -)
        (field (name SPURL) -))
      (libsource (lib win) (part LED_RGB_COMMON_ANODE))
      (sheetpath (names /) (tstamps /))
      (tstamp 5B26843B))
    (comp (ref D31)
      (value LED_RGB_COMMON_ANODE)
      (footprint DFTcustom:LED-3528_soldermaskdefined)
      (fields
        (field (name MFR) "Will supply")
        (field (name MPN) -)
        (field (name SPR) -)
        (field (name SPN) -)
        (field (name SPURL) -))
      (libsource (lib win) (part LED_RGB_COMMON_ANODE))
      (sheetpath (names /) (tstamps /))
      (tstamp 5B292914))
    (comp (ref C15)
      (value 10uF)
      (footprint Capacitors_SMD:C_0402)
      (fields
        (field (name MFR) Murata)
        (field (name MPN) GRM155R60G106ME44D)
        (field (name SPR) Digikey)
        (field (name SPN) 490-10693-1-ND))
      (libsource (lib device) (part C_Small))
      (sheetpath (names /) (tstamps /))
      (tstamp 5B29A6AB))
    (comp (ref C16)
      (value 100nF)
      (footprint Capacitors_SMD:C_0402)
      (fields
        (field (name MFR) Murata)
        (field (name MPN) GRM155R61A104KA01D)
        (field (name SPR) Digikey)
        (field (name SPN) 490-1318-2-ND))
      (libsource (lib device) (part C_Small))
      (sheetpath (names /) (tstamps /))
      (tstamp 5B29C29D))
    (comp (ref SW1)
      (value Switch_DPST)
      (footprint DFTcustom:TL3315)
      (libsource (lib DFTCustom) (part Switch_DPST))
      (sheetpath (names /) (tstamps /))
      (tstamp 5B2C81F7))
    (comp (ref U1)
      (value TLV71333PDBV)
      (footprint TO_SOT_Packages_SMD:SOT-23-5)
      (libsource (lib regul) (part TLV71333PDBV))
      (sheetpath (names /) (tstamps /))
      (tstamp 5B99EFD5)))
  (libparts
    (libpart (lib atmel_armmcu) (part ATSAMD21G15A-M)
      (aliases
        (alias ATSAMD21G16A-M)
        (alias ATSAMD21G17A-M)
        (alias ATSAMD21G18A-M))
      (footprints
        (fp QFN48))
      (fields
        (field (name Reference) U)
        (field (name Value) ATSAMD21G15A-M)
        (field (name Footprint) QFN48))
      (pins
        (pin (num 1) (name XIN32/TCC2WO0/SERCOM1P0/PA00) (type BiDi))
        (pin (num 2) (name XOUT32/TCC2WO1/SERCOM1P1/PA01) (type BiDi))
        (pin (num 3) (name VOUT/Y0/AIN0/PA02) (type BiDi))
        (pin (num 4) (name Y1/AIN1/ADCVREFA/DACVREFP/PA03) (type BiDi))
        (pin (num 5) (name GNDANA) (type power_in))
        (pin (num 6) (name VDDANA) (type power_in))
        (pin (num 7) (name PB08/AIN2/Y14/SERCOM4P0/TC4WO0) (type BiDi))
        (pin (num 8) (name PB09/AIN3/Y15/SERCOM4P1/TC4WO1) (type BiDi))
        (pin (num 9) (name TCC0WO0/SERCOM0P0/Y2/AIN0/AIN4/ADCVREFP/PA04) (type BiDi))
        (pin (num 10) (name TCC0W01/SERCOM0P1/Y3/AIN1/AIN5/PA05) (type BiDi))
        (pin (num 11) (name TCC1WO0/SERCOM0P2/Y4/AIN2/AIN6/PA06) (type BiDi))
        (pin (num 12) (name I2SSD0/TCC1WO1/SERCOM0P3/Y5/AIN3/AIN7/PA07) (type BiDi))
        (pin (num 13) (name I2SSD1/TCC1WO2/TCC0WO0/SERCOM2P0/SERCOM0P0/X0/AIN16/NMI/PA08) (type BiDi))
        (pin (num 14) (name I2SMCK0/TCC1WO3/TCC0WO1/SERCOM2P1/SERCOM0P1/X1/AIN17/PA09) (type BiDi))
        (pin (num 15) (name GCLKIO4/I2SSCK0/TCC0WO2/TCC1WO0/SERCOM2P2/SERCOM0P2/X2/AIN18/PA10) (type BiDi))
        (pin (num 16) (name GCLKIO5/I2SFS0/TCC0WO3/TCC1WO1/SERCOM2P3/SERCOM0P3/X3/AIN19/PA11) (type BiDi))
        (pin (num 17) (name VDDIO) (type power_in))
        (pin (num 18) (name GND) (type power_in))
        (pin (num 19) (name PB10/SECOM4P2/TC5WO0/TCC0WO4/I2SMCK1/GCLKIO4) (type BiDi))
        (pin (num 20) (name PB11/SERCOM4P3/TC5WO1/TCC0WO5/I2SSCK1/GCLKIO5) (type BiDi))
        (pin (num 21) (name ACCMP0/TCC0WO6/TCC2WO0/SERCOM4P0/SERCOM2P0/PA12) (type BiDi))
        (pin (num 22) (name ACCMP1/TCC0WO7/TCC2WO1/SERCOM4P1/SERCOM2P1/PA13) (type BiDi))
        (pin (num 23) (name XIN/GCLKIO0/TCC0WO4/TC3WO0/SERCOM4P2/SERCOM2P2/PA14) (type BiDi))
        (pin (num 24) (name XOUT/GCLKIO1/TCC0WO5/TC3WO1/SERCOM4P3/SERCOM2P3/PA15) (type BiDi))
        (pin (num 25) (name GCLKIO2/TCC0WO6/TCC2WO0/SERCOM3P0/SERCOM1P0/X4/PA16) (type BiDi))
        (pin (num 26) (name GCLKIO3/TCC0WO7/TCC2WO1/SERCOM3P1/SERCOM1P1/X5/PA17) (type BiDi))
        (pin (num 27) (name ACCMP0/TCC0WO2/TC3WO0/SERCOM3P2/SERCOM1P2/X6/PA18) (type BiDi))
        (pin (num 28) (name ACCMP1/I2SSD0/TCC0WO3/TC3WO1/SERCOM3P3/SERCOM1P3/X7/PA19) (type BiDi))
        (pin (num 29) (name GCLKIO4/I2SSCK0/TCC0WO6/TC7WO0/SERCOM3P2/SERCOM5P2/X8/PA20) (type BiDi))
        (pin (num 30) (name GCLKIO5/I2SFS0/TCC0WO7/TC7WO1/SERCOM3P3/SERCOM5P3/X9/PA21) (type BiDi))
        (pin (num 31) (name GCLKIO6/TCC0WO4/TC4WO0/SERCOM5P0/SERCOM3P0/X10/PA22) (type BiDi))
        (pin (num 32) (name GCLKIO7/USBSOF1KHZ/TCC0WO5/TC4WO1/SERCOM5P1/SERCOM3P1/X11/PA23) (type BiDi))
        (pin (num 33) (name USBDM/TCC1WO2/TC5WO0/SERCOM5P2/SERCOM3P2/PA24) (type BiDi))
        (pin (num 34) (name USBDP/TCC1WO3/TC5WO1/SERCOM5P3/SERCOM3P3/PA25) (type BiDi))
        (pin (num 35) (name GND) (type power_in))
        (pin (num 36) (name VDDIO) (type power_in))
        (pin (num 37) (name PB22/SERCOM5P2/TC7WO0/GCLKIO0) (type BiDi))
        (pin (num 38) (name PB23/SERCOM5P3/TC7WO1/GCLKIO1) (type BiDi))
        (pin (num 39) (name GCLKIO0/PA27) (type BiDi))
        (pin (num 40) (name ~RESET~) (type input))
        (pin (num 41) (name GCLKIO0/PA28) (type BiDi))
        (pin (num 42) (name GND) (type power_in))
        (pin (num 43) (name VDDCORE) (type passive))
        (pin (num 44) (name VDDIN) (type power_in))
        (pin (num 45) (name GCLKIO0/CORTEXM0P/SWCLK/TC1WO0/SERCOM1P2/PA30) (type BiDi))
        (pin (num 46) (name SWDIO/TC1WO1/SERCOM1P3/PA31) (type BiDi))
        (pin (num 47) (name PB02/AIN10/Y8/SERCOM5P0/TC6WO0) (type BiDi))
        (pin (num 48) (name PB03/AIN11/Y9/SERCOM5P1/TC6WO1) (type BiDi))
        (pin (num 49) (name PAD) (type power_in))))
    (libpart (lib DFTCustom) (part Atmel_SMD_6pin)
      (fields
        (field (name Reference) U)
        (field (name Value) Atmel_SMD_6pin))
      (pins
        (pin (num 1) (name SWDCLK) (type output))
        (pin (num 2) (name SWDIO) (type BiDi))
        (pin (num 3) (name SWO) (type output))
        (pin (num 4) (name nSRST) (type output))
        (pin (num 5) (name VTG) (type power_in))
        (pin (num 6) (name GND) (type power_in))))
    (libpart (lib win) (part CONN_MICRO_USB_B)
      (fields
        (field (name Reference) P)
        (field (name Value) CONN_MICRO_USB_B)
        (field (name Footprint) MODULE)
        (field (name Datasheet) DOCUMENTATION))
      (pins
        (pin (num 1) (name VBUS) (type power_out))
        (pin (num 2) (name DN) (type input))
        (pin (num 3) (name DP) (type input))
        (pin (num 4) (name ID) (type input))
        (pin (num 5) (name GND) (type input))
        (pin (num 6) (name SHLD) (type input))))
    (libpart (lib csd13383f4) (part CSD13383F4)
      (description "Vce 50V, Ic 800mA, NPN Transistor, TO-39")
      (docs http://www.onsemi.com/pub_link/Collateral/2N2219-D.PDF)
      (footprints
        (fp TO?39*))
      (fields
        (field (name Reference) Q)
        (field (name Value) CSD13383F4))
      (pins
        (pin (num D) (name D) (type passive))
        (pin (num G) (name G) (type passive))
        (pin (num S) (name S) (type passive))))
    (libpart (lib device) (part C_Small)
      (description "Unpolarized capacitor")
      (footprints
        (fp C_*))
      (fields
        (field (name Reference) C)
        (field (name Value) C_Small))
      (pins
        (pin (num 1) (name ~) (type passive))
        (pin (num 2) (name ~) (type passive))))
    (libpart (lib IS31FL3731_DFT) (part IS31FL3731_DFT)
      (fields
        (field (name Reference) U)
        (field (name Value) IS31FL3731_DFT))
      (pins
        (pin (num 1) (name CA9) (type BiDi))
        (pin (num 2) (name VCC) (type BiDi))
        (pin (num 3) (name SDB) (type BiDi))
        (pin (num 4) (name INTB) (type BiDi))
        (pin (num 5) (name GND) (type BiDi))
        (pin (num 6) (name R_EXT) (type BiDi))
        (pin (num 7) (name CB1) (type BiDi))
        (pin (num 8) (name CB2) (type BiDi))
        (pin (num 9) (name CB3) (type BiDi))
        (pin (num 10) (name CB4) (type BiDi))
        (pin (num 11) (name CB5) (type BiDi))
        (pin (num 12) (name CB6) (type BiDi))
        (pin (num 13) (name CB7) (type BiDi))
        (pin (num 14) (name CB8) (type BiDi))
        (pin (num 15) (name CB9) (type BiDi))
        (pin (num 16) (name C_FILT) (type BiDi))
        (pin (num 17) (name IN) (type BiDi))
        (pin (num 18) (name AD) (type BiDi))
        (pin (num 19) (name SDA) (type BiDi))
        (pin (num 20) (name SCL) (type BiDi))
        (pin (num 21) (name CA1) (type BiDi))
        (pin (num 22) (name CA2) (type BiDi))
        (pin (num 23) (name CA3) (type BiDi))
        (pin (num 24) (name CA4) (type BiDi))
        (pin (num 25) (name CA5) (type BiDi))
        (pin (num 26) (name CA6) (type BiDi))
        (pin (num 27) (name CA7) (type BiDi))
        (pin (num 28) (name CA8) (type BiDi))
        (pin (num 29) (name PAD) (type power_in))))
    (libpart (lib device) (part Jumper)
      (description "Jumper, generic, normally closed")
      (fields
        (field (name Reference) JP)
        (field (name Value) Jumper))
      (pins
        (pin (num 1) (name 1) (type passive))
        (pin (num 2) (name 2) (type passive))))
    (libpart (lib device) (part LED)
      (description "LED generic")
      (footprints
        (fp LED*))
      (fields
        (field (name Reference) D)
        (field (name Value) LED))
      (pins
        (pin (num 1) (name K) (type passive))
        (pin (num 2) (name A) (type passive))))
    (libpart (lib win) (part LED_RGB_COMMON_ANODE)
      (footprints
        (fp LED-3MM)
        (fp LED-5MM)
        (fp LED-10MM)
        (fp LED-0603)
        (fp LED-0805)
        (fp LED-1206)
        (fp LEDV))
      (fields
        (field (name Reference) D)
        (field (name Value) LED_RGB_COMMON_ANODE))
      (pins
        (pin (num 1) (name R) (type passive))
        (pin (num 2) (name +) (type passive))
        (pin (num 3) (name G) (type passive))
        (pin (num 4) (name B) (type passive))))
    (libpart (lib win) (part LIS2HH12)
      (fields
        (field (name Reference) U)
        (field (name Value) LIS2HH12)
        (field (name Footprint) MODULE)
        (field (name Datasheet) DOCUMENTATION))
      (pins
        (pin (num 1) (name SCL/SPC) (type input))
        (pin (num 2) (name CS) (type input))
        (pin (num 3) (name SDO/SA0) (type input))
        (pin (num 4) (name SDA/SDI/SDO) (type input))
        (pin (num 5) (name RES) (type input))
        (pin (num 6) (name GND) (type input))
        (pin (num 7) (name GND) (type input))
        (pin (num 8) (name GND) (type input))
        (pin (num 9) (name VDD) (type input))
        (pin (num 10) (name VDD_IO) (type input))
        (pin (num 11) (name INT2) (type input))
        (pin (num 12) (name INT1) (type input))))
    (libpart (lib MCP73831T-2ACI_OT) (part MCP73812)
      (fields
        (field (name Reference) U)
        (field (name Value) MCP73812))
      (pins
        (pin (num 1) (name CE) (type input))
        (pin (num 2) (name VSS) (type input))
        (pin (num 3) (name VBAT) (type BiDi))
        (pin (num 4) (name VDD) (type BiDi))
        (pin (num 5) (name PROG) (type input))))
    (libpart (lib device) (part R)
      (description Resistor)
      (footprints
        (fp R_*)
        (fp R_*))
      (fields
        (field (name Reference) R)
        (field (name Value) R))
      (pins
        (pin (num 1) (name ~) (type passive))
        (pin (num 2) (name ~) (type passive))))
    (libpart (lib DFTCustom) (part SPU0410HR5H-1)
      (fields
        (field (name Reference) U)
        (field (name Value) SPU0410HR5H-1))
      (pins
        (pin (num 1) (name VDD) (type power_in))
        (pin (num 2) (name GND) (type power_in))
        (pin (num 3) (name GND) (type passive))
        (pin (num 4) (name OUT) (type output))))
    (libpart (lib DFTCustom) (part Switch_DPST)
      (fields
        (field (name Reference) SW)
        (field (name Value) Switch_DPST))
      (pins
        (pin (num 1) (name 1) (type input))
        (pin (num 2) (name 2) (type input))
        (pin (num 3) (name 3) (type input))
        (pin (num 4) (name 4) (type input))))
    (libpart (lib regul) (part TLV71209_SOT23-5)
      (aliases
        (alias TLV71210_SOT23-5)
        (alias TLV71211_SOT23-5)
        (alias TLV71310PDBV)
        (alias TLV71311PDBV)
        (alias TLV71312PDBV)
        (alias TLV71315PDBV)
        (alias TLV71318PDBV)
        (alias TLV713185PDBV)
        (alias TLV71325PDBV)
        (alias TLV71328PDBV)
        (alias TLV713285PDBV)
        (alias TLV71330PDBV)
        (alias TLV71333PDBV))
      (description "300 mA Low Dropout Voltage Regulator, Fixed Output 0.9V, SOT-23-5")
      (docs http://www.ti.com/lit/ds/symlink/tlv712.pdf)
      (footprints
        (fp SOT?23*))
      (fields
        (field (name Reference) U)
        (field (name Value) TLV71209_SOT23-5)
        (field (name Footprint) TO_SOT_Packages_SMD:SOT-23-5))
      (pins
        (pin (num 1) (name IN) (type power_in))
        (pin (num 2) (name GND) (type power_in))
        (pin (num 3) (name EN) (type input))
        (pin (num 4) (name NC) (type NotConnected))
        (pin (num 5) (name OUT) (type power_out))))
    (libpart (lib NorBot) (part TSOP753)
      (footprints
        (fp *TSOP7*))
      (fields
        (field (name Reference) U)
        (field (name Value) TSOP753))
      (pins
        (pin (num 1) (name GND) (type power_in))
        (pin (num 2) (name VS) (type power_in))
        (pin (num 3) (name OUT) (type output))
        (pin (num 4) (name GND) (type power_in)))))
  (libraries
    (library (logical win)
      (uri C:\Users\jcloi\Documents\bracelight\win.lib))
    (library (logical device)
      (uri "C:\\Program Files\\KiCad\\share\\kicad\\library\\device.lib"))
    (library (logical DFTCustom)
      (uri C:\Users\jcloi\Documents\bracelight\DFTCustom.lib))
    (library (logical regul)
      (uri "C:\\Program Files\\KiCad\\share\\kicad\\library\\regul.lib"))
    (library (logical NorBot)
      (uri C:\Users\jcloi\Documents\bracelight\NorBot.lib))
    (library (logical MCP73831T-2ACI_OT)
      (uri C:\Users\jcloi\Documents\bracelight\MCP73831T-2ACI_OT.lib))
    (library (logical csd13383f4)
      (uri C:\Users\jcloi\Documents\bracelight\csd13383f4.lib))
    (library (logical IS31FL3731_DFT)
      (uri C:\Users\jcloi\Documents\bracelight\IS31FL3731_DFT.lib))
    (library (logical atmel_armmcu)
      (uri C:\Users\jcloi\Documents\bracelight\atmel_armmcu.lib)))
  (nets
    (net (code 1) (name /BV_GND)
      (node (ref R14) (pin 2))
      (node (ref U4) (pin 12)))
    (net (code 2) (name /VDDCORE)
      (node (ref U4) (pin 43))
      (node (ref C4) (pin 1)))
    (net (code 3) (name IR_PWR)
      (node (ref C5) (pin 1))
      (node (ref C10) (pin 1))
      (node (ref U4) (pin 10))
      (node (ref U3) (pin 2))
      (node (ref U8) (pin 1)))
    (net (code 4) (name "Net-(U7-Pad15)")
      (node (ref U7) (pin 15)))
    (net (code 5) (name "Net-(P1-Pad4)")
      (node (ref P1) (pin 4)))
    (net (code 6) (name "Net-(U6-Pad3)")
      (node (ref U6) (pin 3)))
    (net (code 7) (name "Net-(U7-Pad14)")
      (node (ref U7) (pin 14)))
    (net (code 8) (name "Net-(SW1-Pad1)")
      (node (ref SW1) (pin 1)))
    (net (code 9) (name "Net-(SW1-Pad3)")
      (node (ref SW1) (pin 3)))
    (net (code 10) (name "Net-(U4-Pad3)")
      (node (ref U4) (pin 3)))
    (net (code 11) (name "Net-(U4-Pad4)")
      (node (ref U4) (pin 4)))
    (net (code 12) (name "Net-(U4-Pad14)")
      (node (ref U4) (pin 14)))
    (net (code 13) (name "Net-(U4-Pad15)")
      (node (ref U4) (pin 15)))
    (net (code 14) (name "Net-(U4-Pad16)")
      (node (ref U4) (pin 16)))
    (net (code 15) (name "Net-(U4-Pad39)")
      (node (ref U4) (pin 39)))
    (net (code 16) (name "Net-(U4-Pad41)")
      (node (ref U4) (pin 41)))
    (net (code 17) (name "Net-(U4-Pad47)")
      (node (ref U4) (pin 47)))
    (net (code 18) (name /AUDIO_FILTERED)
      (node (ref C13) (pin 1))
      (node (ref U7) (pin 17))
      (node (ref C12) (pin 1)))
    (net (code 19) (name /AUDIO_DIRECT)
      (node (ref U4) (pin 13))
      (node (ref U8) (pin 4))
      (node (ref C12) (pin 2))
      (node (ref C13) (pin 2)))
    (net (code 20) (name "Net-(U4-Pad48)")
      (node (ref U4) (pin 48)))
    (net (code 21) (name nSRST)
      (node (ref C9) (pin 2))
      (node (ref U4) (pin 40))
      (node (ref U6) (pin 4)))
    (net (code 22) (name /HALF_BV)
      (node (ref R13) (pin 2))
      (node (ref R14) (pin 1))
      (node (ref U4) (pin 11)))
    (net (code 23) (name GND)
      (node (ref C8) (pin 2))
      (node (ref U4) (pin 42))
      (node (ref C10) (pin 2))
      (node (ref U4) (pin 49))
      (node (ref U1) (pin 2))
      (node (ref C16) (pin 2))
      (node (ref SW1) (pin 4))
      (node (ref C15) (pin 2))
      (node (ref C4) (pin 2))
      (node (ref R15) (pin 1))
      (node (ref C14) (pin 2))
      (node (ref U7) (pin 5))
      (node (ref U5) (pin 2))
      (node (ref U8) (pin 2))
      (node (ref C5) (pin 2))
      (node (ref P1) (pin 6))
      (node (ref P1) (pin 5))
      (node (ref R3) (pin 2))
      (node (ref C11) (pin 2))
      (node (ref Q1) (pin S))
      (node (ref U7) (pin 18))
      (node (ref JP1) (pin 2))
      (node (ref U4) (pin 5))
      (node (ref U2) (pin 5))
      (node (ref U6) (pin 6))
      (node (ref C9) (pin 1))
      (node (ref U2) (pin 3))
      (node (ref U3) (pin 4))
      (node (ref C2) (pin 2))
      (node (ref U3) (pin 1))
      (node (ref C3) (pin 2))
      (node (ref U4) (pin 18))
      (node (ref U4) (pin 35))
      (node (ref U7) (pin 29))
      (node (ref C7) (pin 2))
      (node (ref U2) (pin 8))
      (node (ref U2) (pin 7))
      (node (ref U2) (pin 6)))
    (net (code 24) (name "Net-(C16-Pad1)")
      (node (ref U8) (pin 3))
      (node (ref C16) (pin 1)))
    (net (code 25) (name "Net-(SW1-Pad2)")
      (node (ref U4) (pin 31))
      (node (ref SW1) (pin 2)))
    (net (code 26) (name +BATT)
      (node (ref R13) (pin 1))
      (node (ref U5) (pin 3))
      (node (ref JP1) (pin 1))
      (node (ref U1) (pin 3))
      (node (ref U1) (pin 1))
      (node (ref R1) (pin 1))
      (node (ref C8) (pin 1)))
    (net (code 27) (name "Net-(U1-Pad4)")
      (node (ref U1) (pin 4)))
    (net (code 28) (name "Net-(U4-Pad32)")
      (node (ref U4) (pin 32)))
    (net (code 29) (name "Net-(U4-Pad19)")
      (node (ref U4) (pin 19)))
    (net (code 30) (name "Net-(U4-Pad20)")
      (node (ref U4) (pin 20)))
    (net (code 31) (name "Net-(U4-Pad38)")
      (node (ref U4) (pin 38)))
    (net (code 32) (name "Net-(U4-Pad1)")
      (node (ref U4) (pin 1)))
    (net (code 33) (name "Net-(U4-Pad2)")
      (node (ref U4) (pin 2)))
    (net (code 34) (name "Net-(U4-Pad9)")
      (node (ref U4) (pin 9)))
    (net (code 35) (name "Net-(U4-Pad23)")
      (node (ref U4) (pin 23)))
    (net (code 36) (name "Net-(U4-Pad24)")
      (node (ref U4) (pin 24)))
    (net (code 37) (name "Net-(U4-Pad25)")
      (node (ref U4) (pin 25)))
    (net (code 38) (name "Net-(U4-Pad7)")
      (node (ref U4) (pin 7)))
    (net (code 39) (name "Net-(U7-Pad1)")
      (node (ref U7) (pin 1)))
    (net (code 40) (name "Net-(U7-Pad28)")
      (node (ref U7) (pin 28)))
    (net (code 41) (name "Net-(C14-Pad1)")
      (node (ref U7) (pin 16))
      (node (ref C14) (pin 1)))
    (net (code 42) (name "Net-(R2-Pad1)")
      (node (ref R2) (pin 1))
      (node (ref U7) (pin 6)))
    (net (code 43) (name /IRLED-)
      (node (ref D26) (pin 1))
      (node (ref D28) (pin 1))
      (node (ref Q1) (pin D))
      (node (ref D25) (pin 1))
      (node (ref D27) (pin 1)))
    (net (code 44) (name "Net-(R2-Pad2)")
      (node (ref R2) (pin 2))
      (node (ref R3) (pin 1)))
    (net (code 45) (name /IRLED+)
      (node (ref D28) (pin 2))
      (node (ref D27) (pin 2))
      (node (ref D25) (pin 2))
      (node (ref D26) (pin 2))
      (node (ref R1) (pin 2)))
    (net (code 46) (name +3V3)
      (node (ref U6) (pin 5))
      (node (ref C11) (pin 1))
      (node (ref R11) (pin 2))
      (node (ref R18) (pin 1))
      (node (ref R12) (pin 2))
      (node (ref U4) (pin 17))
      (node (ref C2) (pin 1))
      (node (ref C3) (pin 1))
      (node (ref R17) (pin 1))
      (node (ref U4) (pin 36))
      (node (ref U2) (pin 9))
      (node (ref U2) (pin 10))
      (node (ref U4) (pin 44))
      (node (ref U7) (pin 2))
      (node (ref U1) (pin 5))
      (node (ref U4) (pin 6))
      (node (ref C15) (pin 1)))
    (net (code 47) (name /CA5)
      (node (ref D2) (pin 1))
      (node (ref D8) (pin 1))
      (node (ref U7) (pin 25))
      (node (ref D10) (pin 2))
      (node (ref D9) (pin 2))
      (node (ref D4) (pin 1))
      (node (ref D6) (pin 1))
      (node (ref D12) (pin 3)))
    (net (code 48) (name /CA4)
      (node (ref D5) (pin 4))
      (node (ref D12) (pin 1))
      (node (ref U7) (pin 24))
      (node (ref D8) (pin 2))
      (node (ref D10) (pin 1))
      (node (ref D1) (pin 4))
      (node (ref D3) (pin 4))
      (node (ref D7) (pin 2)))
    (net (code 49) (name /CB1)
      (node (ref D15) (pin 2))
      (node (ref D14) (pin 2))
      (node (ref D30) (pin 1))
      (node (ref D24) (pin 1))
      (node (ref D22) (pin 1))
      (node (ref U7) (pin 7))
      (node (ref D18) (pin 1))
      (node (ref D20) (pin 1))
      (node (ref D16) (pin 1)))
    (net (code 50) (name /CA2)
      (node (ref D13) (pin 3))
      (node (ref D4) (pin 2))
      (node (ref U7) (pin 22))
      (node (ref D5) (pin 3))
      (node (ref D3) (pin 2))
      (node (ref D9) (pin 3))
      (node (ref D11) (pin 3))
      (node (ref D7) (pin 3))
      (node (ref D1) (pin 1)))
    (net (code 51) (name /CA3)
      (node (ref D13) (pin 4))
      (node (ref D6) (pin 2))
      (node (ref D3) (pin 3))
      (node (ref D5) (pin 2))
      (node (ref D11) (pin 4))
      (node (ref D1) (pin 3))
      (node (ref D9) (pin 4))
      (node (ref U7) (pin 23))
      (node (ref D7) (pin 4)))
    (net (code 52) (name /CB2)
      (node (ref D14) (pin 1))
      (node (ref D22) (pin 3))
      (node (ref D20) (pin 3))
      (node (ref U7) (pin 8))
      (node (ref D24) (pin 3))
      (node (ref D17) (pin 2))
      (node (ref D30) (pin 3))
      (node (ref D16) (pin 2))
      (node (ref D18) (pin 3)))
    (net (code 53) (name /CB4)
      (node (ref U7) (pin 10))
      (node (ref D16) (pin 4))
      (node (ref D20) (pin 2))
      (node (ref D21) (pin 2))
      (node (ref D18) (pin 4))
      (node (ref D31) (pin 1))
      (node (ref D14) (pin 4))
      (node (ref D23) (pin 1))
      (node (ref D29) (pin 1)))
    (net (code 54) (name /CA7)
      (node (ref D10) (pin 4))
      (node (ref D8) (pin 4))
      (node (ref U7) (pin 27))
      (node (ref D4) (pin 4))
      (node (ref D13) (pin 2))
      (node (ref D6) (pin 4))
      (node (ref D2) (pin 4))
      (node (ref D12) (pin 4)))
    (net (code 55) (name /CB3)
      (node (ref D19) (pin 2))
      (node (ref D30) (pin 4))
      (node (ref D24) (pin 4))
      (node (ref D18) (pin 2))
      (node (ref D22) (pin 4))
      (node (ref U7) (pin 9))
      (node (ref D16) (pin 3))
      (node (ref D20) (pin 4))
      (node (ref D14) (pin 3)))
    (net (code 56) (name /CA6)
      (node (ref D8) (pin 3))
      (node (ref D10) (pin 3))
      (node (ref D11) (pin 2))
      (node (ref D12) (pin 2))
      (node (ref D6) (pin 3))
      (node (ref D2) (pin 3))
      (node (ref D4) (pin 3))
      (node (ref U7) (pin 26)))
    (net (code 57) (name /CB5)
      (node (ref D23) (pin 2))
      (node (ref D19) (pin 1))
      (node (ref D22) (pin 2))
      (node (ref U7) (pin 11))
      (node (ref D21) (pin 1))
      (node (ref D17) (pin 1))
      (node (ref D15) (pin 1))
      (node (ref D29) (pin 3))
      (node (ref D31) (pin 3)))
    (net (code 58) (name /CB6)
      (node (ref D31) (pin 4))
      (node (ref D15) (pin 3))
      (node (ref D23) (pin 3))
      (node (ref D21) (pin 3))
      (node (ref D17) (pin 3))
      (node (ref D19) (pin 3))
      (node (ref D29) (pin 2))
      (node (ref D24) (pin 2))
      (node (ref U7) (pin 12)))
    (net (code 59) (name /CB7)
      (node (ref D23) (pin 4))
      (node (ref D21) (pin 4))
      (node (ref D31) (pin 2))
      (node (ref D30) (pin 2))
      (node (ref D29) (pin 4))
      (node (ref D17) (pin 4))
      (node (ref U7) (pin 13))
      (node (ref D19) (pin 4))
      (node (ref D15) (pin 4)))
    (net (code 60) (name /CA1)
      (node (ref U7) (pin 21))
      (node (ref D3) (pin 1))
      (node (ref D2) (pin 2))
      (node (ref D13) (pin 1))
      (node (ref D7) (pin 1))
      (node (ref D9) (pin 1))
      (node (ref D5) (pin 1))
      (node (ref D11) (pin 1))
      (node (ref D1) (pin 2)))
    (net (code 61) (name ACC_CS)
      (node (ref U2) (pin 2))
      (node (ref U4) (pin 28)))
    (net (code 62) (name +5V)
      (node (ref U5) (pin 1))
      (node (ref P1) (pin 1))
      (node (ref U5) (pin 4))
      (node (ref C7) (pin 1)))
    (net (code 63) (name USB_D_P)
      (node (ref P1) (pin 3))
      (node (ref U4) (pin 34)))
    (net (code 64) (name "Net-(R15-Pad2)")
      (node (ref U5) (pin 5))
      (node (ref R15) (pin 2)))
    (net (code 65) (name IR_RCV)
      (node (ref U3) (pin 3))
      (node (ref U4) (pin 8)))
    (net (code 66) (name SWCLK)
      (node (ref R18) (pin 2))
      (node (ref R17) (pin 2))
      (node (ref U6) (pin 1))
      (node (ref U4) (pin 45)))
    (net (code 67) (name SWDIO)
      (node (ref U4) (pin 46))
      (node (ref U6) (pin 2)))
    (net (code 68) (name IR_SEND)
      (node (ref Q1) (pin G))
      (node (ref U4) (pin 37)))
    (net (code 69) (name ACC_INT1)
      (node (ref U4) (pin 29))
      (node (ref U2) (pin 12)))
    (net (code 70) (name ACC_INT2)
      (node (ref U4) (pin 30))
      (node (ref U2) (pin 11)))
    (net (code 71) (name I2C_SDA)
      (node (ref R12) (pin 1))
      (node (ref U2) (pin 4))
      (node (ref U4) (pin 21))
      (node (ref U7) (pin 19)))
    (net (code 72) (name USB_D_N)
      (node (ref P1) (pin 2))
      (node (ref U4) (pin 33)))
    (net (code 73) (name I2C_SCL)
      (node (ref U7) (pin 20))
      (node (ref U4) (pin 22))
      (node (ref U2) (pin 1))
      (node (ref R11) (pin 1)))
    (net (code 74) (name SDB)
      (node (ref U7) (pin 3))
      (node (ref U4) (pin 27)))
    (net (code 75) (name INTB)
      (node (ref U7) (pin 4))
      (node (ref U4) (pin 26)))))