EESchema Schematic File Version 2
LIBS:bracelight-rescue
LIBS:power
LIBS:device
LIBS:transistors
LIBS:conn
LIBS:linear
LIBS:regul
LIBS:74xx
LIBS:cmos4000
LIBS:adc-dac
LIBS:memory
LIBS:xilinx
LIBS:microcontrollers
LIBS:dsp
LIBS:microchip
LIBS:analog_switches
LIBS:motorola
LIBS:texas
LIBS:intel
LIBS:audio
LIBS:interface
LIBS:digital-audio
LIBS:philips
LIBS:display
LIBS:cypress
LIBS:siliconi
LIBS:opto
LIBS:atmel
LIBS:contrib
LIBS:valves
LIBS:bl_custom
LIBS:MCP73833T-AMI_MF
LIBS:DFTCustom
LIBS:win
LIBS:SC189
LIBS:nRF24L01+
LIBS:nrf24l01
LIBS:ATMEGA328P-MU
LIBS:NorBot
LIBS:dc-dc
LIBS:Custom_Parts
LIBS:Poliboard3-cache
LIBS:wm8758b
LIBS:ti
LIBS:MCP73831T-2ACI_OT
LIBS:attiny4313
LIBS:IS31FL3731_DFT
LIBS:csd13383f4
LIBS:samd21
LIBS:atmel_armmcu
LIBS:bracelight-cache
EELAYER 25 0
EELAYER END
$Descr A4 11693 8268
encoding utf-8
Sheet 1 1
Title ""
Date ""
Rev ""
Comp ""
Comment1 ""
Comment2 ""
Comment3 ""
Comment4 ""
$EndDescr
$Comp
L C_Small C7
U 1 1 59F6A1FB
P 7400 5800
F 0 "C7" H 7410 5870 50  0000 L CNN
F 1 "10uF" H 7410 5720 50  0000 L CNN
F 2 "Capacitors_SMD:C_0402" H 7400 5800 50  0001 C CNN
F 3 "" H 7400 5800 50  0001 C CNN
F 4 "Murata" H -650 1050 50  0001 C CNN "MFR"
F 5 "GRM155R60G106ME44D" H -650 1050 50  0001 C CNN "MPN"
F 6 "Digikey" H -650 1050 50  0001 C CNN "SPR"
F 7 "490-10693-1-ND" H -650 1050 50  0001 C CNN "SPN"
F 8 "" H -650 1050 50  0001 C CNN "SPURL"
	1    7400 5800
	-1   0    0    -1  
$EndComp
$Comp
L GND #PWR01
U 1 1 59F6A7AB
P 7400 5900
F 0 "#PWR01" H 7400 5650 50  0001 C CNN
F 1 "GND" H 7400 5750 50  0000 C CNN
F 2 "" H 7400 5900 50  0000 C CNN
F 3 "" H 7400 5900 50  0000 C CNN
	1    7400 5900
	-1   0    0    -1  
$EndComp
$Comp
L +BATT #PWR02
U 1 1 59F6C1DB
P 8400 850
F 0 "#PWR02" H 8400 700 50  0001 C CNN
F 1 "+BATT" H 8400 990 50  0000 C CNN
F 2 "" H 8400 850 50  0000 C CNN
F 3 "" H 8400 850 50  0000 C CNN
	1    8400 850 
	1    0    0    -1  
$EndComp
$Comp
L +BATT #PWR03
U 1 1 5A04A4C7
P 9250 4250
F 0 "#PWR03" H 9250 4100 50  0001 C CNN
F 1 "+BATT" H 9250 4390 50  0000 C CNN
F 2 "" H 9250 4250 50  0000 C CNN
F 3 "" H 9250 4250 50  0000 C CNN
	1    9250 4250
	1    0    0    -1  
$EndComp
$Comp
L GND #PWR04
U 1 1 5A04A64E
P 9250 5050
F 0 "#PWR04" H 9250 4800 50  0001 C CNN
F 1 "GND" H 9250 4900 50  0000 C CNN
F 2 "" H 9250 5050 50  0000 C CNN
F 3 "" H 9250 5050 50  0000 C CNN
	1    9250 5050
	1    0    0    -1  
$EndComp
$Comp
L CONN_MICRO_USB_B P1
U 1 1 5A0158E6
P 7550 2400
F 0 "P1" H 7550 2450 50  0000 C CNN
F 1 "CONN_MICRO_USB_B" H 7550 2550 50  0000 C CNN
F 2 "DFTcustom:USB-MICRO-B-FCI-10118192" H 7550 2350 50  0001 C CNN
F 3 "DOCUMENTATION" H 7550 1750 50  0001 C CNN
F 4 "Amphenol" H 2500 -4300 50  0001 C CNN "MFR"
F 5 "10118192-0001LF" H 2500 -4300 50  0001 C CNN "MPN"
F 6 "Digikey" H 2500 -4300 50  0001 C CNN "SPR"
F 7 "609-4613-2-ND " H 2500 -4300 50  0001 C CNN "SPN"
F 8 "" H 2500 -4300 50  0001 C CNN "SPURL"
	1    7550 2400
	1    0    0    -1  
$EndComp
$Comp
L GND #PWR05
U 1 1 5A015A32
P 7700 3000
F 0 "#PWR05" H 7700 2750 50  0001 C CNN
F 1 "GND" H 7700 2850 50  0000 C CNN
F 2 "" H 7700 3000 50  0000 C CNN
F 3 "" H 7700 3000 50  0000 C CNN
	1    7700 3000
	1    0    0    -1  
$EndComp
$Comp
L +5V #PWR06
U 1 1 5A0160AE
P 7300 3000
F 0 "#PWR06" H 7300 2850 50  0001 C CNN
F 1 "+5V" H 7300 3140 50  0000 C CNN
F 2 "" H 7300 3000 50  0000 C CNN
F 3 "" H 7300 3000 50  0000 C CNN
	1    7300 3000
	-1   0    0    1   
$EndComp
$Comp
L GND #PWR07
U 1 1 5A0164E4
P 7800 3000
F 0 "#PWR07" H 7800 2750 50  0001 C CNN
F 1 "GND" H 7800 2850 50  0000 C CNN
F 2 "" H 7800 3000 50  0000 C CNN
F 3 "" H 7800 3000 50  0000 C CNN
	1    7800 3000
	1    0    0    -1  
$EndComp
$Comp
L GND #PWR08
U 1 1 59F6EE89
P 1800 3550
F 0 "#PWR08" H 1800 3300 50  0001 C CNN
F 1 "GND" H 1800 3400 50  0000 C CNN
F 2 "" H 1800 3550 50  0000 C CNN
F 3 "" H 1800 3550 50  0000 C CNN
	1    1800 3550
	1    0    0    -1  
$EndComp
$Comp
L C_Small C3
U 1 1 59F6ECD6
P 1800 3400
F 0 "C3" H 1810 3470 50  0000 L CNN
F 1 "100nF" H 1810 3320 50  0000 L CNN
F 2 "Capacitors_SMD:C_0402" H 1800 3400 50  0001 C CNN
F 3 "" H 1800 3400 50  0001 C CNN
F 4 "Murata" H -2900 2000 50  0001 C CNN "MFR"
F 5 "GRM155R61A104KA01D" H -2900 2000 50  0001 C CNN "MPN"
F 6 "Digikey" H -2900 2000 50  0001 C CNN "SPR"
F 7 "490-1318-2-ND" H -2900 2000 50  0001 C CNN "SPN"
F 8 "" H -2900 2000 50  0001 C CNN "SPURL"
	1    1800 3400
	1    0    0    -1  
$EndComp
$Comp
L TSOP753 U3
U 1 1 5A19BA4B
P 9750 2550
F 0 "U3" H 10000 2200 60  0000 C CNN
F 1 "TSOP753" H 9800 2800 60  0000 C CNN
F 2 "DFTcustom:TSOP753_755" H 9700 2700 60  0001 C CNN
F 3 "" H 9700 2700 60  0001 C CNN
F 4 "Vishay" H 1200 -600 50  0001 C CNN "MFR"
F 5 "TSOP75338WTT" H 1200 -600 50  0001 C CNN "MPN"
F 6 "Digkey" H 1200 -600 50  0001 C CNN "SPR"
F 7 "TSOP75338WTTCT-ND" H 1200 -600 50  0001 C CNN "SPN"
F 8 "-" H 0   0   50  0001 C CNN "SPURL"
	1    9750 2550
	1    0    0    -1  
$EndComp
$Comp
L GND #PWR09
U 1 1 5A19C532
P 9200 2850
F 0 "#PWR09" H 9200 2600 50  0001 C CNN
F 1 "GND" H 9200 2700 50  0000 C CNN
F 2 "" H 9200 2850 50  0000 C CNN
F 3 "" H 9200 2850 50  0000 C CNN
	1    9200 2850
	1    0    0    -1  
$EndComp
$Comp
L GND #PWR010
U 1 1 5A19F889
P 9000 2700
F 0 "#PWR010" H 9000 2450 50  0001 C CNN
F 1 "GND" H 9000 2550 50  0000 C CNN
F 2 "" H 9000 2700 50  0000 C CNN
F 3 "" H 9000 2700 50  0000 C CNN
	1    9000 2700
	1    0    0    -1  
$EndComp
$Comp
L +3.3V #PWR011
U 1 1 5A65364C
P 9600 1000
F 0 "#PWR011" H 9600 850 50  0001 C CNN
F 1 "+3.3V" H 9600 1140 50  0000 C CNN
F 2 "" H 9600 1000 50  0001 C CNN
F 3 "" H 9600 1000 50  0001 C CNN
	1    9600 1000
	0    1    1    0   
$EndComp
$Comp
L LIS2HH12 U2
U 1 1 59F6BBAA
P 3350 3650
F 0 "U2" H 3350 3450 50  0000 C CNN
F 1 "LIS2DE12 or LIS2HH12TR" H 3350 3350 50  0000 C CNN
F 2 "DFTcustom:LGA12" H 3350 3150 50  0001 C CNN
F 3 "DOCUMENTATION" H 3350 3050 50  0001 C CNN
F 4 "ST" H -2900 2000 50  0001 C CNN "MFR"
F 5 "LIS2HH12TR" H -2900 2000 50  0001 C CNN "MPN"
F 6 "Digikey" H -2900 2000 50  0001 C CNN "SPR"
F 7 "497-15069-1-ND" H -2900 2000 50  0001 C CNN "SPN"
F 8 "-" H -900 2450 50  0001 C CNN "SPURL"
	1    3350 3650
	1    0    0    -1  
$EndComp
$Comp
L GND #PWR012
U 1 1 59F6C64E
P 2350 4150
F 0 "#PWR012" H 2350 3900 50  0001 C CNN
F 1 "GND" H 2350 4000 50  0000 C CNN
F 2 "" H 2350 4150 50  0000 C CNN
F 3 "" H 2350 4150 50  0000 C CNN
	1    2350 4150
	1    0    0    -1  
$EndComp
$Comp
L GND #PWR013
U 1 1 59F6F14E
P 4200 3500
F 0 "#PWR013" H 4200 3250 50  0001 C CNN
F 1 "GND" H 4200 3350 50  0000 C CNN
F 2 "" H 4200 3500 50  0000 C CNN
F 3 "" H 4200 3500 50  0000 C CNN
	1    4200 3500
	0    -1   -1   0   
$EndComp
$Comp
L +3.3V #PWR014
U 1 1 5A661570
P 2350 3200
F 0 "#PWR014" H 2350 3050 50  0001 C CNN
F 1 "+3.3V" H 2350 3340 50  0000 C CNN
F 2 "" H 2350 3200 50  0001 C CNN
F 3 "" H 2350 3200 50  0001 C CNN
	1    2350 3200
	1    0    0    -1  
$EndComp
$Comp
L Jumper JP1
U 1 1 5A67784B
P 9250 4650
F 0 "JP1" H 9250 4800 50  0000 C CNN
F 1 "Jumper" H 9250 4570 50  0000 C CNN
F 2 "DFTcustom:JUMPER_2PIN" H 9250 4650 50  0001 C CNN
F 3 "" H 9250 4650 50  0001 C CNN
F 4 "DNS" H -600 500 50  0001 C CNN "MFR"
F 5 "-" H -600 500 50  0001 C CNN "MPN"
F 6 "-" H -600 500 50  0001 C CNN "SPR"
F 7 "-" H -600 500 50  0001 C CNN "SPN"
F 8 "-" H -600 500 50  0001 C CNN "SPURL"
	1    9250 4650
	0    1    1    0   
$EndComp
$Comp
L R R11
U 1 1 5A01502A
P 7350 4400
F 0 "R11" V 7430 4400 50  0000 C CNN
F 1 "10k" V 7350 4400 50  0000 C CNN
F 2 "Resistors_SMD:R_0402" V 7280 4400 50  0001 C CNN
F 3 "" H 7350 4400 50  0001 C CNN
F 4 "Yageo" H 400 1200 50  0001 C CNN "MFR"
F 5 "RC0402JR-0710KL" H 400 1200 50  0001 C CNN "MPN"
F 6 "Digikey" H 400 1200 50  0001 C CNN "SPR"
F 7 "311-10KJRCT-ND" H 400 1200 50  0001 C CNN "SPN"
F 8 "" H 400 1200 50  0001 C CNN "SPURL"
	1    7350 4400
	1    0    0    -1  
$EndComp
$Comp
L R R12
U 1 1 59F6155D
P 7150 4400
F 0 "R12" V 7230 4400 50  0000 C CNN
F 1 "10k" V 7150 4400 50  0000 C CNN
F 2 "Resistors_SMD:R_0402" V 7080 4400 50  0001 C CNN
F 3 "" H 7150 4400 50  0001 C CNN
F 4 "Yageo" H 400 1200 50  0001 C CNN "MFR"
F 5 "RC0402JR-0710KL" H 400 1200 50  0001 C CNN "MPN"
F 6 "Digikey" H 400 1200 50  0001 C CNN "SPR"
F 7 "311-10KJRCT-ND" H 400 1200 50  0001 C CNN "SPN"
F 8 "" H 400 1200 50  0001 C CNN "SPURL"
	1    7150 4400
	1    0    0    -1  
$EndComp
$Comp
L +3.3V #PWR015
U 1 1 5A683480
P 7150 4550
F 0 "#PWR015" H 7150 4400 50  0001 C CNN
F 1 "+3.3V" H 7150 4690 50  0000 C CNN
F 2 "" H 7150 4550 50  0001 C CNN
F 3 "" H 7150 4550 50  0001 C CNN
	1    7150 4550
	-1   0    0    1   
$EndComp
$Comp
L +3.3V #PWR016
U 1 1 5A68352A
P 7350 4550
F 0 "#PWR016" H 7350 4400 50  0001 C CNN
F 1 "+3.3V" H 7350 4690 50  0000 C CNN
F 2 "" H 7350 4550 50  0001 C CNN
F 3 "" H 7350 4550 50  0001 C CNN
	1    7350 4550
	-1   0    0    1   
$EndComp
$Comp
L PWR_FLAG #FLG017
U 1 1 5A6896DE
P 8050 900
F 0 "#FLG017" H 8050 975 50  0001 C CNN
F 1 "PWR_FLAG" H 8050 1050 50  0000 C CNN
F 2 "" H 8050 900 50  0001 C CNN
F 3 "" H 8050 900 50  0001 C CNN
	1    8050 900 
	1    0    0    -1  
$EndComp
$Comp
L PWR_FLAG #FLG018
U 1 1 5A68AF85
P 9350 5000
F 0 "#FLG018" H 9350 5075 50  0001 C CNN
F 1 "PWR_FLAG" H 9350 5150 50  0000 C CNN
F 2 "" H 9350 5000 50  0001 C CNN
F 3 "" H 9350 5000 50  0001 C CNN
	1    9350 5000
	0    1    1    0   
$EndComp
$Comp
L PWR_FLAG #FLG019
U 1 1 5A68BD47
P 9250 2350
F 0 "#FLG019" H 9250 2425 50  0001 C CNN
F 1 "PWR_FLAG" H 9250 2500 50  0000 C CNN
F 2 "" H 9250 2350 50  0001 C CNN
F 3 "" H 9250 2350 50  0001 C CNN
	1    9250 2350
	1    0    0    -1  
$EndComp
$Comp
L C_Small C5
U 1 1 5A6A63D5
P 9000 2600
F 0 "C5" H 9010 2670 50  0000 L CNN
F 1 "10uF" H 9010 2520 50  0000 L CNN
F 2 "Capacitors_SMD:C_0402" H 9000 2600 50  0001 C CNN
F 3 "" H 9000 2600 50  0001 C CNN
F 4 "Murata" H 800 650 50  0001 C CNN "MFR"
F 5 "GRM155R60G106ME44D" H 800 650 50  0001 C CNN "MPN"
F 6 "Digikey" H 800 650 50  0001 C CNN "SPR"
F 7 "490-10693-1-ND" H 800 650 50  0001 C CNN "SPN"
F 8 "" H 800 650 50  0001 C CNN "SPURL"
	1    9000 2600
	1    0    0    -1  
$EndComp
$Comp
L R R13
U 1 1 5ABBF8DF
P 3900 -850
F 0 "R13" V 3980 -850 50  0000 C CNN
F 1 "10k" V 3900 -850 50  0000 C CNN
F 2 "Resistors_SMD:R_0402" V 3830 -850 50  0001 C CNN
F 3 "" H 3900 -850 50  0001 C CNN
F 4 "Yageo" H -2600 -4050 50  0001 C CNN "MFR"
F 5 "RC0402JR-0710KL" H -2600 -4050 50  0001 C CNN "MPN"
F 6 "Digikey" H -2600 -4050 50  0001 C CNN "SPR"
F 7 "311-10KJRCT-ND" H -2600 -4050 50  0001 C CNN "SPN"
F 8 "" H -2600 -4050 50  0001 C CNN "SPURL"
	1    3900 -850
	1    0    0    -1  
$EndComp
$Comp
L R R14
U 1 1 5ABBFDB1
P 3900 -450
F 0 "R14" V 3980 -450 50  0000 C CNN
F 1 "10k" V 3900 -450 50  0000 C CNN
F 2 "Resistors_SMD:R_0402" V 3830 -450 50  0001 C CNN
F 3 "" H 3900 -450 50  0001 C CNN
F 4 "Yageo" H -2600 -3650 50  0001 C CNN "MFR"
F 5 "RC0402JR-0710KL" H -2600 -3650 50  0001 C CNN "MPN"
F 6 "Digikey" H -2600 -3650 50  0001 C CNN "SPR"
F 7 "311-10KJRCT-ND" H -2600 -3650 50  0001 C CNN "SPN"
F 8 "-" H 2150 -4600 50  0001 C CNN "SPURL"
	1    3900 -450
	1    0    0    -1  
$EndComp
$Comp
L +BATT #PWR020
U 1 1 5ABC0C9F
P 3900 -1000
F 0 "#PWR020" H 3900 -1150 50  0001 C CNN
F 1 "+BATT" H 3900 -860 50  0000 C CNN
F 2 "" H 3900 -1000 50  0000 C CNN
F 3 "" H 3900 -1000 50  0000 C CNN
	1    3900 -1000
	1    0    0    -1  
$EndComp
$Comp
L MCP73812 U5
U 1 1 5ABC6DE2
P 8200 5750
F 0 "U5" H 8150 5950 60  0000 C CNN
F 1 "MCP73812" H 8200 5550 60  0000 C CNN
F 2 "DFTcustom:TSOT-23-5" H 8200 5750 60  0001 C CNN
F 3 "" H 8200 5750 60  0001 C CNN
F 4 "Microchip" H 0   0   50  0001 C CNN "MFR"
F 5 "MCP73812T-420I/OT" H 0   0   50  0001 C CNN "MPN"
F 6 "Digikey" H 0   0   50  0001 C CNN "SPR"
F 7 "MCP73812T-420I/OTCT-ND" H 0   0   50  0001 C CNN "SPN"
F 8 "-" H 0   0   50  0001 C CNN "SPURL"
	1    8200 5750
	1    0    0    -1  
$EndComp
$Comp
L +5V #PWR021
U 1 1 5ABC74B7
P 7600 5550
F 0 "#PWR021" H 7600 5400 50  0001 C CNN
F 1 "+5V" H 7600 5690 50  0000 C CNN
F 2 "" H 7600 5550 50  0000 C CNN
F 3 "" H 7600 5550 50  0000 C CNN
	1    7600 5550
	1    0    0    -1  
$EndComp
$Comp
L +BATT #PWR022
U 1 1 5ABC7BD9
P 9350 5650
F 0 "#PWR022" H 9350 5500 50  0001 C CNN
F 1 "+BATT" H 9350 5790 50  0000 C CNN
F 2 "" H 9350 5650 50  0000 C CNN
F 3 "" H 9350 5650 50  0000 C CNN
	1    9350 5650
	0    1    1    0   
$EndComp
$Comp
L R R15
U 1 1 5ABC7CA9
P 8800 5750
F 0 "R15" V 8880 5750 50  0000 C CNN
F 1 "10k" V 8800 5750 50  0000 C CNN
F 2 "Resistors_SMD:R_0402" V 8730 5750 50  0001 C CNN
F 3 "" H 8800 5750 50  0001 C CNN
F 4 "Yageo" H 2050 2550 50  0001 C CNN "MFR"
F 5 "RC0402JR-0710KL" H 2050 2550 50  0001 C CNN "MPN"
F 6 "Digikey" H 2050 2550 50  0001 C CNN "SPR"
F 7 "311-10KJRCT-ND" H 2050 2550 50  0001 C CNN "SPN"
F 8 "" H 2050 2550 50  0001 C CNN "SPURL"
	1    8800 5750
	0    1    1    0   
$EndComp
$Comp
L GND #PWR023
U 1 1 5ABC7E9C
P 8950 5750
F 0 "#PWR023" H 8950 5500 50  0001 C CNN
F 1 "GND" H 8950 5600 50  0000 C CNN
F 2 "" H 8950 5750 50  0000 C CNN
F 3 "" H 8950 5750 50  0000 C CNN
	1    8950 5750
	0    -1   -1   0   
$EndComp
$Comp
L GND #PWR024
U 1 1 5ABC7F3A
P 8650 5850
F 0 "#PWR024" H 8650 5600 50  0001 C CNN
F 1 "GND" H 8650 5700 50  0000 C CNN
F 2 "" H 8650 5850 50  0000 C CNN
F 3 "" H 8650 5850 50  0000 C CNN
	1    8650 5850
	0    -1   -1   0   
$EndComp
$Comp
L C_Small C8
U 1 1 5ABC90D1
P 9250 5800
F 0 "C8" H 9260 5870 50  0000 L CNN
F 1 "10uF" H 9260 5720 50  0000 L CNN
F 2 "Capacitors_SMD:C_0402" H 9250 5800 50  0001 C CNN
F 3 "" H 9250 5800 50  0001 C CNN
F 4 "Murata" H 1200 1050 50  0001 C CNN "MFR"
F 5 "GRM155R60G106ME44D" H 1200 1050 50  0001 C CNN "MPN"
F 6 "Digikey" H 1200 1050 50  0001 C CNN "SPR"
F 7 "490-10693-1-ND" H 1200 1050 50  0001 C CNN "SPN"
F 8 "" H 1200 1050 50  0001 C CNN "SPURL"
	1    9250 5800
	-1   0    0    -1  
$EndComp
$Comp
L GND #PWR025
U 1 1 5ABC90D7
P 9250 5900
F 0 "#PWR025" H 9250 5650 50  0001 C CNN
F 1 "GND" H 9250 5750 50  0000 C CNN
F 2 "" H 9250 5900 50  0000 C CNN
F 3 "" H 9250 5900 50  0000 C CNN
	1    9250 5900
	-1   0    0    -1  
$EndComp
$Comp
L +3.3V #PWR026
U 1 1 5ABE1A16
P 450 -1750
F 0 "#PWR026" H 450 -1900 50  0001 C CNN
F 1 "+3.3V" H 450 -1610 50  0000 C CNN
F 2 "" H 450 -1750 50  0001 C CNN
F 3 "" H 450 -1750 50  0001 C CNN
	1    450  -1750
	0    -1   1    0   
$EndComp
$Comp
L GND #PWR027
U 1 1 5AC32AF5
P 1550 2350
F 0 "#PWR027" H 1550 2100 50  0001 C CNN
F 1 "GND" H 1550 2200 50  0000 C CNN
F 2 "" H 1550 2350 50  0000 C CNN
F 3 "" H 1550 2350 50  0000 C CNN
	1    1550 2350
	0    -1   -1   0   
$EndComp
$Comp
L LED_RGB_COMMON_ANODE D2
U 1 1 5AC4726E
P 4700 9450
F 0 "D2" H 4700 9725 50  0000 C CNN
F 1 "LED_RGB_COMMON_ANODE" H 4700 9175 50  0000 C CNN
F 2 "DFTcustom:LED-3528_soldermaskdefined" H 4725 9600 60  0001 C CNN
F 3 "" H 4725 9600 60  0001 C CNN
F 4 "Will supply" H 0   0   50  0001 C CNN "MFR"
F 5 "-" H 0   0   50  0001 C CNN "MPN"
F 6 "-" H 0   0   50  0001 C CNN "SPR"
F 7 "-" H 0   0   50  0001 C CNN "SPN"
F 8 "-" H 0   0   50  0001 C CNN "SPURL"
	1    4700 9450
	-1   0    0    -1  
$EndComp
$Comp
L LED_RGB_COMMON_ANODE D3
U 1 1 5AC48F9D
P 4700 10100
F 0 "D3" H 4700 10375 50  0000 C CNN
F 1 "LED_RGB_COMMON_ANODE" H 4700 9825 50  0000 C CNN
F 2 "DFTcustom:LED-3528_soldermaskdefined" H 4725 10250 60  0001 C CNN
F 3 "" H 4725 10250 60  0001 C CNN
F 4 "Will supply" H 0   0   50  0001 C CNN "MFR"
F 5 "-" H 0   0   50  0001 C CNN "MPN"
F 6 "-" H 0   0   50  0001 C CNN "SPR"
F 7 "-" H 0   0   50  0001 C CNN "SPN"
F 8 "-" H 0   0   50  0001 C CNN "SPURL"
	1    4700 10100
	-1   0    0    -1  
$EndComp
$Comp
L LED_RGB_COMMON_ANODE D1
U 1 1 5AC49285
P 4700 8800
F 0 "D1" H 4700 9075 50  0000 C CNN
F 1 "LED_RGB_COMMON_ANODE" H 4700 8525 50  0000 C CNN
F 2 "DFTcustom:LED-3528_soldermaskdefined" H 4725 8950 60  0001 C CNN
F 3 "" H 4725 8950 60  0001 C CNN
F 4 "Will supply" H 0   0   50  0001 C CNN "MFR"
F 5 "-" H 0   0   50  0001 C CNN "MPN"
F 6 "-" H 0   0   50  0001 C CNN "SPR"
F 7 "-" H 0   0   50  0001 C CNN "SPN"
F 8 "-" H 0   0   50  0001 C CNN "SPURL"
	1    4700 8800
	-1   0    0    -1  
$EndComp
$Comp
L LED_RGB_COMMON_ANODE D5
U 1 1 5AC49889
P 4700 11400
F 0 "D5" H 4700 11675 50  0000 C CNN
F 1 "LED_RGB_COMMON_ANODE" H 4700 11125 50  0000 C CNN
F 2 "DFTcustom:LED-3528_soldermaskdefined" H 4725 11550 60  0001 C CNN
F 3 "" H 4725 11550 60  0001 C CNN
F 4 "Will supply" H 0   0   50  0001 C CNN "MFR"
F 5 "-" H 0   0   50  0001 C CNN "MPN"
F 6 "-" H 0   0   50  0001 C CNN "SPR"
F 7 "-" H 0   0   50  0001 C CNN "SPN"
F 8 "-" H 0   0   50  0001 C CNN "SPURL"
	1    4700 11400
	-1   0    0    -1  
$EndComp
$Comp
L LED_RGB_COMMON_ANODE D6
U 1 1 5AC49893
P 4700 12050
F 0 "D6" H 4700 12325 50  0000 C CNN
F 1 "LED_RGB_COMMON_ANODE" H 4700 11775 50  0000 C CNN
F 2 "DFTcustom:LED-3528_soldermaskdefined" H 4725 12200 60  0001 C CNN
F 3 "" H 4725 12200 60  0001 C CNN
F 4 "Will supply" H 0   0   50  0001 C CNN "MFR"
F 5 "-" H 0   0   50  0001 C CNN "MPN"
F 6 "-" H 0   0   50  0001 C CNN "SPR"
F 7 "-" H 0   0   50  0001 C CNN "SPN"
F 8 "-" H 0   0   50  0001 C CNN "SPURL"
	1    4700 12050
	-1   0    0    -1  
$EndComp
$Comp
L LED_RGB_COMMON_ANODE D4
U 1 1 5AC4989D
P 4700 10750
F 0 "D4" H 4700 11025 50  0000 C CNN
F 1 "LED_RGB_COMMON_ANODE" H 4700 10475 50  0000 C CNN
F 2 "DFTcustom:LED-3528_soldermaskdefined" H 4725 10900 60  0001 C CNN
F 3 "" H 4725 10900 60  0001 C CNN
F 4 "Will supply" H 0   0   50  0001 C CNN "MFR"
F 5 "-" H 0   0   50  0001 C CNN "MPN"
F 6 "-" H 0   0   50  0001 C CNN "SPR"
F 7 "-" H 0   0   50  0001 C CNN "SPN"
F 8 "-" H 0   0   50  0001 C CNN "SPURL"
	1    4700 10750
	-1   0    0    -1  
$EndComp
$Comp
L LED_RGB_COMMON_ANODE D8
U 1 1 5AC4A1E1
P 4700 13300
F 0 "D8" H 4700 13575 50  0000 C CNN
F 1 "LED_RGB_COMMON_ANODE" H 4700 13025 50  0000 C CNN
F 2 "DFTcustom:LED-3528_soldermaskdefined" H 4725 13450 60  0001 C CNN
F 3 "" H 4725 13450 60  0001 C CNN
F 4 "Will supply" H 0   0   50  0001 C CNN "MFR"
F 5 "-" H 0   0   50  0001 C CNN "MPN"
F 6 "-" H 0   0   50  0001 C CNN "SPR"
F 7 "-" H 0   0   50  0001 C CNN "SPN"
F 8 "-" H 0   0   50  0001 C CNN "SPURL"
	1    4700 13300
	-1   0    0    -1  
$EndComp
$Comp
L LED_RGB_COMMON_ANODE D9
U 1 1 5AC4A1EB
P 4700 13950
F 0 "D9" H 4700 14225 50  0000 C CNN
F 1 "LED_RGB_COMMON_ANODE" H 4700 13675 50  0000 C CNN
F 2 "DFTcustom:LED-3528_soldermaskdefined" H 4725 14100 60  0001 C CNN
F 3 "" H 4725 14100 60  0001 C CNN
F 4 "Will supply" H 0   0   50  0001 C CNN "MFR"
F 5 "-" H 0   0   50  0001 C CNN "MPN"
F 6 "-" H 0   0   50  0001 C CNN "SPR"
F 7 "-" H 0   0   50  0001 C CNN "SPN"
F 8 "-" H 0   0   50  0001 C CNN "SPURL"
	1    4700 13950
	-1   0    0    -1  
$EndComp
$Comp
L LED_RGB_COMMON_ANODE D7
U 1 1 5AC4A1F5
P 4700 12650
F 0 "D7" H 4700 12925 50  0000 C CNN
F 1 "LED_RGB_COMMON_ANODE" H 4700 12375 50  0000 C CNN
F 2 "DFTcustom:LED-3528_soldermaskdefined" H 4725 12800 60  0001 C CNN
F 3 "" H 4725 12800 60  0001 C CNN
F 4 "Will supply" H 0   0   50  0001 C CNN "MFR"
F 5 "-" H 0   0   50  0001 C CNN "MPN"
F 6 "-" H 0   0   50  0001 C CNN "SPR"
F 7 "-" H 0   0   50  0001 C CNN "SPN"
F 8 "-" H 0   0   50  0001 C CNN "SPURL"
	1    4700 12650
	-1   0    0    -1  
$EndComp
$Comp
L LED_RGB_COMMON_ANODE D11
U 1 1 5AC4A1FF
P 4700 15250
F 0 "D11" H 4700 15525 50  0000 C CNN
F 1 "LED_RGB_COMMON_ANODE" H 4700 14975 50  0000 C CNN
F 2 "DFTcustom:LED-3528_soldermaskdefined" H 4725 15400 60  0001 C CNN
F 3 "" H 4725 15400 60  0001 C CNN
F 4 "Will supply" H 0   0   50  0001 C CNN "MFR"
F 5 "-" H 0   0   50  0001 C CNN "MPN"
F 6 "-" H 0   0   50  0001 C CNN "SPR"
F 7 "-" H 0   0   50  0001 C CNN "SPN"
F 8 "-" H 0   0   50  0001 C CNN "SPURL"
	1    4700 15250
	-1   0    0    -1  
$EndComp
$Comp
L LED_RGB_COMMON_ANODE D12
U 1 1 5AC4A209
P 4700 15900
F 0 "D12" H 4700 16175 50  0000 C CNN
F 1 "LED_RGB_COMMON_ANODE" H 4700 15625 50  0000 C CNN
F 2 "DFTcustom:LED-3528_soldermaskdefined" H 4725 16050 60  0001 C CNN
F 3 "" H 4725 16050 60  0001 C CNN
F 4 "Will supply" H 0   0   50  0001 C CNN "MFR"
F 5 "-" H 0   0   50  0001 C CNN "MPN"
F 6 "-" H 0   0   50  0001 C CNN "SPR"
F 7 "-" H 0   0   50  0001 C CNN "SPN"
F 8 "-" H 0   0   50  0001 C CNN "SPURL"
	1    4700 15900
	-1   0    0    -1  
$EndComp
$Comp
L LED_RGB_COMMON_ANODE D10
U 1 1 5AC4A213
P 4700 14600
F 0 "D10" H 4700 14875 50  0000 C CNN
F 1 "LED_RGB_COMMON_ANODE" H 4700 14325 50  0000 C CNN
F 2 "DFTcustom:LED-3528_soldermaskdefined" H 4725 14750 60  0001 C CNN
F 3 "" H 4725 14750 60  0001 C CNN
F 4 "Will supply" H 0   0   50  0001 C CNN "MFR"
F 5 "-" H 0   0   50  0001 C CNN "MPN"
F 6 "-" H 0   0   50  0001 C CNN "SPR"
F 7 "-" H 0   0   50  0001 C CNN "SPN"
F 8 "-" H 0   0   50  0001 C CNN "SPURL"
	1    4700 14600
	-1   0    0    -1  
$EndComp
$Comp
L LED_RGB_COMMON_ANODE D14
U 1 1 5AC4C0B1
P 6350 8800
F 0 "D14" H 6350 9075 50  0000 C CNN
F 1 "LED_RGB_COMMON_ANODE" H 6350 8525 50  0000 C CNN
F 2 "DFTcustom:LED-3528" H 6375 8950 60  0001 C CNN
F 3 "" H 6375 8950 60  0001 C CNN
F 4 "Will supply" H 1650 -8400 50  0001 C CNN "MFR"
F 5 "-" H 1650 -8400 50  0001 C CNN "MPN"
F 6 "-" H 1650 -8400 50  0001 C CNN "SPR"
F 7 "-" H 1650 -8400 50  0001 C CNN "SPN"
F 8 "-" H 1650 -8400 50  0001 C CNN "SPURL"
	1    6350 8800
	-1   0    0    -1  
$EndComp
$Comp
L LED_RGB_COMMON_ANODE D15
U 1 1 5AC4C0BB
P 6350 9450
F 0 "D15" H 6350 9725 50  0000 C CNN
F 1 "LED_RGB_COMMON_ANODE" H 6350 9175 50  0000 C CNN
F 2 "DFTcustom:LED-3528" H 6375 9600 60  0001 C CNN
F 3 "" H 6375 9600 60  0001 C CNN
F 4 "Will supply" H 1650 -8400 50  0001 C CNN "MFR"
F 5 "-" H 1650 -8400 50  0001 C CNN "MPN"
F 6 "-" H 1650 -8400 50  0001 C CNN "SPR"
F 7 "-" H 1650 -8400 50  0001 C CNN "SPN"
F 8 "-" H 1650 -8400 50  0001 C CNN "SPURL"
	1    6350 9450
	-1   0    0    -1  
$EndComp
$Comp
L LED_RGB_COMMON_ANODE D13
U 1 1 5AC4C0C5
P 4700 16550
F 0 "D13" H 4700 16825 50  0000 C CNN
F 1 "LED_RGB_COMMON_ANODE" H 4700 16275 50  0000 C CNN
F 2 "DFTcustom:LED-3528" H 4725 16700 60  0001 C CNN
F 3 "" H 4725 16700 60  0001 C CNN
F 4 "Will supply" H 0   0   50  0001 C CNN "MFR"
F 5 "-" H 0   0   50  0001 C CNN "MPN"
F 6 "-" H 0   0   50  0001 C CNN "SPR"
F 7 "-" H 0   0   50  0001 C CNN "SPN"
F 8 "-" H 0   0   50  0001 C CNN "SPURL"
	1    4700 16550
	-1   0    0    -1  
$EndComp
$Comp
L LED_RGB_COMMON_ANODE D17
U 1 1 5AC4C0CF
P 6350 10750
F 0 "D17" H 6350 11025 50  0000 C CNN
F 1 "LED_RGB_COMMON_ANODE" H 6350 10475 50  0000 C CNN
F 2 "DFTcustom:LED-3528_soldermaskdefined" H 6375 10900 60  0001 C CNN
F 3 "" H 6375 10900 60  0001 C CNN
F 4 "Will supply" H 1650 -8400 50  0001 C CNN "MFR"
F 5 "-" H 1650 -8400 50  0001 C CNN "MPN"
F 6 "-" H 1650 -8400 50  0001 C CNN "SPR"
F 7 "-" H 1650 -8400 50  0001 C CNN "SPN"
F 8 "-" H 1650 -8400 50  0001 C CNN "SPURL"
	1    6350 10750
	-1   0    0    -1  
$EndComp
$Comp
L LED_RGB_COMMON_ANODE D18
U 1 1 5AC4C0D9
P 6350 11400
F 0 "D18" H 6350 11675 50  0000 C CNN
F 1 "LED_RGB_COMMON_ANODE" H 6350 11125 50  0000 C CNN
F 2 "DFTcustom:LED-3528_soldermaskdefined" H 6375 11550 60  0001 C CNN
F 3 "" H 6375 11550 60  0001 C CNN
F 4 "Will supply" H 1650 -8400 50  0001 C CNN "MFR"
F 5 "-" H 1650 -8400 50  0001 C CNN "MPN"
F 6 "-" H 1650 -8400 50  0001 C CNN "SPR"
F 7 "-" H 1650 -8400 50  0001 C CNN "SPN"
F 8 "-" H 1650 -8400 50  0001 C CNN "SPURL"
	1    6350 11400
	-1   0    0    -1  
$EndComp
$Comp
L LED_RGB_COMMON_ANODE D16
U 1 1 5AC4C0E3
P 6350 10100
F 0 "D16" H 6350 10375 50  0000 C CNN
F 1 "LED_RGB_COMMON_ANODE" H 6350 9825 50  0000 C CNN
F 2 "DFTcustom:LED-3528" H 6375 10250 60  0001 C CNN
F 3 "" H 6375 10250 60  0001 C CNN
F 4 "Will supply" H 1650 -8400 50  0001 C CNN "MFR"
F 5 "-" H 1650 -8400 50  0001 C CNN "MPN"
F 6 "-" H 1650 -8400 50  0001 C CNN "SPR"
F 7 "-" H 1650 -8400 50  0001 C CNN "SPN"
F 8 "-" H 1650 -8400 50  0001 C CNN "SPURL"
	1    6350 10100
	-1   0    0    -1  
$EndComp
$Comp
L LED_RGB_COMMON_ANODE D20
U 1 1 5AC4C0ED
P 6350 12650
F 0 "D20" H 6350 12925 50  0000 C CNN
F 1 "LED_RGB_COMMON_ANODE" H 6350 12375 50  0000 C CNN
F 2 "DFTcustom:LED-3528_soldermaskdefined" H 6375 12800 60  0001 C CNN
F 3 "" H 6375 12800 60  0001 C CNN
F 4 "Will supply" H 1650 -8400 50  0001 C CNN "MFR"
F 5 "-" H 1650 -8400 50  0001 C CNN "MPN"
F 6 "-" H 1650 -8400 50  0001 C CNN "SPR"
F 7 "-" H 1650 -8400 50  0001 C CNN "SPN"
F 8 "-" H 1650 -8400 50  0001 C CNN "SPURL"
	1    6350 12650
	-1   0    0    -1  
$EndComp
$Comp
L LED_RGB_COMMON_ANODE D21
U 1 1 5AC4C0F7
P 6350 13300
F 0 "D21" H 6350 13575 50  0000 C CNN
F 1 "LED_RGB_COMMON_ANODE" H 6350 13025 50  0000 C CNN
F 2 "DFTcustom:LED-3528_soldermaskdefined" H 6375 13450 60  0001 C CNN
F 3 "" H 6375 13450 60  0001 C CNN
F 4 "Will supply" H 1650 -8400 50  0001 C CNN "MFR"
F 5 "-" H 1650 -8400 50  0001 C CNN "MPN"
F 6 "-" H 1650 -8400 50  0001 C CNN "SPR"
F 7 "-" H 1650 -8400 50  0001 C CNN "SPN"
F 8 "-" H 1650 -8400 50  0001 C CNN "SPURL"
	1    6350 13300
	-1   0    0    -1  
$EndComp
$Comp
L LED_RGB_COMMON_ANODE D19
U 1 1 5AC4C101
P 6350 12000
F 0 "D19" H 6350 12275 50  0000 C CNN
F 1 "LED_RGB_COMMON_ANODE" H 6350 11725 50  0000 C CNN
F 2 "DFTcustom:LED-3528_soldermaskdefined" H 6375 12150 60  0001 C CNN
F 3 "" H 6375 12150 60  0001 C CNN
F 4 "Will supply" H 1650 -8400 50  0001 C CNN "MFR"
F 5 "-" H 1650 -8400 50  0001 C CNN "MPN"
F 6 "-" H 1650 -8400 50  0001 C CNN "SPR"
F 7 "-" H 1650 -8400 50  0001 C CNN "SPN"
F 8 "-" H 1650 -8400 50  0001 C CNN "SPURL"
	1    6350 12000
	-1   0    0    -1  
$EndComp
$Comp
L LED_RGB_COMMON_ANODE D23
U 1 1 5AC4C10B
P 6350 14600
F 0 "D23" H 6350 14875 50  0000 C CNN
F 1 "LED_RGB_COMMON_ANODE" H 6350 14325 50  0000 C CNN
F 2 "DFTcustom:LED-3528_soldermaskdefined" H 6375 14750 60  0001 C CNN
F 3 "" H 6375 14750 60  0001 C CNN
F 4 "Will supply" H 1650 -8400 50  0001 C CNN "MFR"
F 5 "-" H 1650 -8400 50  0001 C CNN "MPN"
F 6 "-" H 1650 -8400 50  0001 C CNN "SPR"
F 7 "-" H 1650 -8400 50  0001 C CNN "SPN"
F 8 "-" H 1650 -8400 50  0001 C CNN "SPURL"
	1    6350 14600
	-1   0    0    -1  
$EndComp
$Comp
L LED_RGB_COMMON_ANODE D24
U 1 1 5AC4C115
P 6350 15250
F 0 "D24" H 6350 15525 50  0000 C CNN
F 1 "LED_RGB_COMMON_ANODE" H 6350 14975 50  0000 C CNN
F 2 "DFTcustom:LED-3528_soldermaskdefined" H 6375 15400 60  0001 C CNN
F 3 "" H 6375 15400 60  0001 C CNN
F 4 "Will supply" H 1650 -8400 50  0001 C CNN "MFR"
F 5 "-" H 1650 -8400 50  0001 C CNN "MPN"
F 6 "-" H 1650 -8400 50  0001 C CNN "SPR"
F 7 "-" H 1650 -8400 50  0001 C CNN "SPN"
F 8 "-" H 1650 -8400 50  0001 C CNN "SPURL"
	1    6350 15250
	-1   0    0    -1  
$EndComp
$Comp
L LED_RGB_COMMON_ANODE D22
U 1 1 5AC4C11F
P 6350 13950
F 0 "D22" H 6350 14225 50  0000 C CNN
F 1 "LED_RGB_COMMON_ANODE" H 6350 13675 50  0000 C CNN
F 2 "DFTcustom:LED-3528_soldermaskdefined" H 6375 14100 60  0001 C CNN
F 3 "" H 6375 14100 60  0001 C CNN
F 4 "Will supply" H 1650 -8400 50  0001 C CNN "MFR"
F 5 "-" H 1650 -8400 50  0001 C CNN "MPN"
F 6 "-" H 1650 -8400 50  0001 C CNN "SPR"
F 7 "-" H 1650 -8400 50  0001 C CNN "SPN"
F 8 "-" H 1650 -8400 50  0001 C CNN "SPURL"
	1    6350 13950
	-1   0    0    -1  
$EndComp
$Comp
L Atmel_SMD_6pin U6
U 1 1 5AD238AC
P 6150 5900
F 0 "U6" H 6150 6350 60  0000 C CNN
F 1 "Atmel_SMD_6pin" H 6150 5450 60  0000 C CNN
F 2 "DFTcustom:Atmel_SMD_Header" H 6150 5900 60  0001 C CNN
F 3 "" H 6150 5900 60  0001 C CNN
F 4 "DNS" H 0   0   50  0001 C CNN "MFR"
F 5 "-" H 0   0   50  0001 C CNN "MPN"
F 6 "-" H 0   0   50  0001 C CNN "SPR"
F 7 "-" H 0   0   50  0001 C CNN "SPN"
F 8 "-" H 0   0   50  0001 C CNN "SPURL"
	1    6150 5900
	1    0    0    -1  
$EndComp
$Comp
L +3.3V #PWR028
U 1 1 5AD251EA
P 5700 6050
F 0 "#PWR028" H 5700 5900 50  0001 C CNN
F 1 "+3.3V" H 5700 6190 50  0000 C CNN
F 2 "" H 5700 6050 50  0001 C CNN
F 3 "" H 5700 6050 50  0001 C CNN
	1    5700 6050
	0    -1   -1   0   
$EndComp
$Comp
L GND #PWR029
U 1 1 5AD2589B
P 5700 6150
F 0 "#PWR029" H 5700 5900 50  0001 C CNN
F 1 "GND" H 5700 6000 50  0000 C CNN
F 2 "" H 5700 6150 50  0000 C CNN
F 3 "" H 5700 6150 50  0000 C CNN
	1    5700 6150
	0    1    1    0   
$EndComp
$Comp
L C_Small C2
U 1 1 5AD270F3
P 1100 -1900
F 0 "C2" H 1110 -1830 50  0000 L CNN
F 1 "100nF" H 1110 -1980 50  0000 L CNN
F 2 "Capacitors_SMD:C_0402" H 1100 -1900 50  0001 C CNN
F 3 "" H 1100 -1900 50  0001 C CNN
F 4 "Murata" H -3600 -3300 50  0001 C CNN "MFR"
F 5 "GRM155R61A104KA01D" H -3600 -3300 50  0001 C CNN "MPN"
F 6 "Digikey" H -3600 -3300 50  0001 C CNN "SPR"
F 7 "490-1318-2-ND" H -3600 -3300 50  0001 C CNN "SPN"
F 8 "" H -3600 -3300 50  0001 C CNN "SPURL"
	1    1100 -1900
	1    0    0    1   
$EndComp
$Comp
L C_Small C9
U 1 1 5AD28F9D
P -1000 -1200
F 0 "C9" H -990 -1130 50  0000 L CNN
F 1 "100nF" H -990 -1280 50  0000 L CNN
F 2 "Capacitors_SMD:C_0402" H -1000 -1200 50  0001 C CNN
F 3 "" H -1000 -1200 50  0001 C CNN
F 4 "Murata" H -5700 -2600 50  0001 C CNN "MFR"
F 5 "GRM155R61A104KA01D" H -5700 -2600 50  0001 C CNN "MPN"
F 6 "Digikey" H -5700 -2600 50  0001 C CNN "SPR"
F 7 "490-1318-2-ND" H -5700 -2600 50  0001 C CNN "SPN"
F 8 "" H -5700 -2600 50  0001 C CNN "SPURL"
	1    -1000 -1200
	-1   0    0    -1  
$EndComp
$Comp
L GND #PWR030
U 1 1 5AD29730
P -1000 -1300
F 0 "#PWR030" H -1000 -1550 50  0001 C CNN
F 1 "GND" H -1000 -1450 50  0000 C CNN
F 2 "" H -1000 -1300 50  0000 C CNN
F 3 "" H -1000 -1300 50  0000 C CNN
	1    -1000 -1300
	-1   0    0    1   
$EndComp
$Comp
L R R18
U 1 1 5AD2C3F2
P 5600 5450
F 0 "R18" V 5680 5450 50  0000 C CNN
F 1 "10k" V 5600 5450 50  0000 C CNN
F 2 "Resistors_SMD:R_0402" V 5530 5450 50  0001 C CNN
F 3 "" H 5600 5450 50  0001 C CNN
F 4 "Yageo" H -1350 2250 50  0001 C CNN "MFR"
F 5 "RC0402JR-0710KL" H -1350 2250 50  0001 C CNN "MPN"
F 6 "Digikey" H -1350 2250 50  0001 C CNN "SPR"
F 7 "311-10KJRCT-ND" H -1350 2250 50  0001 C CNN "SPN"
F 8 "" H -1350 2250 50  0001 C CNN "SPURL"
	1    5600 5450
	1    0    0    -1  
$EndComp
$Comp
L R R17
U 1 1 5AD2C3FD
P 5500 5450
F 0 "R17" V 5400 5450 50  0000 C CNN
F 1 "10k" V 5500 5450 50  0000 C CNN
F 2 "Resistors_SMD:R_0402" V 5430 5450 50  0001 C CNN
F 3 "" H 5500 5450 50  0001 C CNN
F 4 "Yageo" H -1250 2250 50  0001 C CNN "MFR"
F 5 "RC0402JR-0710KL" H -1250 2250 50  0001 C CNN "MPN"
F 6 "Digikey" H -1250 2250 50  0001 C CNN "SPR"
F 7 "311-10KJRCT-ND" H -1250 2250 50  0001 C CNN "SPN"
F 8 "" H -1250 2250 50  0001 C CNN "SPURL"
	1    5500 5450
	1    0    0    -1  
$EndComp
$Comp
L +3.3V #PWR031
U 1 1 5AD2C870
P 5550 5200
F 0 "#PWR031" H 5550 5050 50  0001 C CNN
F 1 "+3.3V" H 5550 5340 50  0000 C CNN
F 2 "" H 5550 5200 50  0001 C CNN
F 3 "" H 5550 5200 50  0001 C CNN
	1    5550 5200
	1    0    0    -1  
$EndComp
$Comp
L LED D25
U 1 1 5AD3D669
P 5650 2850
F 0 "D25" H 5650 2950 50  0000 C CNN
F 1 "IR LED" H 5650 2750 50  0000 C CNN
F 2 "DFTcustom:IR_0603_soldermaskdefined" H 5650 2850 50  0001 C CNN
F 3 "" H 5650 2850 50  0001 C CNN
F 4 "Will supply" H 0   0   50  0001 C CNN "MFR"
F 5 "-" H 0   0   50  0001 C CNN "MPN"
F 6 "-" H 0   0   50  0001 C CNN "SPR"
F 7 "-" H 0   0   50  0001 C CNN "SPN"
F 8 "-" H 0   0   50  0001 C CNN "SPURL"
	1    5650 2850
	0    -1   -1   0   
$EndComp
$Comp
L LED D26
U 1 1 5AD3D74F
P 5950 2850
F 0 "D26" H 5950 2950 50  0000 C CNN
F 1 "IR LED" H 5950 2750 50  0000 C CNN
F 2 "DFTcustom:IR_0603_soldermaskdefined" H 5950 2850 50  0001 C CNN
F 3 "" H 5950 2850 50  0001 C CNN
F 4 "Will supply" H 0   0   50  0001 C CNN "MFR"
F 5 "-" H 0   0   50  0001 C CNN "MPN"
F 6 "-" H 0   0   50  0001 C CNN "SPR"
F 7 "-" H 0   0   50  0001 C CNN "SPN"
F 8 "-" H 0   0   50  0001 C CNN "SPURL"
	1    5950 2850
	0    -1   -1   0   
$EndComp
$Comp
L LED D27
U 1 1 5AD3D9AB
P 6250 2850
F 0 "D27" H 6250 2950 50  0000 C CNN
F 1 "IR LED" H 6250 2750 50  0000 C CNN
F 2 "DFTcustom:IR_0603_soldermaskdefined" H 6250 2850 50  0001 C CNN
F 3 "" H 6250 2850 50  0001 C CNN
F 4 "Will supply" H 0   0   50  0001 C CNN "MFR"
F 5 "-" H 0   0   50  0001 C CNN "MPN"
F 6 "-" H 0   0   50  0001 C CNN "SPR"
F 7 "-" H 0   0   50  0001 C CNN "SPN"
F 8 "-" H 0   0   50  0001 C CNN "SPURL"
	1    6250 2850
	0    -1   -1   0   
$EndComp
$Comp
L GND #PWR032
U 1 1 5AD7E53C
P 3600 7350
F 0 "#PWR032" H 3600 7100 50  0001 C CNN
F 1 "GND" H 3600 7200 50  0000 C CNN
F 2 "" H 3600 7350 50  0000 C CNN
F 3 "" H 3600 7350 50  0000 C CNN
	1    3600 7350
	1    0    0    -1  
$EndComp
$Comp
L +3.3V #PWR033
U 1 1 5AD8961D
P 2900 5150
F 0 "#PWR033" H 2900 5000 50  0001 C CNN
F 1 "+3.3V" H 2900 5290 50  0000 C CNN
F 2 "" H 2900 5150 50  0001 C CNN
F 3 "" H 2900 5150 50  0001 C CNN
	1    2900 5150
	1    0    0    -1  
$EndComp
$Comp
L C_Small C11
U 1 1 5AD89628
P 2500 5400
F 0 "C11" H 2510 5470 50  0000 L CNN
F 1 "100nF" H 2510 5320 50  0000 L CNN
F 2 "Capacitors_SMD:C_0402" H 2500 5400 50  0001 C CNN
F 3 "" H 2500 5400 50  0001 C CNN
F 4 "Murata" H -2200 4000 50  0001 C CNN "MFR"
F 5 "GRM155R61A104KA01D" H -2200 4000 50  0001 C CNN "MPN"
F 6 "Digikey" H -2200 4000 50  0001 C CNN "SPR"
F 7 "490-1318-2-ND" H -2200 4000 50  0001 C CNN "SPN"
F 8 "" H -2200 4000 50  0001 C CNN "SPURL"
	1    2500 5400
	1    0    0    -1  
$EndComp
$Comp
L GND #PWR034
U 1 1 5AD8962E
P 2500 5500
F 0 "#PWR034" H 2500 5250 50  0001 C CNN
F 1 "GND" H 2500 5350 50  0000 C CNN
F 2 "" H 2500 5500 50  0000 C CNN
F 3 "" H 2500 5500 50  0000 C CNN
	1    2500 5500
	1    0    0    -1  
$EndComp
$Comp
L CSD13383F4 Q1
U 1 1 5ADAF795
P 6000 3450
F 0 "Q1" H 6200 3525 50  0000 L CNN
F 1 "IRLML2502" H 6200 3450 50  0000 L CNN
F 2 "DFTcustom:IRLML2502" H 6200 3375 50  0001 L CIN
F 3 "-" H 6000 3450 50  0001 L CNN
F 4 "Digikey" H 0   0   50  0001 C CNN "SPR"
F 5 "-" H 0   0   50  0001 C CNN "SPURL"
F 6 "Infineon Technologies" H 0   0   50  0001 C CNN "MFR"
F 7 "IRLML2502TRPBF" H 0   0   50  0001 C CNN "MPN"
F 8 "IRLML2502TRPBFCT-ND" H 0   0   50  0001 C CNN "SPN"
	1    6000 3450
	1    0    0    -1  
$EndComp
$Comp
L GND #PWR035
U 1 1 5ADB08E0
P 6100 3650
F 0 "#PWR035" H 6100 3400 50  0001 C CNN
F 1 "GND" H 6100 3500 50  0000 C CNN
F 2 "" H 6100 3650 50  0000 C CNN
F 3 "" H 6100 3650 50  0000 C CNN
	1    6100 3650
	1    0    0    -1  
$EndComp
$Comp
L R R1
U 1 1 5ADB167D
P 6100 2450
F 0 "R1" V 6180 2450 50  0000 C CNN
F 1 "47" V 6100 2450 50  0000 C CNN
F 2 "Resistors_SMD:R_0402" V 6030 2450 50  0001 C CNN
F 3 "" H 6100 2450 50  0001 C CNN
F 4 "Yageo" H -650 -750 50  0001 C CNN "MFR"
F 5 "RC0402JR-0747RL" H -650 -750 50  0001 C CNN "MPN"
F 6 "Digikey" H -650 -750 50  0001 C CNN "SPR"
F 7 "311-47JRCT-ND" H -650 -750 50  0001 C CNN "SPN"
F 8 "" H -650 -750 50  0001 C CNN "SPURL"
	1    6100 2450
	1    0    0    -1  
$EndComp
$Comp
L +BATT #PWR036
U 1 1 5ADB1DAB
P 6100 2300
F 0 "#PWR036" H 6100 2150 50  0001 C CNN
F 1 "+BATT" H 6100 2440 50  0000 C CNN
F 2 "" H 6100 2300 50  0000 C CNN
F 3 "" H 6100 2300 50  0000 C CNN
	1    6100 2300
	1    0    0    -1  
$EndComp
$Comp
L IS31FL3731_DFT U7
U 1 1 5AD782FF
P 3500 6100
F 0 "U7" H 2999 7102 50  0000 L BNN
F 1 "IS31FL3731_DFT" H 3000 5099 50  0000 L BNN
F 2 "Housings_DFN_QFN:QFN-28-1EP_4x4mm_Pitch0.4mm" H 3350 6000 50  0001 L BNN
F 3 "" H 3350 6550 50  0001 L BNN
F 4 "ISSI" H 1700 -350 50  0001 C CNN "MFR"
F 5 "IS31FL3731-QFLS2-TR" H 1700 -350 50  0001 C CNN "MPN"
F 6 "Digikey" H 1700 -350 50  0001 C CNN "SPR"
F 7 "706-1219-1-ND" H 1700 -350 50  0001 C CNN "SPN"
F 8 "-" H 1700 -350 50  0001 C CNN "SPURL"
	1    3500 6100
	1    0    0    -1  
$EndComp
$Comp
L LED D28
U 1 1 5ADBFDAA
P 6550 2850
F 0 "D28" H 6550 2950 50  0000 C CNN
F 1 "IR LED" H 6550 2750 50  0000 C CNN
F 2 "DFTcustom:IR_0603_soldermaskdefined" H 6550 2850 50  0001 C CNN
F 3 "" H 6550 2850 50  0001 C CNN
F 4 "Will supply" H 0   0   50  0001 C CNN "MFR"
F 5 "-" H 0   0   50  0001 C CNN "MPN"
F 6 "-" H 0   0   50  0001 C CNN "SPR"
F 7 "-" H 0   0   50  0001 C CNN "SPN"
F 8 "-" H 0   0   50  0001 C CNN "SPURL"
	1    6550 2850
	0    -1   -1   0   
$EndComp
$Comp
L R R2
U 1 1 5AD95B68
P 2250 6950
F 0 "R2" V 2330 6950 50  0000 C CNN
F 1 "10k" V 2250 6950 50  0000 C CNN
F 2 "Resistors_SMD:R_0402" V 2180 6950 50  0001 C CNN
F 3 "" H 2250 6950 50  0001 C CNN
F 4 "Yageo" H -4700 3750 50  0001 C CNN "MFR"
F 5 "RC0402JR-0710KL" H -4700 3750 50  0001 C CNN "MPN"
F 6 "Digikey" H -4700 3750 50  0001 C CNN "SPR"
F 7 "311-10KJRCT-ND" H -4700 3750 50  0001 C CNN "SPN"
F 8 "" H -4700 3750 50  0001 C CNN "SPURL"
	1    2250 6950
	1    0    0    -1  
$EndComp
$Comp
L R R3
U 1 1 5AD95E73
P 2250 7300
F 0 "R3" V 2330 7300 50  0000 C CNN
F 1 "10k" V 2250 7300 50  0000 C CNN
F 2 "Resistors_SMD:R_0402" V 2180 7300 50  0001 C CNN
F 3 "" H 2250 7300 50  0001 C CNN
F 4 "Yageo" H -4700 4100 50  0001 C CNN "MFR"
F 5 "RC0402JR-0710KL" H -4700 4100 50  0001 C CNN "MPN"
F 6 "Digikey" H -4700 4100 50  0001 C CNN "SPR"
F 7 "311-10KJRCT-ND" H -4700 4100 50  0001 C CNN "SPN"
F 8 "" H -4700 4100 50  0001 C CNN "SPURL"
	1    2250 7300
	1    0    0    -1  
$EndComp
$Comp
L GND #PWR037
U 1 1 5AD95F4C
P 2250 7450
F 0 "#PWR037" H 2250 7200 50  0001 C CNN
F 1 "GND" H 2250 7300 50  0000 C CNN
F 2 "" H 2250 7450 50  0000 C CNN
F 3 "" H 2250 7450 50  0000 C CNN
	1    2250 7450
	1    0    0    -1  
$EndComp
$Comp
L C_Small C14
U 1 1 5AD96628
P 2450 6950
F 0 "C14" H 2460 7020 50  0000 L CNN
F 1 "100nF" H 2460 6870 50  0000 L CNN
F 2 "Capacitors_SMD:C_0402" H 2450 6950 50  0001 C CNN
F 3 "" H 2450 6950 50  0001 C CNN
F 4 "Murata" H -2250 5550 50  0001 C CNN "MFR"
F 5 "GRM155R61A104KA01D" H -2250 5550 50  0001 C CNN "MPN"
F 6 "Digikey" H -2250 5550 50  0001 C CNN "SPR"
F 7 "490-1318-2-ND" H -2250 5550 50  0001 C CNN "SPN"
F 8 "" H -2250 5550 50  0001 C CNN "SPURL"
	1    2450 6950
	1    0    0    -1  
$EndComp
$Comp
L GND #PWR038
U 1 1 5AD96C40
P 2450 7050
F 0 "#PWR038" H 2450 6800 50  0001 C CNN
F 1 "GND" H 2450 6900 50  0000 C CNN
F 2 "" H 2450 7050 50  0000 C CNN
F 3 "" H 2450 7050 50  0000 C CNN
	1    2450 7050
	1    0    0    -1  
$EndComp
$Comp
L SPU0410HR5H-1 U8
U 1 1 5AD96DBB
P 1700 6500
F 0 "U8" H 1700 6750 60  0000 C CNN
F 1 "SPU0410HR5H-1" H 1700 6250 60  0000 C CNN
F 2 "DFTcustom:SPU0410HR5H-1" H 1700 6500 60  0001 C CNN
F 3 "" H 1700 6500 60  0001 C CNN
F 4 "Knowles" H 0   0   50  0001 C CNN "MFR"
F 5 "SPU0414HR5H-SB-7" H 0   0   50  0001 C CNN "MPN"
F 6 "Digikey" H 0   0   50  0001 C CNN "SPR"
F 7 "423-1134-1-ND" H 0   0   50  0001 C CNN "SPN"
F 8 "-" H 0   0   50  0001 C CNN "SPURL"
	1    1700 6500
	-1   0    0    1   
$EndComp
$Comp
L GND #PWR039
U 1 1 5AD98227
P 1150 6650
F 0 "#PWR039" H 1150 6400 50  0001 C CNN
F 1 "GND" H 1150 6500 50  0000 C CNN
F 2 "" H 1150 6650 50  0000 C CNN
F 3 "" H 1150 6650 50  0000 C CNN
	1    1150 6650
	1    0    0    -1  
$EndComp
$Comp
L C_Small C12
U 1 1 5AD9883A
P 2600 6350
F 0 "C12" H 2610 6420 50  0000 L CNN
F 1 "100nF" H 2400 6200 50  0000 L CNN
F 2 "Capacitors_SMD:C_0402" H 2600 6350 50  0001 C CNN
F 3 "" H 2600 6350 50  0001 C CNN
F 4 "Murata" H -2100 4950 50  0001 C CNN "MFR"
F 5 "GRM155R61A104KA01D" H -2100 4950 50  0001 C CNN "MPN"
F 6 "Digikey" H -2100 4950 50  0001 C CNN "SPR"
F 7 "490-1318-2-ND" H -2100 4950 50  0001 C CNN "SPN"
F 8 "" H -2100 4950 50  0001 C CNN "SPURL"
	1    2600 6350
	0    1    1    0   
$EndComp
$Comp
L C_Small C13
U 1 1 5AD991CD
P 2600 6550
F 0 "C13" H 2610 6620 50  0000 L CNN
F 1 "100nF" H 2500 6400 50  0000 L CNN
F 2 "Capacitors_SMD:C_0402" H 2600 6550 50  0001 C CNN
F 3 "" H 2600 6550 50  0001 C CNN
F 4 "Murata" H -2100 5150 50  0001 C CNN "MFR"
F 5 "GRM155R61A104KA01D" H -2100 5150 50  0001 C CNN "MPN"
F 6 "Digikey" H -2100 5150 50  0001 C CNN "SPR"
F 7 "490-1318-2-ND" H -2100 5150 50  0001 C CNN "SPN"
F 8 "" H -2100 5150 50  0001 C CNN "SPURL"
	1    2600 6550
	0    1    1    0   
$EndComp
$Comp
L GND #PWR040
U 1 1 5AD7E5E6
P 2800 7050
F 0 "#PWR040" H 2800 6800 50  0001 C CNN
F 1 "GND" H 2800 6900 50  0000 C CNN
F 2 "" H 2800 7050 50  0000 C CNN
F 3 "" H 2800 7050 50  0000 C CNN
	1    2800 7050
	1    0    0    -1  
$EndComp
$Comp
L GND #PWR041
U 1 1 5B0DB073
P 1100 -2000
F 0 "#PWR041" H 1100 -2250 50  0001 C CNN
F 1 "GND" H 1100 -2150 50  0000 C CNN
F 2 "" H 1100 -2000 50  0000 C CNN
F 3 "" H 1100 -2000 50  0000 C CNN
	1    1100 -2000
	1    0    0    1   
$EndComp
$Comp
L C_Small C4
U 1 1 5B0E6651
P 800 -1450
F 0 "C4" H 810 -1380 50  0000 L CNN
F 1 "100nF" H 810 -1530 50  0000 L CNN
F 2 "Capacitors_SMD:C_0402" H 800 -1450 50  0001 C CNN
F 3 "" H 800 -1450 50  0001 C CNN
F 4 "Murata" H -3900 -2850 50  0001 C CNN "MFR"
F 5 "GRM155R61A104KA01D" H -3900 -2850 50  0001 C CNN "MPN"
F 6 "Digikey" H -3900 -2850 50  0001 C CNN "SPR"
F 7 "490-1318-2-ND" H -3900 -2850 50  0001 C CNN "SPN"
F 8 "" H -3900 -2850 50  0001 C CNN "SPURL"
	1    800  -1450
	-1   0    0    1   
$EndComp
$Comp
L GND #PWR042
U 1 1 5B0E6657
P 800 -1550
F 0 "#PWR042" H 800 -1800 50  0001 C CNN
F 1 "GND" H 800 -1700 50  0000 C CNN
F 2 "" H 800 -1550 50  0000 C CNN
F 3 "" H 800 -1550 50  0000 C CNN
	1    800  -1550
	-1   0    0    1   
$EndComp
$Comp
L GND #PWR043
U 1 1 5B0DDB73
P 4700 1600
F 0 "#PWR043" H 4700 1350 50  0001 C CNN
F 1 "GND" H 4700 1450 50  0000 C CNN
F 2 "" H 4700 1600 50  0000 C CNN
F 3 "" H 4700 1600 50  0000 C CNN
	1    4700 1600
	0    -1   -1   0   
$EndComp
$Comp
L ATSAMD21G18A-M U4
U 1 1 5B24382E
P 1200 450
F 0 "U4" H -700 2100 40  0000 C CNN
F 1 "ATSAMD21G18A-M" H 2850 -1200 40  0000 C CNN
F 2 "Housings_DFN_QFN:QFN-48-1EP_7x7mm_Pitch0.5mm" H 1200 -700 32  0000 C CIN
F 3 "" H 1200 700 60  0001 C CNN
F 4 "Microchip" H 0   0   50  0001 C CNN "MFR"
F 5 "ATSAMD21G18A-MU" H 0   0   50  0001 C CNN "MPN"
F 6 "Microchip" H 0   0   50  0001 C CNN "SPR"
F 7 "ATSAMD21G18A-MU" H 0   0   50  0001 C CNN "SPN"
F 8 "-" H 0   0   50  0001 C CNN "SPURL"
	1    1200 450 
	1    0    0    -1  
$EndComp
$Comp
L C_Small C10
U 1 1 5B263B66
P 1900 6850
F 0 "C10" H 1910 6920 50  0000 L CNN
F 1 "100nF" H 1910 6770 50  0000 L CNN
F 2 "Capacitors_SMD:C_0402" H 1900 6850 50  0001 C CNN
F 3 "" H 1900 6850 50  0001 C CNN
F 4 "Murata" H -2800 5450 50  0001 C CNN "MFR"
F 5 "GRM155R61A104KA01D" H -2800 5450 50  0001 C CNN "MPN"
F 6 "Digikey" H -2800 5450 50  0001 C CNN "SPR"
F 7 "490-1318-2-ND" H -2800 5450 50  0001 C CNN "SPN"
F 8 "" H -2800 5450 50  0001 C CNN "SPURL"
	1    1900 6850
	1    0    0    -1  
$EndComp
$Comp
L GND #PWR044
U 1 1 5B263D6D
P 1900 6950
F 0 "#PWR044" H 1900 6700 50  0001 C CNN
F 1 "GND" H 1900 6800 50  0000 C CNN
F 2 "" H 1900 6950 50  0000 C CNN
F 3 "" H 1900 6950 50  0000 C CNN
	1    1900 6950
	1    0    0    -1  
$EndComp
$Comp
L LED_RGB_COMMON_ANODE D29
U 1 1 5B268430
P 6350 15900
F 0 "D29" H 6350 16175 50  0000 C CNN
F 1 "LED_RGB_COMMON_ANODE" H 6350 15625 50  0000 C CNN
F 2 "DFTcustom:LED-3528_soldermaskdefined" H 6375 16050 60  0001 C CNN
F 3 "" H 6375 16050 60  0001 C CNN
F 4 "Will supply" H 1650 -7100 50  0001 C CNN "MFR"
F 5 "-" H 1650 -7100 50  0001 C CNN "MPN"
F 6 "-" H 1650 -7100 50  0001 C CNN "SPR"
F 7 "-" H 1650 -7100 50  0001 C CNN "SPN"
F 8 "-" H 1650 -7100 50  0001 C CNN "SPURL"
	1    6350 15900
	-1   0    0    -1  
$EndComp
$Comp
L LED_RGB_COMMON_ANODE D30
U 1 1 5B26843B
P 6350 16550
F 0 "D30" H 6350 16825 50  0000 C CNN
F 1 "LED_RGB_COMMON_ANODE" H 6350 16275 50  0000 C CNN
F 2 "DFTcustom:LED-3528_soldermaskdefined" H 6375 16700 60  0001 C CNN
F 3 "" H 6375 16700 60  0001 C CNN
F 4 "Will supply" H 1650 -7100 50  0001 C CNN "MFR"
F 5 "-" H 1650 -7100 50  0001 C CNN "MPN"
F 6 "-" H 1650 -7100 50  0001 C CNN "SPR"
F 7 "-" H 1650 -7100 50  0001 C CNN "SPN"
F 8 "-" H 1650 -7100 50  0001 C CNN "SPURL"
	1    6350 16550
	-1   0    0    -1  
$EndComp
$Comp
L LED_RGB_COMMON_ANODE D31
U 1 1 5B292914
P 6350 17200
F 0 "D31" H 6350 17475 50  0000 C CNN
F 1 "LED_RGB_COMMON_ANODE" H 6350 16925 50  0000 C CNN
F 2 "DFTcustom:LED-3528_soldermaskdefined" H 6375 17350 60  0001 C CNN
F 3 "" H 6375 17350 60  0001 C CNN
F 4 "Will supply" H 1650 -6450 50  0001 C CNN "MFR"
F 5 "-" H 1650 -6450 50  0001 C CNN "MPN"
F 6 "-" H 1650 -6450 50  0001 C CNN "SPR"
F 7 "-" H 1650 -6450 50  0001 C CNN "SPN"
F 8 "-" H 1650 -6450 50  0001 C CNN "SPURL"
	1    6350 17200
	-1   0    0    -1  
$EndComp
Text Notes 7550 6450 0    60   ~ 0
IREG(mA) = 1000V / R(kohms)\n(if 1C charging, IREG = capacity in mAH)\n150 = 1000V / 6.667kOhms\n100 = 1000V / 10kOhms
Text GLabel 7350 4250 1    60   BiDi ~ 0
I2C_SCL
Text GLabel 7150 4250 1    60   BiDi ~ 0
I2C_SDA
Text Notes 2950 4400 0    60   ~ 0
0011110b = 0x3C
Text GLabel 9000 2300 1    60   Input ~ 0
IR_PWR
Text GLabel 10250 2450 2    60   Output ~ 0
IR_RCV
Text GLabel 4200 3900 2    60   Output ~ 0
ACC_INT1
Text GLabel 4200 3300 2    60   BiDi ~ 0
I2C_SCL
Text GLabel 4200 3600 2    60   BiDi ~ 0
I2C_SDA
Text GLabel 4200 4000 2    60   Output ~ 0
ACC_INT2
Text GLabel 3300 300  2    60   BiDi ~ 0
I2C_SCL
Text GLabel 3300 200  2    60   BiDi ~ 0
I2C_SDA
Text GLabel 3300 1000 2    60   Input ~ 0
ACC_INT1
Text GLabel 3500 -650 1    60   Output ~ 0
IR_PWR
Text GLabel -900 -500 0    60   Input ~ 0
IR_RCV
Text GLabel 3300 1100 2    60   Input ~ 0
ACC_INT2
Text GLabel 3300 1800 2    60   Input ~ 0
SWCLK
Text GLabel 3300 1900 2    60   BiDi ~ 0
SWDIO
Text GLabel -1100 -1000 0    60   Input ~ 0
nSRST
Text GLabel 5350 5650 0    60   Output ~ 0
SWCLK
Text GLabel 5700 5750 0    60   BiDi ~ 0
SWDIO
Text GLabel 5700 5950 0    60   Output ~ 0
nSRST
Text Notes 5300 8750 0    60   ~ 0
P0
Text Notes 5300 9400 0    60   ~ 0
P1
Text Notes 5300 10050 0    60   ~ 0
P2
Text Notes 5300 10700 0    60   ~ 0
P3
Text Notes 5300 11350 0    60   ~ 0
P4
Text Notes 5300 12000 0    60   ~ 0
P5
Text Notes 5300 12600 0    60   ~ 0
P6
Text Notes 5300 13250 0    60   ~ 0
P7
Text Notes 5300 13900 0    60   ~ 0
P8
Text Notes 5300 14550 0    60   ~ 0
P9
Text Notes 5300 15200 0    60   ~ 0
P10
Text Notes 5300 15850 0    60   ~ 0
P11
Text Notes 5300 16500 0    60   ~ 0
P12
Text Notes 6950 8750 0    60   ~ 0
P13
Text Notes 6950 9400 0    60   ~ 0
P14
Text Notes 6950 10050 0    60   ~ 0
P15
Text Notes 6950 10700 0    60   ~ 0
P16
Text Notes 6950 11350 0    60   ~ 0
P17
Text Notes 6950 11950 0    60   ~ 0
P18
Text Notes 6950 12600 0    60   ~ 0
P19
Text Notes 6950 13250 0    60   ~ 0
P20
Text Notes 6950 13900 0    60   ~ 0
P21
Text Notes 6950 14600 0    60   ~ 0
P22
Text Notes 6950 15200 0    60   ~ 0
P23
Text Label 4100 6100 0    60   ~ 0
CA1
Text Label 4100 6000 0    60   ~ 0
CA2
Text Label 4100 5900 0    60   ~ 0
CA3
Text Label 4100 5800 0    60   ~ 0
CA4
Text Label 4100 5700 0    60   ~ 0
CA5
Text Label 4100 5600 0    60   ~ 0
CA6
Text Label 4100 5500 0    60   ~ 0
CA7
Text GLabel 2900 5950 0    60   BiDi ~ 0
I2C_SCL
Text GLabel 2900 5850 0    60   BiDi ~ 0
I2C_SDA
Text Label 4950 8800 0    60   ~ 0
CA1
Text Label 4950 9450 0    60   ~ 0
CA1
Text Label 4450 8650 2    60   ~ 0
CA2
Text Label 4450 8800 2    60   ~ 0
CA3
Text Label 4450 8950 2    60   ~ 0
CA4
Text Label 4450 9300 2    60   ~ 0
CA5
Text Label 4450 9450 2    60   ~ 0
CA6
Text Label 4450 9600 2    60   ~ 0
CA7
Text Label 4950 10100 0    60   ~ 0
CA2
Text Label 4950 10750 0    60   ~ 0
CA2
Text Label 4450 9950 2    60   ~ 0
CA1
Text Label 4450 10100 2    60   ~ 0
CA3
Text Label 4450 10250 2    60   ~ 0
CA4
Text Label 4450 10600 2    60   ~ 0
CA5
Text Label 4450 10750 2    60   ~ 0
CA6
Text Label 4450 10900 2    60   ~ 0
CA7
Text Label 4450 11250 2    60   ~ 0
CA1
Text Label 4450 11400 2    60   ~ 0
CA2
Text Label 4450 11550 2    60   ~ 0
CA4
Text Label 4450 11900 2    60   ~ 0
CA5
Text Label 4450 12050 2    60   ~ 0
CA6
Text Label 4450 12200 2    60   ~ 0
CA7
Text Label 4450 12500 2    60   ~ 0
CA1
Text Label 4450 12650 2    60   ~ 0
CA2
Text Label 4450 12800 2    60   ~ 0
CA3
Text Label 4450 13150 2    60   ~ 0
CA5
Text Label 4450 13300 2    60   ~ 0
CA6
Text Label 4450 13450 2    60   ~ 0
CA7
Text Label 4450 13800 2    60   ~ 0
CA1
Text Label 4450 13950 2    60   ~ 0
CA2
Text Label 4450 14100 2    60   ~ 0
CA3
Text Label 4450 14450 2    60   ~ 0
CA4
Text Label 4450 14600 2    60   ~ 0
CA6
Text Label 4450 14750 2    60   ~ 0
CA7
Text Label 4450 15100 2    60   ~ 0
CA1
Text Label 4450 15250 2    60   ~ 0
CA2
Text Label 4450 15400 2    60   ~ 0
CA3
Text Label 4450 15750 2    60   ~ 0
CA4
Text Label 4450 15900 2    60   ~ 0
CA5
Text Label 6100 12500 2    60   ~ 0
CB1
Text Label 6100 12650 2    60   ~ 0
CB2
Text Label 6100 12800 2    60   ~ 0
CB3
Text Label 6100 13150 2    60   ~ 0
CB5
Text Label 6100 13300 2    60   ~ 0
CB6
Text Label 6100 13450 2    60   ~ 0
CB7
Text Label 6100 13800 2    60   ~ 0
CB1
Text Label 6100 13950 2    60   ~ 0
CB2
Text Label 6100 14100 2    60   ~ 0
CB3
Text Label 6100 11850 2    60   ~ 0
CB5
Text Label 6100 12000 2    60   ~ 0
CB6
Text Label 6100 12150 2    60   ~ 0
CB7
Text Label 4950 11400 0    60   ~ 0
CA3
Text Label 4950 12050 0    60   ~ 0
CA3
Text Label 4950 12650 0    60   ~ 0
CA4
Text Label 4950 13300 0    60   ~ 0
CA4
Text Label 4950 13950 0    60   ~ 0
CA5
Text Label 4950 14600 0    60   ~ 0
CA5
Text Label 4950 15900 0    60   ~ 0
CA6
Text Label 4950 15250 0    60   ~ 0
CA6
Text Label 4950 16550 0    60   ~ 0
CA7
Text GLabel 2900 6050 0    60   Output ~ 0
INTB
Text GLabel 3300 700  2    60   Input ~ 0
INTB
Text GLabel 2900 6150 0    60   Input ~ 0
SDB
Text GLabel 3300 800  2    60   Output ~ 0
SDB
Text GLabel 4200 3400 2    60   Input ~ 0
ACC_CS
Text GLabel 3300 900  2    60   Output ~ 0
ACC_CS
Text Label 4450 16050 2    60   ~ 0
CA7
Text Label 4450 16400 2    60   ~ 0
CA1
Text Label 4450 16550 2    60   ~ 0
CA2
Text Label 4450 16700 2    60   ~ 0
CA3
Text Label 6100 9300 2    60   ~ 0
CB5
Text Label 6100 9450 2    60   ~ 0
CB6
Text Label 6100 9600 2    60   ~ 0
CB7
Text Label 6100 9950 2    60   ~ 0
CB1
Text Label 6100 10100 2    60   ~ 0
CB3
Text Label 6100 10250 2    60   ~ 0
CB4
Text Label 6100 10600 2    60   ~ 0
CB5
Text Label 6100 10750 2    60   ~ 0
CB6
Text Label 6100 10900 2    60   ~ 0
CB7
Text Label 6100 11250 2    60   ~ 0
CB1
Text Label 6100 11400 2    60   ~ 0
CB2
Text Label 6100 11550 2    60   ~ 0
CB4
Text Label 6600 9450 0    60   ~ 0
CB1
Text Label 6100 8950 2    60   ~ 0
CB4
Text Label 6100 8800 2    60   ~ 0
CB3
Text Label 6100 8650 2    60   ~ 0
CB2
Text Label 6600 8800 0    60   ~ 0
CB1
Text Label 6600 10100 0    60   ~ 0
CB2
Text Label 6600 10750 0    60   ~ 0
CB2
Text Label 6600 11400 0    60   ~ 0
CB3
Text Label 6600 12000 0    60   ~ 0
CB3
Text Label 6600 12650 0    60   ~ 0
CB4
Text Label 6600 13300 0    60   ~ 0
CB4
Text Label 6600 13950 0    60   ~ 0
CB5
Text Label 6600 14600 0    60   ~ 0
CB5
Text Label 6600 15250 0    60   ~ 0
CB6
Text Label 4100 7050 0    60   ~ 0
CB1
Text Label 4100 6950 0    60   ~ 0
CB2
Text Label 4100 6850 0    60   ~ 0
CB3
Text Label 4100 6750 0    60   ~ 0
CB4
Text Label 4100 6650 0    60   ~ 0
CB5
Text Label 4100 6550 0    60   ~ 0
CB6
Text Label 6100 14450 2    60   ~ 0
CB4
Text Label 6100 14600 2    60   ~ 0
CB6
Text Label 6100 14750 2    60   ~ 0
CB7
Text Label 6100 15100 2    60   ~ 0
CB1
Text Label 6100 15250 2    60   ~ 0
CB2
Text Label 6100 15400 2    60   ~ 0
CB3
Text Label 2250 6450 0    60   ~ 0
AUDIO_DIRECT
Text Notes 3800 350  0    60   ~ 0
SERCOM Pad 0 = SDA\nSERCOM Pad 1 = SCL
Text GLabel -900 -200 0    60   Output ~ 0
IR_SEND
Text GLabel 5800 3450 0    60   Input ~ 0
IR_SEND
Text GLabel 3300 1400 2    60   BiDi ~ 0
USB_D_N
Text GLabel 3300 1500 2    60   BiDi ~ 0
USB_D_P
Text GLabel 7400 3000 3    60   BiDi ~ 0
USB_D_N
Text GLabel 7500 3000 3    60   BiDi ~ 0
USB_D_P
Text Label 3350 -400 0    60   ~ 0
HALF_BV
Text Label 3350 -300 0    60   ~ 0
BV_GND
Text Label 800  -1350 3    60   ~ 0
VDDCORE
Text Label 2850 6450 0    60   ~ 0
AUDIO_FILTERED
Text GLabel 2100 6750 3    60   Input ~ 0
IR_PWR
Text Notes 6950 15900 0    60   ~ 0
P24
Text Notes 6950 16500 0    60   ~ 0
P25
Text Label 6600 15900 0    60   ~ 0
CB6
Text Label 6600 16550 0    60   ~ 0
CB7
Text Label 6100 15750 2    60   ~ 0
CB4
Text Label 6100 15900 2    60   ~ 0
CB5
Text Label 6100 16050 2    60   ~ 0
CB7
Text Label 6100 16400 2    60   ~ 0
CB1
Text Label 6100 16550 2    60   ~ 0
CB2
Text Label 6100 16700 2    60   ~ 0
CB3
Text Label 4100 6450 0    60   ~ 0
CB7
Text Notes 6950 17150 0    60   ~ 0
P26
Text Label 6600 17200 0    60   ~ 0
CB7
Text Label 6100 17050 2    60   ~ 0
CB4
Text Label 6100 17200 2    60   ~ 0
CB5
Text Label 6100 17350 2    60   ~ 0
CB6
Wire Wire Line
	1250 2250 1250 2350
Wire Wire Line
	1900 6700 2100 6700
Wire Wire Line
	1900 6750 1900 6700
Wire Wire Line
	2100 6650 2100 6750
Wire Wire Line
	2150 6650 2100 6650
Wire Wire Line
	2150 6550 2150 6650
Wire Wire Line
	3500 -500 3300 -500
Wire Wire Line
	3500 -650 3500 -500
Wire Wire Line
	1450 -1750 1450 -1300
Wire Wire Line
	1000 -1750 1000 -1300
Wire Wire Line
	1450 2350 1450 2200
Wire Wire Line
	3300 1200 4100 1200
Wire Wire Line
	900  2350 900  2200
Wire Wire Line
	2250 7100 2250 7150
Wire Wire Line
	800  -1350 800  -1300
Wire Wire Line
	450  -1750 1450 -1750
Wire Wire Line
	1100 -1800 1100 -1300
Wire Wire Line
	600  -1300 600  -1750
Wire Wire Line
	3900 -300 3300 -300
Wire Wire Line
	3700 -650 3900 -650
Wire Wire Line
	3700 -400 3700 -650
Wire Wire Line
	3300 -400 3700 -400
Wire Wire Line
	2300 5250 2900 5250
Wire Wire Line
	1100 2200 1100 2350
Wire Wire Line
	900  2350 1550 2350
Wire Wire Line
	1000 2200 1000 2350
Wire Wire Line
	2900 6900 2800 6900
Wire Wire Line
	2800 6900 2800 7050
Wire Wire Line
	2900 7000 2800 7000
Wire Wire Line
	2500 6450 2150 6450
Wire Wire Line
	2700 6450 2900 6450
Wire Wire Line
	2700 6350 2700 6550
Wire Wire Line
	2500 6350 2500 6550
Wire Wire Line
	1250 6550 1150 6550
Wire Wire Line
	2250 6700 2250 6800
Wire Wire Line
	2250 6700 2900 6700
Wire Wire Line
	2450 6800 2450 6850
Wire Wire Line
	2450 6800 2900 6800
Wire Wire Line
	6100 3250 6100 3150
Wire Wire Line
	5950 3000 5950 3150
Wire Wire Line
	6250 3000 6250 3150
Wire Wire Line
	6550 3150 6550 3000
Wire Wire Line
	5650 3150 6550 3150
Wire Wire Line
	5650 3000 5650 3150
Wire Wire Line
	5650 2700 5650 2650
Wire Wire Line
	5950 2650 5950 2700
Wire Wire Line
	6250 2700 6250 2650
Wire Wire Line
	6550 2650 6550 2700
Wire Wire Line
	5650 2650 6550 2650
Wire Wire Line
	6100 2600 6100 2650
Wire Wire Line
	2900 5250 2900 5150
Wire Wire Line
	2500 5300 2500 5250
Wire Wire Line
	5550 5200 5550 5250
Wire Wire Line
	5600 5250 5600 5300
Wire Wire Line
	5500 5250 5600 5250
Wire Wire Line
	5500 5300 5500 5250
Wire Wire Line
	5500 5600 5500 5650
Wire Wire Line
	5600 5600 5600 5650
Wire Wire Line
	5350 5650 5700 5650
Wire Wire Line
	-1000 -1100 -1000 -1000
Wire Wire Line
	-900 -1000 -1100 -1000
Wire Wire Line
	8050 900  8050 1000
Wire Wire Line
	9250 5700 9250 5650
Wire Wire Line
	8650 5650 9350 5650
Wire Wire Line
	7400 5650 7400 5700
Wire Wire Line
	7600 5850 7750 5850
Wire Wire Line
	7400 5650 7750 5650
Wire Wire Line
	7600 5550 7600 5850
Wire Wire Line
	3900 -700 3900 -600
Wire Wire Line
	9250 2350 9250 2450
Wire Wire Line
	9350 5000 9250 5000
Wire Wire Line
	9250 4950 9250 5050
Wire Wire Line
	9250 4250 9250 4350
Wire Wire Line
	2500 4000 2350 4000
Wire Wire Line
	2500 3800 2350 3800
Wire Wire Line
	2500 3700 2350 3700
Wire Wire Line
	2350 3600 2350 4150
Wire Wire Line
	2500 3600 2350 3600
Wire Wire Line
	2350 3400 2500 3400
Wire Wire Line
	2350 3200 2350 3400
Wire Wire Line
	1800 3300 2500 3300
Wire Wire Line
	9000 2300 9000 2500
Wire Wire Line
	9000 2450 9300 2450
Wire Wire Line
	9300 2750 9200 2750
Wire Wire Line
	9200 2650 9200 2850
Wire Wire Line
	9300 2650 9200 2650
Wire Wire Line
	1800 3500 1800 3550
Wire Wire Line
	8050 1000 8600 1000
Connection ~ 1250 2350
Connection ~ 2100 6700
Connection ~ 1100 -1750
Connection ~ 1000 -1750
Connection ~ 1450 2350
Connection ~ 1000 2350
Connection ~ 600  -1750
Connection ~ 1100 2350
Connection ~ 2800 7000
Connection ~ 2700 6450
Connection ~ 2500 6450
Connection ~ 6100 3150
Connection ~ 5950 3150
Connection ~ 6250 3150
Connection ~ 5950 2650
Connection ~ 6100 2650
Connection ~ 6250 2650
Connection ~ 2900 5250
Connection ~ 5550 5250
Connection ~ 5500 5650
Connection ~ 5600 5650
Connection ~ -1000 -1000
Connection ~ 9250 5650
Connection ~ 7600 5650
Connection ~ 3900 -650
Connection ~ 9250 2450
Connection ~ 9250 5000
Connection ~ 2350 4000
Connection ~ 2350 3800
Connection ~ 2350 3700
Connection ~ 2350 3300
Connection ~ 9000 2450
Connection ~ 9200 2750
Connection ~ 8400 1000
NoConn ~ 7600 3000
NoConn ~ 5700 5850
NoConn ~ 4100 6350
NoConn ~ 4100 6250
NoConn ~ 4100 1600
NoConn ~ 4700 1200
NoConn ~ 3300 -800
NoConn ~ 3300 -700
NoConn ~ 3300 -100
NoConn ~ 3300 0   
NoConn ~ 3300 100 
NoConn ~ 3300 1600
NoConn ~ 3300 1700
NoConn ~ -900 -800
NoConn ~ -900 -700
NoConn ~ -900 -400
NoConn ~ -900 -300
NoConn ~ -900 -100
NoConn ~ 3300 -1000
NoConn ~ 3300 -900
NoConn ~ 3300 -600
NoConn ~ 3300 400 
NoConn ~ 3300 500 
NoConn ~ 3300 600 
NoConn ~ -900 -600
NoConn ~ 3300 1300
NoConn ~ 4100 5300
NoConn ~ 4100 5400
Text Label 3300 -200 0    60   ~ 0
AUDIO_DIRECT
$Comp
L C_Small C15
U 1 1 5B29A6AB
P 2300 5400
F 0 "C15" H 2310 5470 50  0000 L CNN
F 1 "10uF" H 2310 5320 50  0000 L CNN
F 2 "Capacitors_SMD:C_0402" H 2300 5400 50  0001 C CNN
F 3 "" H 2300 5400 50  0001 C CNN
F 4 "Murata" H -5750 650 50  0001 C CNN "MFR"
F 5 "GRM155R60G106ME44D" H -5750 650 50  0001 C CNN "MPN"
F 6 "Digikey" H -5750 650 50  0001 C CNN "SPR"
F 7 "490-10693-1-ND" H -5750 650 50  0001 C CNN "SPN"
	1    2300 5400
	-1   0    0    -1  
$EndComp
$Comp
L GND #PWR045
U 1 1 5B29AC13
P 2300 5500
F 0 "#PWR045" H 2300 5250 50  0001 C CNN
F 1 "GND" H 2300 5350 50  0000 C CNN
F 2 "" H 2300 5500 50  0000 C CNN
F 3 "" H 2300 5500 50  0000 C CNN
	1    2300 5500
	1    0    0    -1  
$EndComp
Wire Wire Line
	2300 5250 2300 5300
Connection ~ 2500 5250
Wire Wire Line
	1150 6550 1150 6650
$Comp
L C_Small C16
U 1 1 5B29C29D
P 1150 6300
F 0 "C16" H 1160 6370 50  0000 L CNN
F 1 "100nF" H 1050 6150 50  0000 L CNN
F 2 "Capacitors_SMD:C_0402" H 1150 6300 50  0001 C CNN
F 3 "" H 1150 6300 50  0001 C CNN
F 4 "Murata" H -3550 4900 50  0001 C CNN "MFR"
F 5 "GRM155R61A104KA01D" H -3550 4900 50  0001 C CNN "MPN"
F 6 "Digikey" H -3550 4900 50  0001 C CNN "SPR"
F 7 "490-1318-2-ND" H -3550 4900 50  0001 C CNN "SPN"
F 8 "" H -3550 4900 50  0001 C CNN "SPURL"
	1    1150 6300
	-1   0    0    1   
$EndComp
Wire Wire Line
	1250 6450 1150 6450
Wire Wire Line
	1150 6450 1150 6400
$Comp
L GND #PWR046
U 1 1 5B29C46E
P 1150 6200
F 0 "#PWR046" H 1150 5950 50  0001 C CNN
F 1 "GND" H 1150 6050 50  0000 C CNN
F 2 "" H 1150 6200 50  0000 C CNN
F 3 "" H 1150 6200 50  0000 C CNN
	1    1150 6200
	-1   0    0    1   
$EndComp
$Comp
L Switch_DPST SW1
U 1 1 5B2C81F7
P 4400 1400
F 0 "SW1" H 4700 1450 50  0000 C CNN
F 1 "Switch_DPST" H 4700 1350 50  0000 C CNN
F 2 "DFTcustom:TL3315" H 4400 1400 50  0000 C CNN
F 3 "" H 4400 1400 50  0000 C CNN
	1    4400 1400
	1    0    0    -1  
$EndComp
$Comp
L TLV71333PDBV U1
U 1 1 5B99EFD5
P 8900 1100
F 0 "U1" H 8750 1325 50  0000 C CNN
F 1 "TLV71333PDBV" H 8900 1325 50  0000 L CNN
F 2 "TO_SOT_Packages_SMD:SOT-23-5" H 8900 1425 50  0001 C CIN
F 3 "" H 8900 1100 50  0001 C CNN
	1    8900 1100
	1    0    0    -1  
$EndComp
Wire Wire Line
	8600 1100 8400 1100
Wire Wire Line
	8400 1100 8400 850 
$Comp
L GND #PWR047
U 1 1 5B9A0030
P 8900 1400
F 0 "#PWR047" H 8900 1150 50  0001 C CNN
F 1 "GND" H 8900 1250 50  0000 C CNN
F 2 "" H 8900 1400 50  0000 C CNN
F 3 "" H 8900 1400 50  0000 C CNN
	1    8900 1400
	1    0    0    -1  
$EndComp
Wire Wire Line
	9200 1000 9600 1000
Text Label 6250 2650 0    60   ~ 0
IRLED+
Text Label 6250 3150 0    60   ~ 0
IRLED-
$EndSCHEMATC
