PCBNEW-LibModule-V1  
# encoding utf-8
Units mm
$INDEX
SON50P300X300X100-11N
$EndINDEX
$MODULE SON50P300X300X100-11N
Po 0 0 0 15 00000000 00000000 ~~
Li SON50P300X300X100-11N
Cd 
Sc 00000000
At SMD
Op 0 0 0
.SolderMask 0
.SolderPaste 0
T0 -0.315038 -2.21591 0.641308 0.641308 0 0.05 N V 21 "SON50P300X300X100-11N"
T1 0.0920625 2.20518 0.640459 0.640459 0 0.05 N V 21 "VAL**"
DS 1.5 -1.5 -1.5 -1.5 0.127 21
DS 1.5 1.5 -1.5 1.5 0.127 21
DS 1.5 -1.5 1.5 -1.4 0.127 21
DS -1.5 -1.5 -1.5 -1.4 0.127 21
DS -1.5 1.5 -1.5 1.4 0.127 21
DS 1.5 1.5 1.5 1.4 0.127 21
DC -1.9 -1.5 -1.85 -1.5 0.1 21
DS 1.5 -1.5 1.5 1.5 0.127 24
DS 1.5 1.5 -1.5 1.5 0.127 24
DS -1.5 1.5 -1.5 -1.5 0.127 24
DS -1.5 -1.5 1.5 -1.5 0.127 24
DP 0 0 0 0 4 0.381 19
Dl -0.501444 -0.75
Dl 0.5 -0.75
Dl 0.5 0.752166
Dl -0.501444 0.752166
DS -2.25 -1.75 2.25 -1.75 0.05 24
DS 2.25 -1.75 2.25 1.75 0.05 24
DS 2.25 1.75 -2.25 1.75 0.05 24
DS -2.25 1.75 -2.25 -1.75 0.05 24
$PAD
Sh "1" R 0.26 0.84 0 0 2700
At SMD N 00888000
.SolderMask 0
.SolderPaste 0
Ne 0 ""
Po -1.435 -1
$EndPAD
$PAD
Sh "2" R 0.26 0.84 0 0 2700
At SMD N 00888000
.SolderMask 0
.SolderPaste 0
Ne 0 ""
Po -1.435 -0.5
$EndPAD
$PAD
Sh "3" R 0.26 0.84 0 0 2700
At SMD N 00888000
.SolderMask 0
.SolderPaste 0
Ne 0 ""
Po -1.435 0
$EndPAD
$PAD
Sh "4" R 0.26 0.84 0 0 2700
At SMD N 00888000
.SolderMask 0
.SolderPaste 0
Ne 0 ""
Po -1.435 0.5
$EndPAD
$PAD
Sh "5" R 0.26 0.84 0 0 2700
At SMD N 00888000
.SolderMask 0
.SolderPaste 0
Ne 0 ""
Po -1.435 1
$EndPAD
$PAD
Sh "6" R 0.26 0.84 0 0 2700
At SMD N 00888000
.SolderMask 0
.SolderPaste 0
Ne 0 ""
Po 1.435 1
$EndPAD
$PAD
Sh "7" R 0.26 0.84 0 0 2700
At SMD N 00888000
.SolderMask 0
.SolderPaste 0
Ne 0 ""
Po 1.435 0.5
$EndPAD
$PAD
Sh "8" R 0.26 0.84 0 0 2700
At SMD N 00888000
.SolderMask 0
.SolderPaste 0
Ne 0 ""
Po 1.435 0
$EndPAD
$PAD
Sh "9" R 0.26 0.84 0 0 2700
At SMD N 00888000
.SolderMask 0
.SolderPaste 0
Ne 0 ""
Po 1.435 -0.5
$EndPAD
$PAD
Sh "10" R 0.26 0.84 0 0 2700
At SMD N 00888000
.SolderMask 0
.SolderPaste 0
Ne 0 ""
Po 1.435 -1
$EndPAD
$PAD
Sh "11" R 2.35 1.58 0 0 2700
At SMD N 00888000
.SolderMask 0
Ne 0 ""
Po 0 0
$EndPAD
$EndMODULE SON50P300X300X100-11N
