EESchema Schematic File Version 2
LIBS:bracelight-rescue
LIBS:power
LIBS:device
LIBS:transistors
LIBS:conn
LIBS:linear
LIBS:regul
LIBS:74xx
LIBS:cmos4000
LIBS:adc-dac
LIBS:memory
LIBS:xilinx
LIBS:microcontrollers
LIBS:dsp
LIBS:microchip
LIBS:analog_switches
LIBS:motorola
LIBS:texas
LIBS:intel
LIBS:audio
LIBS:interface
LIBS:digital-audio
LIBS:philips
LIBS:display
LIBS:cypress
LIBS:siliconi
LIBS:opto
LIBS:atmel
LIBS:contrib
LIBS:valves
LIBS:bl_custom
LIBS:MCP73833T-AMI_MF
LIBS:DFTCustom
LIBS:win
LIBS:SC189
LIBS:nRF24L01+
LIBS:nrf24l01
LIBS:ATMEGA328P-MU
LIBS:NorBot
LIBS:dc-dc
LIBS:Custom_Parts
LIBS:Poliboard3-cache
LIBS:wm8758b
LIBS:bracelight-cache
EELAYER 25 0
EELAYER END
$Descr A4 11693 8268
encoding utf-8
Sheet 1 1
Title ""
Date ""
Rev ""
Comp ""
Comment1 ""
Comment2 ""
Comment3 ""
Comment4 ""
$EndDescr
$Comp
L AVR-ISP-6 CON1
U 1 1 59F60280
P 5300 3800
F 0 "CON1" H 5195 4040 50 0000 C CNN
F 1 "AVR-ISP-6" H 5035 3570 50 0000 L BNN
F 2 "DFTcustom:AVR-ISP-6-TH" V 4780 3840 50 0001 C CNN
F 3 "" H 5275 3800 50 0001 C CNN
F 4 "DNS" H 0 0 50 0001 C CNN "MFR"
F 5 "" H 0 0 50 0001 C CNN "MPN"
F 6 "" H 0 0 50 0001 C CNN "SPR"
F 7 "" H 0 0 50 0001 C CNN "SPN"
F 8 "" H 0 0 50 0001 C CNN "SPURL"
	1    5300 3800
	1    0    0    -1  
$EndComp
$Comp
L GND #PWR01
U 1 1 59F6064E
P 5650 4050
F 0 "#PWR01" H 5650 3800 50 0001 C CNN
F 1 "GND" H 5650 3900 50 0000 C CNN
F 2 "" H 5650 4050 50 0000 C CNN
F 3 "" H 5650 4050 50 0000 C CNN
	1    5650 4050
	1    0    0    -1  
$EndComp
$Comp
L GND #PWR02
U 1 1 59F60A36
P 1100 4950
F 0 "#PWR02" H 1100 4700 50 0001 C CNN
F 1 "GND" H 1100 4800 50 0000 C CNN
F 2 "" H 1100 4950 50 0000 C CNN
F 3 "" H 1100 4950 50 0000 C CNN
	1    1100 4950
	1    0    0    -1  
$EndComp
$Comp
L MCP73833T-AMI/MF U3
U 1 1 59F661F6
P 7150 5350
F 0 "U3" H 6749 5952 50 0000 L BNN
F 1 "MCP73833T-AMI/MF" H 6749 4648 50 0000 L BNN
F 2 "Housings_DFN_QFN:DFN-10-1EP_3x3mm_Pitch0.5mm" H 7150 5350 50 0001 L BNN
F 3 "" H 7150 5350 50 0001 L BNN
F 4 "DFN-10 Microchip" H 7150 5350 50 0001 L BNN "Package"
F 5 "Microchip" H 7150 5350 50 0001 L BNN "MF"
F 6 "Linear Charge Management Controller Li-Ion/Li-Pol 1mA 4.2V/4.35V/4.4V/4.5V 10-Pin DFN EP Tube" H 7150 5350 50 0001 L BNN "Description"
F 7 "Good" H 7150 5350 50 0001 L BNN "Availability"
F 8 "MCP73833-BZI/MF" H 7150 5350 50 0001 L BNN "MP"
F 9 "Microchip" H 0 0 50 0001 C CNN "MFR"
F 10 "MCP73833T-AMI/MF" H 0 0 50 0001 C CNN "MPN"
F 11 "Digikey" H 0 0 50 0001 C CNN "SPR"
F 12 "MCP73833T-AMI/MF-ND" H 0 0 50 0001 C CNN "SPN"
F 13 "" H 0 0 50 0001 C CNN "SPURL"
	1    7150 5350
	1    0    0    -1  
$EndComp
$Comp
L GND #PWR03
U 1 1 59F6785D
P 6400 5350
F 0 "#PWR03" H 6400 5100 50 0001 C CNN
F 1 "GND" H 6400 5200 50 0000 C CNN
F 2 "" H 6400 5350 50 0000 C CNN
F 3 "" H 6400 5350 50 0000 C CNN
	1    6400 5350
	1    0    0    -1  
$EndComp
$Comp
L +BATT #PWR04
U 1 1 59F67D34
P 8500 4950
F 0 "#PWR04" H 8500 4800 50 0001 C CNN
F 1 "+BATT" H 8500 5090 50 0000 C CNN
F 2 "" H 8500 4950 50 0000 C CNN
F 3 "" H 8500 4950 50 0000 C CNN
	1    8500 4950
	0    1    1    0   
$EndComp
$Comp
L +5V #PWR05
U 1 1 59F67EE7
P 7850 4700
F 0 "#PWR05" H 7850 4550 50 0001 C CNN
F 1 "+5V" H 7850 4840 50 0000 C CNN
F 2 "" H 7850 4700 50 0000 C CNN
F 3 "" H 7850 4700 50 0000 C CNN
	1    7850 4700
	1    0    0    -1  
$EndComp
$Comp
L GND #PWR06
U 1 1 59F68A49
P 7900 6000
F 0 "#PWR06" H 7900 5750 50 0001 C CNN
F 1 "GND" H 7900 5850 50 0000 C CNN
F 2 "" H 7900 6000 50 0000 C CNN
F 3 "" H 7900 6000 50 0000 C CNN
	1    7900 6000
	1    0    0    -1  
$EndComp
$Comp
L C_Small C15
U 1 1 59F6A1FB
P 8050 4750
F 0 "C15" H 8060 4820 50 0000 L CNN
F 1 "10uF" H 8060 4670 50 0000 L CNN
F 2 "Capacitors_SMD:C_0402" H 8050 4750 50 0001 C CNN
F 3 "" H 8050 4750 50 0001 C CNN
F 4 "Murata" H 0 0 50 0001 C CNN "MFR"
F 5 "GRM155R60G106ME44D" H 0 0 50 0001 C CNN "MPN"
F 6 "Digikey" H 0 0 50 0001 C CNN "SPR"
F 7 " 490-10693-1-ND" H 0 0 50 0001 C CNN "SPN"
F 8 "" H 0 0 50 0001 C CNN "SPURL"
	1    8050 4750
	0    -1   -1   0   
$EndComp
$Comp
L GND #PWR07
U 1 1 59F6A7AB
P 8150 4750
F 0 "#PWR07" H 8150 4500 50 0001 C CNN
F 1 "GND" H 8150 4600 50 0000 C CNN
F 2 "" H 8150 4750 50 0000 C CNN
F 3 "" H 8150 4750 50 0000 C CNN
	1    8150 4750
	0    -1   -1   0   
$EndComp
$Comp
L C_Small C23
U 1 1 59F6A8D9
P 8300 5050
F 0 "C23" H 8310 5120 50 0000 L CNN
F 1 "10uF" H 8310 4970 50 0000 L CNN
F 2 "Capacitors_SMD:C_0402" H 8300 5050 50 0001 C CNN
F 3 "" H 8300 5050 50 0001 C CNN
F 4 "Murata" H 0 0 50 0001 C CNN "MFR"
F 5 "GRM155R60G106ME44D" H 0 0 50 0001 C CNN "MPN"
F 6 "Digikey" H 0 0 50 0001 C CNN "SPR"
F 7 " 490-10693-1-ND" H 0 0 50 0001 C CNN "SPN"
F 8 "" H 0 0 50 0001 C CNN "SPURL"
	1    8300 5050
	1    0    0    -1  
$EndComp
$Comp
L GND #PWR08
U 1 1 59F6A8DF
P 8300 5150
F 0 "#PWR08" H 8300 4900 50 0001 C CNN
F 1 "GND" H 8300 5000 50 0000 C CNN
F 2 "" H 8300 5150 50 0000 C CNN
F 3 "" H 8300 5150 50 0000 C CNN
	1    8300 5150
	1    0    0    -1  
$EndComp
$Comp
L +BATT #PWR09
U 1 1 59F6C1DB
P 8400 850
F 0 "#PWR09" H 8400 700 50 0001 C CNN
F 1 "+BATT" H 8400 990 50 0000 C CNN
F 2 "" H 8400 850 50 0000 C CNN
F 3 "" H 8400 850 50 0000 C CNN
	1    8400 850 
	1    0    0    -1  
$EndComp
$Comp
L C_Small C22
U 1 1 59F70C1A
P 8050 1150
F 0 "C22" H 8060 1220 50 0000 L CNN
F 1 "10uF" H 8060 1070 50 0000 L CNN
F 2 "Capacitors_SMD:C_0402" H 8050 1150 50 0001 C CNN
F 3 "" H 8050 1150 50 0001 C CNN
F 4 "Murata" H -150 -800 50 0001 C CNN "MFR"
F 5 "GRM155R60G106ME44D" H -150 -800 50 0001 C CNN "MPN"
F 6 "Digikey" H -150 -800 50 0001 C CNN "SPR"
F 7 " 490-10693-1-ND" H -150 -800 50 0001 C CNN "SPN"
F 8 "" H -150 -800 50 0001 C CNN "SPURL"
	1    8050 1150
	1    0    0    -1  
$EndComp
$Comp
L GND #PWR010
U 1 1 59F7152F
P 8500 1450
F 0 "#PWR010" H 8500 1200 50 0001 C CNN
F 1 "GND" H 8500 1300 50 0000 C CNN
F 2 "" H 8500 1450 50 0000 C CNN
F 3 "" H 8500 1450 50 0000 C CNN
	1    8500 1450
	1    0    0    -1  
$EndComp
$Comp
L GND #PWR011
U 1 1 59F71870
P 8050 1300
F 0 "#PWR011" H 8050 1050 50 0001 C CNN
F 1 "GND" H 8050 1150 50 0000 C CNN
F 2 "" H 8050 1300 50 0000 C CNN
F 3 "" H 8050 1300 50 0000 C CNN
	1    8050 1300
	1    0    0    -1  
$EndComp
$Comp
L C_Small C26
U 1 1 59F71C82
P 11150 1100
F 0 "C26" H 11160 1170 50 0000 L CNN
F 1 "10uF" H 11160 1020 50 0000 L CNN
F 2 "Capacitors_SMD:C_0402" H 11150 1100 50 0001 C CNN
F 3 "" H 11150 1100 50 0001 C CNN
F 4 "Murata" H 250 -800 50 0001 C CNN "MFR"
F 5 "GRM155R60G106ME44D" H 250 -800 50 0001 C CNN "MPN"
F 6 "Digikey" H 250 -800 50 0001 C CNN "SPR"
F 7 " 490-10693-1-ND" H 250 -800 50 0001 C CNN "SPN"
F 8 "" H 250 -800 50 0001 C CNN "SPURL"
	1    11150 1100
	1    0    0    -1  
$EndComp
$Comp
L GND #PWR012
U 1 1 59F71D07
P 11150 1350
F 0 "#PWR012" H 11150 1100 50 0001 C CNN
F 1 "GND" H 11150 1200 50 0000 C CNN
F 2 "" H 11150 1350 50 0000 C CNN
F 3 "" H 11150 1350 50 0000 C CNN
	1    11150 1350
	1    0    0    -1  
$EndComp
$Comp
L INDUCTOR_SMALL L2
U 1 1 59F71DF9
P 10850 1200
F 0 "L2" H 10850 1300 50 0000 C CNN
F 1 "2.2uH" H 10850 1150 50 0000 C CNN
F 2 "Capacitors_SMD:C_1812" H 10850 1200 50 0001 C CNN
F 3 "" H 10850 1200 50 0001 C CNN
F 4 "Murata" H 250 -800 50 0001 C CNN "MFR"
F 5 "LQH43PN2R2M26L" H 250 -800 50 0001 C CNN "MPN"
F 6 "Digikey" H 250 -800 50 0001 C CNN "SPR"
F 7 "490-12049-2-ND" H 250 -800 50 0001 C CNN "SPN"
F 8 "" H 250 -800 50 0001 C CNN "SPURL"
	1    10850 1200
	0    1    1    0   
$EndComp
$Comp
L +BATT #PWR013
U 1 1 5A04A4C7
P 9850 3750
F 0 "#PWR013" H 9850 3600 50 0001 C CNN
F 1 "+BATT" H 9850 3890 50 0000 C CNN
F 2 "" H 9850 3750 50 0000 C CNN
F 3 "" H 9850 3750 50 0000 C CNN
	1    9850 3750
	1    0    0    -1  
$EndComp
$Comp
L GND #PWR014
U 1 1 5A04A64E
P 9850 4550
F 0 "#PWR014" H 9850 4300 50 0001 C CNN
F 1 "GND" H 9850 4400 50 0000 C CNN
F 2 "" H 9850 4550 50 0000 C CNN
F 3 "" H 9850 4550 50 0000 C CNN
	1    9850 4550
	1    0    0    -1  
$EndComp
$Comp
L CONN_MICRO_USB_B P1
U 1 1 5A0158E6
P 5400 6700
F 0 "P1" H 5400 6750 50 0000 C CNN
F 1 "CONN_MICRO_USB_B" H 5400 6850 50 0000 C CNN
F 2 "DFTcustom:USB-MICRO-B-FCI-10118192" H 5400 6650 50 0001 C CNN
F 3 "DOCUMENTATION" H 5400 6050 50 0001 C CNN
F 4 "Amphenol" H 350 0 50 0001 C CNN "MFR"
F 5 " 10118192-0001LF" H 350 0 50 0001 C CNN "MPN"
F 6 "Digikey" H 350 0 50 0001 C CNN "SPR"
F 7 "609-4613-2-ND " H 350 0 50 0001 C CNN "SPN"
F 8 "" H 350 0 50 0001 C CNN "SPURL"
	1    5400 6700
	1    0    0    -1  
$EndComp
$Comp
L GND #PWR015
U 1 1 5A015A32
P 5550 7300
F 0 "#PWR015" H 5550 7050 50 0001 C CNN
F 1 "GND" H 5550 7150 50 0000 C CNN
F 2 "" H 5550 7300 50 0000 C CNN
F 3 "" H 5550 7300 50 0000 C CNN
	1    5550 7300
	1    0    0    -1  
$EndComp
$Comp
L +5V #PWR016
U 1 1 5A0160AE
P 5150 7300
F 0 "#PWR016" H 5150 7150 50 0001 C CNN
F 1 "+5V" H 5150 7440 50 0000 C CNN
F 2 "" H 5150 7300 50 0000 C CNN
F 3 "" H 5150 7300 50 0000 C CNN
	1    5150 7300
	-1   0    0    1   
$EndComp
$Comp
L GND #PWR017
U 1 1 5A0164E4
P 5650 7300
F 0 "#PWR017" H 5650 7050 50 0001 C CNN
F 1 "GND" H 5650 7150 50 0000 C CNN
F 2 "" H 5650 7300 50 0000 C CNN
F 3 "" H 5650 7300 50 0000 C CNN
	1    5650 7300
	1    0    0    -1  
$EndComp
$Comp
L C_Small C1
U 1 1 5A07865D
P 1100 3400
F 0 "C1" H 1110 3470 50 0000 L CNN
F 1 "10uF" H 1110 3320 50 0000 L CNN
F 2 "Capacitors_SMD:C_0402" H 1100 3400 50 0001 C CNN
F 3 "" H 1100 3400 50 0001 C CNN
F 4 "Murata" H -200 0 50 0001 C CNN "MFR"
F 5 "GRM155R60G106ME44D" H -200 0 50 0001 C CNN "MPN"
F 6 "Digikey" H -200 0 50 0001 C CNN "SPR"
F 7 " 490-10693-1-ND" H -200 0 50 0001 C CNN "SPN"
F 8 "" H -200 0 50 0001 C CNN "SPURL"
	1    1100 3400
	1    0    0    -1  
$EndComp
$Comp
L GND #PWR018
U 1 1 5A078CB0
P 1100 3500
F 0 "#PWR018" H 1100 3250 50 0001 C CNN
F 1 "GND" H 1100 3350 50 0000 C CNN
F 2 "" H 1100 3500 50 0000 C CNN
F 3 "" H 1100 3500 50 0000 C CNN
	1    1100 3500
	1    0    0    -1  
$EndComp
$Comp
L GND #PWR019
U 1 1 59F6EE89
P 2800 1450
F 0 "#PWR019" H 2800 1200 50 0001 C CNN
F 1 "GND" H 2800 1300 50 0000 C CNN
F 2 "" H 2800 1450 50 0000 C CNN
F 3 "" H 2800 1450 50 0000 C CNN
	1    2800 1450
	1    0    0    -1  
$EndComp
$Comp
L C_Small C8
U 1 1 59F6ECD6
P 2700 1250
F 0 "C8" H 2710 1320 50 0000 L CNN
F 1 "100nF" H 2710 1170 50 0000 L CNN
F 2 "Capacitors_SMD:C_0402" H 2700 1250 50 0001 C CNN
F 3 "" H 2700 1250 50 0001 C CNN
F 4 "Murata" H -2000 -150 50 0001 C CNN "MFR"
F 5 "GRM155R61A104KA01D" H -2000 -150 50 0001 C CNN "MPN"
F 6 "Digikey" H -2000 -150 50 0001 C CNN "SPR"
F 7 "490-1318-2-ND" H -2000 -150 50 0001 C CNN "SPN"
F 8 "" H -2000 -150 50 0001 C CNN "SPURL"
	1    2700 1250
	1    0    0    -1  
$EndComp
$Comp
L C_Small C9
U 1 1 59F6E9D8
P 2950 1250
F 0 "C9" H 2960 1320 50 0000 L CNN
F 1 "10uF" H 2960 1170 50 0000 L CNN
F 2 "Capacitors_SMD:C_0402" H 2950 1250 50 0001 C CNN
F 3 "" H 2950 1250 50 0001 C CNN
F 4 "Murata" H -2000 -150 50 0001 C CNN "MFR"
F 5 "GRM155R60G106ME44D" H -2000 -150 50 0001 C CNN "MPN"
F 6 "Digikey" H -2000 -150 50 0001 C CNN "SPR"
F 7 " 490-10693-1-ND" H -2000 -150 50 0001 C CNN "SPN"
F 8 "" H -2000 -150 50 0001 C CNN "SPURL"
	1    2950 1250
	1    0    0    -1  
$EndComp
$Comp
L ATMEGA328P-MU-RESCUE-bracelight-RESCUE-bracelight U4
U 1 1 5A0E9596
P 2200 3650
F 0 "U4" H 1450 4900 50 0000 L BNN
F 1 "ATMEGA328P-MU" H 2600 2250 50 0000 L BNN
F 2 "DFTcustom:MLF32-PAD" H 2200 3650 50 0001 C CIN
F 3 "" H 2200 3650 50 0001 C CNN
F 4 "Microchip" H 0 0 50 0001 C CNN "MFR"
F 5 "ATMEGA328P-MUR" H 0 0 50 0001 C CNN "MPN"
F 6 "Digikey" H 0 0 50 0001 C CNN "SPR"
F 7 "ATMEGA328P-MUR " H 0 0 50 0001 C CNN "SPN"
F 8 "" H 0 0 50 0001 C CNN "SPURL"
	1    2200 3650
	1    0    0    -1  
$EndComp
$Comp
L R R7
U 1 1 5A0F21EB
P 6400 5950
F 0 "R7" V 6480 5950 50 0000 C CNN
F 1 "10k" V 6400 5950 50 0000 C CNN
F 2 "Resistors_SMD:R_0402" V 6330 5950 50 0001 C CNN
F 3 "" H 6400 5950 50 0001 C CNN
F 4 "Yageo" H -750 2750 50 0001 C CNN "MFR"
F 5 "RC0402JR-0710KL" H -750 2750 50 0001 C CNN "MPN"
F 6 "Digikey" H -750 2750 50 0001 C CNN "SPR"
F 7 "311-10KJRCT-ND" H -750 2750 50 0001 C CNN "SPN"
F 8 "" H -750 2750 50 0001 C CNN "SPURL"
	1    6400 5950
	1    0    0    -1  
$EndComp
$Comp
L GND #PWR020
U 1 1 5A0F3897
P 6400 6100
F 0 "#PWR020" H 6400 5850 50 0001 C CNN
F 1 "GND" H 6400 5950 50 0000 C CNN
F 2 "" H 6400 6100 50 0000 C CNN
F 3 "" H 6400 6100 50 0000 C CNN
	1    6400 6100
	1    0    0    -1  
$EndComp
$Comp
L TSOP753 U7
U 1 1 5A19BA4B
P 8550 3150
F 0 "U7" H 8800 2800 60 0000 C CNN
F 1 "TSOP753" H 8600 3400 60 0000 C CNN
F 2 "DFTcustom:TSOP753_755" H 8500 3300 60 0001 C CNN
F 3 "" H 8500 3300 60 0001 C CNN
F 4 "Vishay" H 0 0 50 0001 C CNN "MFR"
F 5 " TSOP75338WTT " H 0 0 50 0001 C CNN "MPN"
F 6 "Digkey" H 0 0 50 0001 C CNN "SPR"
F 7 " TSOP75338WTTCT-ND" H 0 0 50 0001 C CNN "SPN"
F 8 "" H 0 0 50 0001 C CNN "SPURL"
	1    8550 3150
	1    0    0    -1  
$EndComp
$Comp
L GND #PWR021
U 1 1 5A19C532
P 8000 3450
F 0 "#PWR021" H 8000 3200 50 0001 C CNN
F 1 "GND" H 8000 3300 50 0000 C CNN
F 2 "" H 8000 3450 50 0000 C CNN
F 3 "" H 8000 3450 50 0000 C CNN
	1    8000 3450
	1    0    0    -1  
$EndComp
$Comp
L GND #PWR022
U 1 1 5A19F889
P 7800 3300
F 0 "#PWR022" H 7800 3050 50 0001 C CNN
F 1 "GND" H 7800 3150 50 0000 C CNN
F 2 "" H 7800 3300 50 0000 C CNN
F 3 "" H 7800 3300 50 0000 C CNN
	1    7800 3300
	1    0    0    -1  
$EndComp
$Comp
L +3.3V #PWR023
U 1 1 5A65364C
P 10650 850
F 0 "#PWR023" H 10650 700 50 0001 C CNN
F 1 "+3.3V" H 10650 990 50 0000 C CNN
F 2 "" H 10650 850 50 0001 C CNN
F 3 "" H 10650 850 50 0001 C CNN
	1    10650 850 
	1    0    0    -1  
$EndComp
$Comp
L LIS2HH12 U2
U 1 1 59F6BBAA
P 4250 1500
F 0 "U2" H 4250 1300 50 0000 C CNN
F 1 "LIS2HH12" H 4250 1200 50 0000 C CNN
F 2 "DFTcustom:LGA12" H 4250 1000 50 0001 C CNN
F 3 "DOCUMENTATION" H 4250 900 50 0001 C CNN
F 4 "ST" H -2000 -150 50 0001 C CNN "MFR"
F 5 "LIS2HH12TR" H -2000 -150 50 0001 C CNN "MPN"
F 6 "Digikey" H -2000 -150 50 0001 C CNN "SPR"
F 7 "497-15069-1-ND" H -2000 -150 50 0001 C CNN "SPN"
F 8 "" H -2000 -150 50 0001 C CNN "SPURL"
	1    4250 1500
	1    0    0    -1  
$EndComp
$Comp
L GND #PWR024
U 1 1 59F6C64E
P 3250 2000
F 0 "#PWR024" H 3250 1750 50 0001 C CNN
F 1 "GND" H 3250 1850 50 0000 C CNN
F 2 "" H 3250 2000 50 0000 C CNN
F 3 "" H 3250 2000 50 0000 C CNN
	1    3250 2000
	1    0    0    -1  
$EndComp
$Comp
L GND #PWR025
U 1 1 59F6F14E
P 5100 1350
F 0 "#PWR025" H 5100 1100 50 0001 C CNN
F 1 "GND" H 5100 1200 50 0000 C CNN
F 2 "" H 5100 1350 50 0000 C CNN
F 3 "" H 5100 1350 50 0000 C CNN
	1    5100 1350
	0    -1   -1   0   
$EndComp
$Comp
L +3.3V #PWR026
U 1 1 5A661570
P 3250 1050
F 0 "#PWR026" H 3250 900 50 0001 C CNN
F 1 "+3.3V" H 3250 1190 50 0000 C CNN
F 2 "" H 3250 1050 50 0001 C CNN
F 3 "" H 3250 1050 50 0001 C CNN
	1    3250 1050
	1    0    0    -1  
$EndComp
$Comp
L IS31FL3731 U6
U 1 1 5A6623D9
P 2700 6450
F 0 "U6" H 2199 7452 50 0000 L BNN
F 1 "IS31FL3731" H 2500 6350 50 0000 L BNN
F 2 "Housings_DFN_QFN:QFN-28-1EP_4x4mm_Pitch0.4mm" H 2550 6350 50 0001 L BNN
F 3 "" H 2550 6900 50 0001 L BNN
F 4 "-" H 0 0 50 0001 C CNN "MFR"
F 5 "-" H 0 0 50 0001 C CNN "MPN"
F 6 "-" H 0 0 50 0001 C CNN "SPR"
F 7 "-" H 0 0 50 0001 C CNN "SPN"
F 8 "-" H 0 0 50 0001 C CNN "SPURL"
	1    2700 6450
	1    0    0    -1  
$EndComp
$Comp
L +3.3V #PWR027
U 1 1 5A663761
P 1700 5600
F 0 "#PWR027" H 1700 5450 50 0001 C CNN
F 1 "+3.3V" H 1700 5740 50 0000 C CNN
F 2 "" H 1700 5600 50 0001 C CNN
F 3 "" H 1700 5600 50 0001 C CNN
	1    1700 5600
	0    -1   -1   0   
$EndComp
$Comp
L LED_RGB_PLCC6 D1
U 1 1 5A663D31
P 2450 8700
F 0 "D1" H 2450 9000 50 0000 C CNN
F 1 "LED_RGB_PLCC6" H 2450 8375 50 0000 C CNN
F 2 "DFTcustom:3535_LED_6" H 2475 8850 60 0001 C CNN
F 3 "" H 2475 8850 60 0001 C CNN
F 4 "-" H 0 0 50 0001 C CNN "MFR"
F 5 "-" H 0 0 50 0001 C CNN "MPN"
F 6 "-" H 0 0 50 0001 C CNN "SPR"
F 7 "-" H 0 0 50 0001 C CNN "SPN"
F 8 "-" H 0 0 50 0001 C CNN "SPURL"
	1    2450 8700
	1    0    0    -1  
$EndComp
$Comp
L LED_RGB_PLCC6 D9
U 1 1 5A663E5C
P 5100 10100
F 0 "D9" H 5100 10400 50 0000 C CNN
F 1 "LED_RGB_PLCC6" H 5100 9775 50 0000 C CNN
F 2 "DFTcustom:3535_LED_6" H 5125 10250 60 0001 C CNN
F 3 "" H 5125 10250 60 0001 C CNN
F 4 "-" H 0 0 50 0001 C CNN "MFR"
F 5 "-" H 0 0 50 0001 C CNN "MPN"
F 6 "-" H 0 0 50 0001 C CNN "SPR"
F 7 "-" H 0 0 50 0001 C CNN "SPN"
F 8 "-" H 0 0 50 0001 C CNN "SPURL"
	1    5100 10100
	1    0    0    -1  
$EndComp
$Comp
L LED_RGB_PLCC6 D17
U 1 1 5A664093
P 8850 9400
F 0 "D17" H 8850 9700 50 0000 C CNN
F 1 "LED_RGB_PLCC6" H 8850 9075 50 0000 C CNN
F 2 "DFTcustom:3535_LED_6" H 8875 9550 60 0001 C CNN
F 3 "" H 8875 9550 60 0001 C CNN
F 4 "-" H 0 0 50 0001 C CNN "MFR"
F 5 "-" H 0 0 50 0001 C CNN "MPN"
F 6 "-" H 0 0 50 0001 C CNN "SPR"
F 7 "-" H 0 0 50 0001 C CNN "SPN"
F 8 "-" H 0 0 50 0001 C CNN "SPURL"
	1    8850 9400
	1    0    0    -1  
$EndComp
$Comp
L LED_RGB_PLCC6 D2
U 1 1 5A6647FB
P 2450 9400
F 0 "D2" H 2450 9700 50 0000 C CNN
F 1 "LED_RGB_PLCC6" H 2450 9075 50 0000 C CNN
F 2 "DFTcustom:3535_LED_6" H 2475 9550 60 0001 C CNN
F 3 "" H 2475 9550 60 0001 C CNN
F 4 "-" H 0 0 50 0001 C CNN "MFR"
F 5 "-" H 0 0 50 0001 C CNN "MPN"
F 6 "-" H 0 0 50 0001 C CNN "SPR"
F 7 "-" H 0 0 50 0001 C CNN "SPN"
F 8 "-" H 0 0 50 0001 C CNN "SPURL"
	1    2450 9400
	1    0    0    -1  
$EndComp
$Comp
L LED_RGB_PLCC6 D10
U 1 1 5A664801
P 6350 8700
F 0 "D10" H 6350 9000 50 0000 C CNN
F 1 "LED_RGB_PLCC6" H 6350 8375 50 0000 C CNN
F 2 "DFTcustom:3535_LED_6" H 6375 8850 60 0001 C CNN
F 3 "" H 6375 8850 60 0001 C CNN
F 4 "-" H 0 0 50 0001 C CNN "MFR"
F 5 "-" H 0 0 50 0001 C CNN "MPN"
F 6 "-" H 0 0 50 0001 C CNN "SPR"
F 7 "-" H 0 0 50 0001 C CNN "SPN"
F 8 "-" H 0 0 50 0001 C CNN "SPURL"
	1    6350 8700
	1    0    0    -1  
$EndComp
$Comp
L LED_RGB_PLCC6 D18
U 1 1 5A664807
P 8850 10100
F 0 "D18" H 8850 10400 50 0000 C CNN
F 1 "LED_RGB_PLCC6" H 8850 9775 50 0000 C CNN
F 2 "DFTcustom:3535_LED_6" H 8875 10250 60 0001 C CNN
F 3 "" H 8875 10250 60 0001 C CNN
F 4 "-" H 0 0 50 0001 C CNN "MFR"
F 5 "-" H 0 0 50 0001 C CNN "MPN"
F 6 "-" H 0 0 50 0001 C CNN "SPR"
F 7 "-" H 0 0 50 0001 C CNN "SPN"
F 8 "-" H 0 0 50 0001 C CNN "SPURL"
	1    8850 10100
	1    0    0    -1  
$EndComp
$Comp
L LED_RGB_PLCC6 D3
U 1 1 5A664C82
P 2450 10100
F 0 "D3" H 2450 10400 50 0000 C CNN
F 1 "LED_RGB_PLCC6" H 2450 9775 50 0000 C CNN
F 2 "DFTcustom:3535_LED_6" H 2475 10250 60 0001 C CNN
F 3 "" H 2475 10250 60 0001 C CNN
F 4 "-" H 0 0 50 0001 C CNN "MFR"
F 5 "-" H 0 0 50 0001 C CNN "MPN"
F 6 "-" H 0 0 50 0001 C CNN "SPR"
F 7 "-" H 0 0 50 0001 C CNN "SPN"
F 8 "-" H 0 0 50 0001 C CNN "SPURL"
	1    2450 10100
	1    0    0    -1  
$EndComp
$Comp
L LED_RGB_PLCC6 D11
U 1 1 5A664C88
P 6350 9400
F 0 "D11" H 6350 9700 50 0000 C CNN
F 1 "LED_RGB_PLCC6" H 6350 9075 50 0000 C CNN
F 2 "DFTcustom:3535_LED_6" H 6375 9550 60 0001 C CNN
F 3 "" H 6375 9550 60 0001 C CNN
F 4 "-" H 0 0 50 0001 C CNN "MFR"
F 5 "-" H 0 0 50 0001 C CNN "MPN"
F 6 "-" H 0 0 50 0001 C CNN "SPR"
F 7 "-" H 0 0 50 0001 C CNN "SPN"
F 8 "-" H 0 0 50 0001 C CNN "SPURL"
	1    6350 9400
	1    0    0    -1  
$EndComp
$Comp
L LED_RGB_PLCC6 D19
U 1 1 5A664C8E
P 10100 8700
F 0 "D19" H 10100 9000 50 0000 C CNN
F 1 "LED_RGB_PLCC6" H 10100 8375 50 0000 C CNN
F 2 "DFTcustom:3535_LED_6" H 10125 8850 60 0001 C CNN
F 3 "" H 10125 8850 60 0001 C CNN
F 4 "-" H 0 0 50 0001 C CNN "MFR"
F 5 "-" H 0 0 50 0001 C CNN "MPN"
F 6 "-" H 0 0 50 0001 C CNN "SPR"
F 7 "-" H 0 0 50 0001 C CNN "SPN"
F 8 "-" H 0 0 50 0001 C CNN "SPURL"
	1    10100 8700
	1    0    0    -1  
$EndComp
$Comp
L LED_RGB_PLCC6 D4
U 1 1 5A664C94
P 3800 8700
F 0 "D4" H 3800 9000 50 0000 C CNN
F 1 "LED_RGB_PLCC6" H 3800 8375 50 0000 C CNN
F 2 "DFTcustom:3535_LED_6" H 3825 8850 60 0001 C CNN
F 3 "" H 3825 8850 60 0001 C CNN
F 4 "-" H 0 0 50 0001 C CNN "MFR"
F 5 "-" H 0 0 50 0001 C CNN "MPN"
F 6 "-" H 0 0 50 0001 C CNN "SPR"
F 7 "-" H 0 0 50 0001 C CNN "SPN"
F 8 "-" H 0 0 50 0001 C CNN "SPURL"
	1    3800 8700
	1    0    0    -1  
$EndComp
$Comp
L LED_RGB_PLCC6 D12
U 1 1 5A664C9A
P 6350 10100
F 0 "D12" H 6350 10400 50 0000 C CNN
F 1 "LED_RGB_PLCC6" H 6350 9775 50 0000 C CNN
F 2 "DFTcustom:3535_LED_6" H 6375 10250 60 0001 C CNN
F 3 "" H 6375 10250 60 0001 C CNN
F 4 "-" H 0 0 50 0001 C CNN "MFR"
F 5 "-" H 0 0 50 0001 C CNN "MPN"
F 6 "-" H 0 0 50 0001 C CNN "SPR"
F 7 "-" H 0 0 50 0001 C CNN "SPN"
F 8 "-" H 0 0 50 0001 C CNN "SPURL"
	1    6350 10100
	1    0    0    -1  
$EndComp
$Comp
L LED_RGB_PLCC6 D20
U 1 1 5A664CA0
P 10100 9400
F 0 "D20" H 10100 9700 50 0000 C CNN
F 1 "LED_RGB_PLCC6" H 10100 9075 50 0000 C CNN
F 2 "DFTcustom:3535_LED_6" H 10125 9550 60 0001 C CNN
F 3 "" H 10125 9550 60 0001 C CNN
F 4 "-" H 0 0 50 0001 C CNN "MFR"
F 5 "-" H 0 0 50 0001 C CNN "MPN"
F 6 "-" H 0 0 50 0001 C CNN "SPR"
F 7 "-" H 0 0 50 0001 C CNN "SPN"
F 8 "-" H 0 0 50 0001 C CNN "SPURL"
	1    10100 9400
	1    0    0    -1  
$EndComp
$Comp
L LED_RGB_PLCC6 D5
U 1 1 5A664E94
P 3800 9400
F 0 "D5" H 3800 9700 50 0000 C CNN
F 1 "LED_RGB_PLCC6" H 3800 9075 50 0000 C CNN
F 2 "DFTcustom:3535_LED_6" H 3825 9550 60 0001 C CNN
F 3 "" H 3825 9550 60 0001 C CNN
F 4 "-" H 0 0 50 0001 C CNN "MFR"
F 5 "-" H 0 0 50 0001 C CNN "MPN"
F 6 "-" H 0 0 50 0001 C CNN "SPR"
F 7 "-" H 0 0 50 0001 C CNN "SPN"
F 8 "-" H 0 0 50 0001 C CNN "SPURL"
	1    3800 9400
	1    0    0    -1  
$EndComp
$Comp
L LED_RGB_PLCC6 D13
U 1 1 5A664E9A
P 7600 8700
F 0 "D13" H 7600 9000 50 0000 C CNN
F 1 "LED_RGB_PLCC6" H 7600 8375 50 0000 C CNN
F 2 "DFTcustom:3535_LED_6" H 7625 8850 60 0001 C CNN
F 3 "" H 7625 8850 60 0001 C CNN
F 4 "-" H 0 0 50 0001 C CNN "MFR"
F 5 "-" H 0 0 50 0001 C CNN "MPN"
F 6 "-" H 0 0 50 0001 C CNN "SPR"
F 7 "-" H 0 0 50 0001 C CNN "SPN"
F 8 "-" H 0 0 50 0001 C CNN "SPURL"
	1    7600 8700
	1    0    0    -1  
$EndComp
$Comp
L LED_RGB_PLCC6 D21
U 1 1 5A664EA0
P 10100 10100
F 0 "D21" H 10100 10400 50 0000 C CNN
F 1 "LED_RGB_PLCC6" H 10100 9775 50 0000 C CNN
F 2 "DFTcustom:3535_LED_6" H 10125 10250 60 0001 C CNN
F 3 "" H 10125 10250 60 0001 C CNN
F 4 "-" H 0 0 50 0001 C CNN "MFR"
F 5 "-" H 0 0 50 0001 C CNN "MPN"
F 6 "-" H 0 0 50 0001 C CNN "SPR"
F 7 "-" H 0 0 50 0001 C CNN "SPN"
F 8 "-" H 0 0 50 0001 C CNN "SPURL"
	1    10100 10100
	1    0    0    -1  
$EndComp
$Comp
L LED_RGB_PLCC6 D6
U 1 1 5A664EA6
P 3800 10100
F 0 "D6" H 3800 10400 50 0000 C CNN
F 1 "LED_RGB_PLCC6" H 3800 9775 50 0000 C CNN
F 2 "DFTcustom:3535_LED_6" H 3825 10250 60 0001 C CNN
F 3 "" H 3825 10250 60 0001 C CNN
F 4 "-" H 0 0 50 0001 C CNN "MFR"
F 5 "-" H 0 0 50 0001 C CNN "MPN"
F 6 "-" H 0 0 50 0001 C CNN "SPR"
F 7 "-" H 0 0 50 0001 C CNN "SPN"
F 8 "-" H 0 0 50 0001 C CNN "SPURL"
	1    3800 10100
	1    0    0    -1  
$EndComp
$Comp
L LED_RGB_PLCC6 D14
U 1 1 5A664EAC
P 7600 9400
F 0 "D14" H 7600 9700 50 0000 C CNN
F 1 "LED_RGB_PLCC6" H 7600 9075 50 0000 C CNN
F 2 "DFTcustom:3535_LED_6" H 7625 9550 60 0001 C CNN
F 3 "" H 7625 9550 60 0001 C CNN
F 4 "-" H 0 0 50 0001 C CNN "MFR"
F 5 "-" H 0 0 50 0001 C CNN "MPN"
F 6 "-" H 0 0 50 0001 C CNN "SPR"
F 7 "-" H 0 0 50 0001 C CNN "SPN"
F 8 "-" H 0 0 50 0001 C CNN "SPURL"
	1    7600 9400
	1    0    0    -1  
$EndComp
$Comp
L LED_RGB_PLCC6 D22
U 1 1 5A664EB2
P 11350 8700
F 0 "D22" H 11350 9000 50 0000 C CNN
F 1 "LED_RGB_PLCC6" H 11350 8375 50 0000 C CNN
F 2 "DFTcustom:3535_LED_6" H 11375 8850 60 0001 C CNN
F 3 "" H 11375 8850 60 0001 C CNN
F 4 "-" H 0 0 50 0001 C CNN "MFR"
F 5 "-" H 0 0 50 0001 C CNN "MPN"
F 6 "-" H 0 0 50 0001 C CNN "SPR"
F 7 "-" H 0 0 50 0001 C CNN "SPN"
F 8 "-" H 0 0 50 0001 C CNN "SPURL"
	1    11350 8700
	1    0    0    -1  
$EndComp
$Comp
L LED_RGB_PLCC6 D7
U 1 1 5A664EB8
P 5100 8700
F 0 "D7" H 5100 9000 50 0000 C CNN
F 1 "LED_RGB_PLCC6" H 5100 8375 50 0000 C CNN
F 2 "DFTcustom:3535_LED_6" H 5125 8850 60 0001 C CNN
F 3 "" H 5125 8850 60 0001 C CNN
F 4 "-" H 0 0 50 0001 C CNN "MFR"
F 5 "-" H 0 0 50 0001 C CNN "MPN"
F 6 "-" H 0 0 50 0001 C CNN "SPR"
F 7 "-" H 0 0 50 0001 C CNN "SPN"
F 8 "-" H 0 0 50 0001 C CNN "SPURL"
	1    5100 8700
	1    0    0    -1  
$EndComp
$Comp
L LED_RGB_PLCC6 D15
U 1 1 5A664EBE
P 7600 10100
F 0 "D15" H 7600 10400 50 0000 C CNN
F 1 "LED_RGB_PLCC6" H 7600 9775 50 0000 C CNN
F 2 "DFTcustom:3535_LED_6" H 7625 10250 60 0001 C CNN
F 3 "" H 7625 10250 60 0001 C CNN
F 4 "-" H 0 0 50 0001 C CNN "MFR"
F 5 "-" H 0 0 50 0001 C CNN "MPN"
F 6 "-" H 0 0 50 0001 C CNN "SPR"
F 7 "-" H 0 0 50 0001 C CNN "SPN"
F 8 "-" H 0 0 50 0001 C CNN "SPURL"
	1    7600 10100
	1    0    0    -1  
$EndComp
$Comp
L LED_RGB_PLCC6 D23
U 1 1 5A664EC4
P 11350 9400
F 0 "D23" H 11350 9700 50 0000 C CNN
F 1 "LED_RGB_PLCC6" H 11350 9075 50 0000 C CNN
F 2 "DFTcustom:3535_LED_6" H 11375 9550 60 0001 C CNN
F 3 "" H 11375 9550 60 0001 C CNN
F 4 "-" H 0 0 50 0001 C CNN "MFR"
F 5 "-" H 0 0 50 0001 C CNN "MPN"
F 6 "-" H 0 0 50 0001 C CNN "SPR"
F 7 "-" H 0 0 50 0001 C CNN "SPN"
F 8 "-" H 0 0 50 0001 C CNN "SPURL"
	1    11350 9400
	1    0    0    -1  
$EndComp
$Comp
L LED_RGB_PLCC6 D8
U 1 1 5A664ECA
P 5100 9400
F 0 "D8" H 5100 9700 50 0000 C CNN
F 1 "LED_RGB_PLCC6" H 5100 9075 50 0000 C CNN
F 2 "DFTcustom:3535_LED_6" H 5125 9550 60 0001 C CNN
F 3 "" H 5125 9550 60 0001 C CNN
F 4 "-" H 0 0 50 0001 C CNN "MFR"
F 5 "-" H 0 0 50 0001 C CNN "MPN"
F 6 "-" H 0 0 50 0001 C CNN "SPR"
F 7 "-" H 0 0 50 0001 C CNN "SPN"
F 8 "-" H 0 0 50 0001 C CNN "SPURL"
	1    5100 9400
	1    0    0    -1  
$EndComp
$Comp
L LED_RGB_PLCC6 D16
U 1 1 5A664ED0
P 8850 8700
F 0 "D16" H 8850 9000 50 0000 C CNN
F 1 "LED_RGB_PLCC6" H 8850 8375 50 0000 C CNN
F 2 "DFTcustom:3535_LED_6" H 8875 8850 60 0001 C CNN
F 3 "" H 8875 8850 60 0001 C CNN
F 4 "-" H 0 0 50 0001 C CNN "MFR"
F 5 "-" H 0 0 50 0001 C CNN "MPN"
F 6 "-" H 0 0 50 0001 C CNN "SPR"
F 7 "-" H 0 0 50 0001 C CNN "SPN"
F 8 "-" H 0 0 50 0001 C CNN "SPURL"
	1    8850 8700
	1    0    0    -1  
$EndComp
$Comp
L LED_RGB_PLCC6 D24
U 1 1 5A664ED6
P 11350 10100
F 0 "D24" H 11350 10400 50 0000 C CNN
F 1 "LED_RGB_PLCC6" H 11350 9775 50 0000 C CNN
F 2 "DFTcustom:3535_LED_6" H 11375 10250 60 0001 C CNN
F 3 "" H 11375 10250 60 0001 C CNN
F 4 "-" H 0 0 50 0001 C CNN "MFR"
F 5 "-" H 0 0 50 0001 C CNN "MPN"
F 6 "-" H 0 0 50 0001 C CNN "SPR"
F 7 "-" H 0 0 50 0001 C CNN "SPN"
F 8 "-" H 0 0 50 0001 C CNN "SPURL"
	1    11350 10100
	1    0    0    -1  
$EndComp
$Comp
L GND #PWR028
U 1 1 5A66CFD2
P 1950 7500
F 0 "#PWR028" H 1950 7250 50 0001 C CNN
F 1 "GND" H 1950 7350 50 0000 C CNN
F 2 "" H 1950 7500 50 0000 C CNN
F 3 "" H 1950 7500 50 0000 C CNN
	1    1950 7500
	1    0    0    -1  
$EndComp
$Comp
L Jumper JP1
U 1 1 5A67784B
P 9850 4150
F 0 "JP1" H 9850 4300 50 0000 C CNN
F 1 "Jumper" H 9850 4070 50 0000 C CNN
F 2 "DFTcustom:JUMPER_2PIN" H 9850 4150 50 0001 C CNN
F 3 "" H 9850 4150 50 0001 C CNN
F 4 "DNS" H 0 0 50 0001 C CNN "MFR"
F 5 "-" H 0 0 50 0001 C CNN "MPN"
F 6 "-" H 0 0 50 0001 C CNN "SPR"
F 7 "-" H 0 0 50 0001 C CNN "SPN"
F 8 "-" H 0 0 50 0001 C CNN "SPURL"
	1    9850 4150
	0    1    1    0   
$EndComp
$Comp
L C_Small C2
U 1 1 5A674402
P 2000 7200
F 0 "C2" H 2010 7270 50 0000 L CNN
F 1 ".1uF" H 2010 7120 50 0000 L CNN
F 2 "Capacitors_SMD:C_0402" H 2000 7200 50 0001 C CNN
F 3 "" H 2000 7200 50 0001 C CNN
F 4 "Murata" H -10650 4450 50 0001 C CNN "MFR"
F 5 "GRM155R60J104KA01D" H -10650 4450 50 0001 C CNN "MPN"
F 6 "Digikey" H -10650 4450 50 0001 C CNN "SPR"
F 7 "490-13339-1-ND" H -10650 4450 50 0001 C CNN "SPN"
F 8 "" H -10650 4450 50 0001 C CNN "SPURL"
	1    2000 7200
	0    1    1    0   
$EndComp
$Comp
L R R4
U 1 1 5A01502A
P 6950 3200
F 0 "R4" V 7030 3200 50 0000 C CNN
F 1 "10k" V 6950 3200 50 0000 C CNN
F 2 "Resistors_SMD:R_0402" V 6880 3200 50 0001 C CNN
F 3 "" H 6950 3200 50 0001 C CNN
F 4 "Yageo" H 0 0 50 0001 C CNN "MFR"
F 5 "RC0402JR-0710KL" H 0 0 50 0001 C CNN "MPN"
F 6 "Digikey" H 0 0 50 0001 C CNN "SPR"
F 7 "311-10KJRCT-ND" H 0 0 50 0001 C CNN "SPN"
F 8 "" H 0 0 50 0001 C CNN "SPURL"
	1    6950 3200
	1    0    0    -1  
$EndComp
$Comp
L R R3
U 1 1 59F6155D
P 6750 3200
F 0 "R3" V 6830 3200 50 0000 C CNN
F 1 "10k" V 6750 3200 50 0000 C CNN
F 2 "Resistors_SMD:R_0402" V 6680 3200 50 0001 C CNN
F 3 "" H 6750 3200 50 0001 C CNN
F 4 "Yageo" H 0 0 50 0001 C CNN "MFR"
F 5 "RC0402JR-0710KL" H 0 0 50 0001 C CNN "MPN"
F 6 "Digikey" H 0 0 50 0001 C CNN "SPR"
F 7 "311-10KJRCT-ND" H 0 0 50 0001 C CNN "SPN"
F 8 "" H 0 0 50 0001 C CNN "SPURL"
	1    6750 3200
	1    0    0    -1  
$EndComp
$Comp
L R R1
U 1 1 5A01486E
P 6500 3200
F 0 "R1" V 6580 3200 50 0000 C CNN
F 1 "10k" V 6500 3200 50 0000 C CNN
F 2 "Resistors_SMD:R_0402" V 6430 3200 50 0001 C CNN
F 3 "" H 6500 3200 50 0001 C CNN
F 4 "Yageo" H 0 0 50 0001 C CNN "MFR"
F 5 "RC0402JR-0710KL" H 0 0 50 0001 C CNN "MPN"
F 6 "Digikey" H 0 0 50 0001 C CNN "SPR"
F 7 "311-10KJRCT-ND" H 0 0 50 0001 C CNN "SPN"
F 8 "" H 0 0 50 0001 C CNN "SPURL"
	1    6500 3200
	1    0    0    -1  
$EndComp
$Comp
L R R9
U 1 1 5A67C7D0
P 1600 7100
F 0 "R9" V 1680 7100 50 0000 C CNN
F 1 "10k" V 1600 7100 50 0000 C CNN
F 2 "Resistors_SMD:R_0402" V 1530 7100 50 0001 C CNN
F 3 "" H 1600 7100 50 0001 C CNN
F 4 "Yageo" H -4900 3900 50 0001 C CNN "MFR"
F 5 "RC0402JR-0710KL" H -4900 3900 50 0001 C CNN "MPN"
F 6 "Digikey" H -4900 3900 50 0001 C CNN "SPR"
F 7 "311-10KJRCT-ND" H -4900 3900 50 0001 C CNN "SPN"
F 8 "" H -4900 3900 50 0001 C CNN "SPURL"
	1    1600 7100
	0    1    1    0   
$EndComp
$Comp
L R R8
U 1 1 5A67CE1A
P 1250 7100
F 0 "R8" V 1330 7100 50 0000 C CNN
F 1 "10k" V 1250 7100 50 0000 C CNN
F 2 "Resistors_SMD:R_0402" V 1180 7100 50 0001 C CNN
F 3 "" H 1250 7100 50 0001 C CNN
F 4 "Yageo" H -5250 3900 50 0001 C CNN "MFR"
F 5 "RC0402JR-0710KL" H -5250 3900 50 0001 C CNN "MPN"
F 6 "Digikey" H -5250 3900 50 0001 C CNN "SPR"
F 7 "311-10KJRCT-ND" H -5250 3900 50 0001 C CNN "SPN"
F 8 "" H -5250 3900 50 0001 C CNN "SPURL"
	1    1250 7100
	0    1    1    0   
$EndComp
$Comp
L GND #PWR029
U 1 1 5A67D0BC
P 1100 7100
F 0 "#PWR029" H 1100 6850 50 0001 C CNN
F 1 "GND" H 1100 6950 50 0000 C CNN
F 2 "" H 1100 7100 50 0000 C CNN
F 3 "" H 1100 7100 50 0000 C CNN
	1    1100 7100
	0    1    1    0   
$EndComp
$Comp
L R R6
U 1 1 5A67EF3B
P 6250 3200
F 0 "R6" V 6330 3200 50 0000 C CNN
F 1 "10k" V 6250 3200 50 0000 C CNN
F 2 "Resistors_SMD:R_0402" V 6180 3200 50 0001 C CNN
F 3 "" H 6250 3200 50 0001 C CNN
F 4 "Yageo" H -500 0 50 0001 C CNN "MFR"
F 5 "RC0402JR-0710KL" H -500 0 50 0001 C CNN "MPN"
F 6 "Digikey" H -500 0 50 0001 C CNN "SPR"
F 7 "311-10KJRCT-ND" H -500 0 50 0001 C CNN "SPN"
F 8 "" H -500 0 50 0001 C CNN "SPURL"
	1    6250 3200
	1    0    0    -1  
$EndComp
$Comp
L R R5
U 1 1 5A67EF46
P 6000 3200
F 0 "R5" V 6080 3200 50 0000 C CNN
F 1 "100k" V 6000 3200 50 0000 C CNN
F 2 "Resistors_SMD:R_0402" V 5930 3200 50 0001 C CNN
F 3 "" H 6000 3200 50 0001 C CNN
F 4 "Yageo" H -500 0 50 0001 C CNN "MFR"
F 5 "RC0402JR-0710KL" H -500 0 50 0001 C CNN "MPN"
F 6 "Digikey" H -500 0 50 0001 C CNN "SPR"
F 7 "311-10KJRCT-ND" H -500 0 50 0001 C CNN "SPN"
F 8 "" H -500 0 50 0001 C CNN "SPURL"
	1    6000 3200
	1    0    0    -1  
$EndComp
$Comp
L +3.3V #PWR030
U 1 1 5A682F46
P 1100 2400
F 0 "#PWR030" H 1100 2250 50 0001 C CNN
F 1 "+3.3V" H 1100 2540 50 0000 C CNN
F 2 "" H 1100 2400 50 0001 C CNN
F 3 "" H 1100 2400 50 0001 C CNN
	1    1100 2400
	1    0    0    -1  
$EndComp
$Comp
L +3.3V #PWR031
U 1 1 5A682FF0
P 6000 3350
F 0 "#PWR031" H 6000 3200 50 0001 C CNN
F 1 "+3.3V" H 6000 3490 50 0000 C CNN
F 2 "" H 6000 3350 50 0001 C CNN
F 3 "" H 6000 3350 50 0001 C CNN
	1    6000 3350
	-1   0    0    1   
$EndComp
$Comp
L +3.3V #PWR032
U 1 1 5A68332C
P 6250 3350
F 0 "#PWR032" H 6250 3200 50 0001 C CNN
F 1 "+3.3V" H 6250 3490 50 0000 C CNN
F 2 "" H 6250 3350 50 0001 C CNN
F 3 "" H 6250 3350 50 0001 C CNN
	1    6250 3350
	-1   0    0    1   
$EndComp
$Comp
L +3.3V #PWR033
U 1 1 5A6833D6
P 6500 3350
F 0 "#PWR033" H 6500 3200 50 0001 C CNN
F 1 "+3.3V" H 6500 3490 50 0000 C CNN
F 2 "" H 6500 3350 50 0001 C CNN
F 3 "" H 6500 3350 50 0001 C CNN
	1    6500 3350
	-1   0    0    1   
$EndComp
$Comp
L +3.3V #PWR034
U 1 1 5A683480
P 6750 3350
F 0 "#PWR034" H 6750 3200 50 0001 C CNN
F 1 "+3.3V" H 6750 3490 50 0000 C CNN
F 2 "" H 6750 3350 50 0001 C CNN
F 3 "" H 6750 3350 50 0001 C CNN
	1    6750 3350
	-1   0    0    1   
$EndComp
$Comp
L +3.3V #PWR035
U 1 1 5A68352A
P 6950 3350
F 0 "#PWR035" H 6950 3200 50 0001 C CNN
F 1 "+3.3V" H 6950 3490 50 0000 C CNN
F 2 "" H 6950 3350 50 0001 C CNN
F 3 "" H 6950 3350 50 0001 C CNN
	1    6950 3350
	-1   0    0    1   
$EndComp
$Comp
L C C3
U 1 1 5A6865AB
P 1950 6800
F 0 "C3" H 1975 6900 50 0000 L CNN
F 1 ".22uF" H 1975 6700 50 0000 L CNN
F 2 "Capacitors_SMD:C_0402" H 1988 6650 50 0001 C CNN
F 3 "DNS" H 1950 6800 50 0001 C CNN
F 4 "-" H 0 0 50 0001 C CNN "MFR"
F 5 "-" H 0 0 50 0001 C CNN "MPN"
F 6 "-" H 0 0 50 0001 C CNN "SPR"
F 7 "-" H 0 0 50 0001 C CNN "SPN"
F 8 "-" H 0 0 50 0001 C CNN "SPURL"
	1    1950 6800
	0    1    1    0   
$EndComp
$Comp
L R R2
U 1 1 5A687B89
P 6400 5200
F 0 "R2" V 6480 5200 50 0000 C CNN
F 1 "10k" V 6400 5200 50 0000 C CNN
F 2 "Resistors_SMD:R_0402" V 6330 5200 50 0001 C CNN
F 3 "" H 6400 5200 50 0001 C CNN
F 4 "Yageo" H -100 2000 50 0001 C CNN "MFR"
F 5 "RC0402JR-0710KL" H -100 2000 50 0001 C CNN "MPN"
F 6 "Digikey" H -100 2000 50 0001 C CNN "SPR"
F 7 "311-10KJRCT-ND" H -100 2000 50 0001 C CNN "SPN"
F 8 "" H -100 2000 50 0001 C CNN "SPURL"
	1    6400 5200
	1    0    0    -1  
$EndComp
$Comp
L PWR_FLAG #FLG036
U 1 1 5A6896DE
P 8050 900
F 0 "#FLG036" H 8050 975 50 0001 C CNN
F 1 "PWR_FLAG" H 8050 1050 50 0000 C CNN
F 2 "" H 8050 900 50 0001 C CNN
F 3 "" H 8050 900 50 0001 C CNN
	1    8050 900 
	1    0    0    -1  
$EndComp
$Comp
L GND #PWR037
U 1 1 5A689C1A
P 1850 5900
F 0 "#PWR037" H 1850 5650 50 0001 C CNN
F 1 "GND" H 1850 5750 50 0000 C CNN
F 2 "" H 1850 5900 50 0000 C CNN
F 3 "" H 1850 5900 50 0000 C CNN
	1    1850 5900
	1    0    0    -1  
$EndComp
$Comp
L PWR_FLAG #FLG038
U 1 1 5A68AF85
P 9950 4500
F 0 "#FLG038" H 9950 4575 50 0001 C CNN
F 1 "PWR_FLAG" H 9950 4650 50 0000 C CNN
F 2 "" H 9950 4500 50 0001 C CNN
F 3 "" H 9950 4500 50 0001 C CNN
	1    9950 4500
	0    1    1    0   
$EndComp
$Comp
L PWR_FLAG #FLG039
U 1 1 5A68BD47
P 8050 2950
F 0 "#FLG039" H 8050 3025 50 0001 C CNN
F 1 "PWR_FLAG" H 8050 3100 50 0000 C CNN
F 2 "" H 8050 2950 50 0001 C CNN
F 3 "" H 8050 2950 50 0001 C CNN
	1    8050 2950
	1    0    0    -1  
$EndComp
$Comp
L +3.3V #PWR040
U 1 1 5A68CC3C
P 5600 3500
F 0 "#PWR040" H 5600 3350 50 0001 C CNN
F 1 "+3.3V" H 5600 3640 50 0000 C CNN
F 2 "" H 5600 3500 50 0001 C CNN
F 3 "" H 5600 3500 50 0001 C CNN
	1    5600 3500
	1    0    0    -1  
$EndComp
$Comp
L SPU0410HR5H-1 U1
U 1 1 5A667E21
P 1050 6700
F 0 "U1" H 1050 6950 60 0000 C CNN
F 1 "SPU0410HR5H-1" H 1050 6450 60 0000 C CNN
F 2 "DFTcustom:SPU0410HR5H-1" H 1050 6700 60 0001 C CNN
F 3 "" H 1050 6700 60 0001 C CNN
F 4 "-" H 0 0 50 0001 C CNN "MFR"
F 5 "-" H 0 0 50 0001 C CNN "MPN"
F 6 "-" H 0 0 50 0001 C CNN "SPR"
F 7 "-" H 0 0 50 0001 C CNN "SPN"
F 8 "-" H 0 0 50 0001 C CNN "SPURL"
	1    1050 6700
	-1   0    0    1   
$EndComp
$Comp
L +3.3V #PWR041
U 1 1 5A668336
P 1550 6850
F 0 "#PWR041" H 1550 6700 50 0001 C CNN
F 1 "+3.3V" H 1550 6990 50 0000 C CNN
F 2 "" H 1550 6850 50 0001 C CNN
F 3 "" H 1550 6850 50 0001 C CNN
	1    1550 6850
	-1   0    0    1   
$EndComp
$Comp
L GND #PWR042
U 1 1 5A668487
P 500 6800
F 0 "#PWR042" H 500 6550 50 0001 C CNN
F 1 "GND" H 500 6650 50 0000 C CNN
F 2 "" H 500 6800 50 0000 C CNN
F 3 "" H 500 6800 50 0000 C CNN
	1    500  6800
	1    0    0    -1  
$EndComp
$Comp
L C_Small C5
U 1 1 5A6A58E7
P 1850 5800
F 0 "C5" H 1860 5870 50 0000 L CNN
F 1 "10uF" H 1860 5720 50 0000 L CNN
F 2 "Capacitors_SMD:C_0402" H 1850 5800 50 0001 C CNN
F 3 "" H 1850 5800 50 0001 C CNN
F 4 "Murata" H -6350 3850 50 0001 C CNN "MFR"
F 5 "GRM155R60G106ME44D" H -6350 3850 50 0001 C CNN "MPN"
F 6 "Digikey" H -6350 3850 50 0001 C CNN "SPR"
F 7 " 490-10693-1-ND" H -6350 3850 50 0001 C CNN "SPN"
F 8 "" H -6350 3850 50 0001 C CNN "SPURL"
	1    1850 5800
	1    0    0    -1  
$EndComp
$Comp
L C_Small C4
U 1 1 5A6A63D5
P 7800 3200
F 0 "C4" H 7810 3270 50 0000 L CNN
F 1 "10uF" H 7810 3120 50 0000 L CNN
F 2 "Capacitors_SMD:C_0402" H 7800 3200 50 0001 C CNN
F 3 "" H 7800 3200 50 0001 C CNN
F 4 "Murata" H -400 1250 50 0001 C CNN "MFR"
F 5 "GRM155R60G106ME44D" H -400 1250 50 0001 C CNN "MPN"
F 6 "Digikey" H -400 1250 50 0001 C CNN "SPR"
F 7 " 490-10693-1-ND" H -400 1250 50 0001 C CNN "SPN"
F 8 "" H -400 1250 50 0001 C CNN "SPURL"
	1    7800 3200
	1    0    0    -1  
$EndComp
$Comp
L SC189 U5
U 1 1 5A6A74B7
P 9350 1200
F 0 "U5" H 9350 1100 50 0000 C CNN
F 1 "SC189" H 9050 850 50 0000 C CNN
F 2 "DFTcustom:SOT-23-5" H 9050 1550 50 0001 C CNN
F 3 "DOCUMENTATION" H 9400 1200 50 0001 C CNN
F 4 "-" H 0 0 50 0001 C CNN "MFR"
F 5 "-" H 0 0 50 0001 C CNN "MPN"
F 6 "-" H 0 0 50 0001 C CNN "SPR"
F 7 "-" H 0 0 50 0001 C CNN "SPN"
F 8 "-" H 0 0 50 0001 C CNN "SPURL"
	1    9350 1200
	1    0    0    -1  
$EndComp
$Comp
L GND #PWR043
U 1 1 5A9CAA6F
P 2800 7700
F 0 "#PWR043" H 2800 7450 50 0001 C CNN
F 1 "GND" H 2800 7550 50 0000 C CNN
F 2 "" H 2800 7700 50 0000 C CNN
F 3 "" H 2800 7700 50 0000 C CNN
	1    2800 7700
	1    0    0    -1  
$EndComp
Text GLabel 4800 3700 0    60   Input ~ 0
SPI_MISO
Text GLabel 4800 3800 0    60   Output ~ 0
SPI_CLK
Text GLabel 4800 3900 0    60   Output ~ 0
RST_328
Text GLabel 5800 3800 2    60   Output ~ 0
SPI_MOSI
Text GLabel 3200 2950 2    60   Output ~ 0
SPI_MISO
Text GLabel 3200 2850 2    60   Input ~ 0
SPI_MOSI
Text GLabel 3200 3050 2    60   BiDi ~ 0
SPI_CLK
Text GLabel 3200 4000 2    60   Input ~ 0
RST_328
Text GLabel 7750 5250 2    60   Output ~ 0
BC_S1
Text GLabel 7750 5350 2    60   Output ~ 0
BC_S2
Text GLabel 3200 3400 2    60   Input ~ 0
BC_S1
Text GLabel 3200 3500 2    60   Input ~ 0
BC_S2
Text Notes 5850 4550 0    60   ~ 0
IREG(mA) = 1000V / R(kohms)\n(if 1C charging, IREG = capacity in mAH)\n150 = 1000V / 6.667kOhms\n100 = 1000V / 10kOhms
Text GLabel 7750 5550 2    60   Output ~ 0
BC_PG
Text GLabel 3200 3600 2    60   Input ~ 0
BC_PG
Text GLabel 3200 3900 2    60   BiDi ~ 0
I2C_SCL
Text GLabel 3200 3800 2    60   BiDi ~ 0
I2C_SDA
Text GLabel 3200 4350 2    60   Input ~ 0
ACC_INT1
Text GLabel 2100 6300 0    60   BiDi ~ 0
I2C_SCL
Text GLabel 2100 6200 0    60   BiDi ~ 0
I2C_SDA
Text GLabel 6500 3050 1    60   Input ~ 0
RST_328
Text GLabel 6950 3050 1    60   BiDi ~ 0
I2C_SCL
Text GLabel 6750 3050 1    60   BiDi ~ 0
I2C_SDA
Text GLabel 3200 4250 2    60   BiDi ~ 0
LIS_CS
Text Notes 3400 3200 0    60   ~ 0
USING INTERNAL OSC
Text Notes 4100 3000 0    60   ~ 0
PB3 is the only \nPWM-while-asleep \npin which is not \nalso an interrupt pin
Text Notes 3850 2250 0    60   ~ 0
0011110b = 0x3C
Text GLabel 7800 2900 1    60   Input ~ 0
IR_PWR
Text GLabel 3200 2650 2    60   Output ~ 0
IR_PWR
Text GLabel 9050 3050 2    60   Output ~ 0
IR_RCV
Text GLabel 3200 2550 2    60   Input ~ 0
IR_RCV
Text Notes 1650 2350 0    60   ~ 0
Consider a cheaper/smaller part
Text GLabel 5100 1750 2    60   Output ~ 0
ACC_INT1
Text GLabel 5100 1450 2    60   BiDi ~ 0
I2C_SCL
Text GLabel 5100 1150 2    60   BiDi ~ 0
I2C_SDA
Text GLabel 5100 1250 2    60   BiDi ~ 0
LIS_CS
Text GLabel 3300 5650 2    60   BiDi ~ 0
CA1
Text GLabel 3300 5750 2    60   BiDi ~ 0
CA2
Text GLabel 3300 5850 2    60   BiDi ~ 0
CA3
Text GLabel 3300 5950 2    60   BiDi ~ 0
CA4
Text GLabel 3300 6050 2    60   BiDi ~ 0
CA5
Text GLabel 3300 6150 2    60   BiDi ~ 0
CA6
Text GLabel 3300 6250 2    60   BiDi ~ 0
CA7
Text GLabel 3300 6350 2    60   BiDi ~ 0
CA8
Text GLabel 3300 6450 2    60   BiDi ~ 0
CA9
Text GLabel 2150 10250 0    60   BiDi ~ 0
CA9
Text GLabel 2150 10100 0    60   BiDi ~ 0
CA8
Text GLabel 2150 9950 0    60   BiDi ~ 0
CA7
Text GLabel 2150 9550 0    60   BiDi ~ 0
CA6
Text GLabel 2150 9400 0    60   BiDi ~ 0
CA5
Text GLabel 2150 9250 0    60   BiDi ~ 0
CA4
Text GLabel 2150 8850 0    60   BiDi ~ 0
CA3
Text GLabel 2150 8700 0    60   BiDi ~ 0
CA2
Text GLabel 2150 8550 0    60   BiDi ~ 0
CA1
Text GLabel 3500 10250 0    60   BiDi ~ 0
CA9
Text GLabel 3500 10100 0    60   BiDi ~ 0
CA8
Text GLabel 3500 9950 0    60   BiDi ~ 0
CA7
Text GLabel 3500 9550 0    60   BiDi ~ 0
CA6
Text GLabel 3500 9400 0    60   BiDi ~ 0
CA5
Text GLabel 3500 9250 0    60   BiDi ~ 0
CA4
Text GLabel 3500 8850 0    60   BiDi ~ 0
CA3
Text GLabel 3500 8700 0    60   BiDi ~ 0
CA2
Text GLabel 3500 8550 0    60   BiDi ~ 0
CA1
Text GLabel 4800 10250 0    60   BiDi ~ 0
CA9
Text GLabel 4800 10100 0    60   BiDi ~ 0
CA8
Text GLabel 4800 9950 0    60   BiDi ~ 0
CA7
Text GLabel 4800 9550 0    60   BiDi ~ 0
CA6
Text GLabel 4800 9400 0    60   BiDi ~ 0
CA5
Text GLabel 4800 9250 0    60   BiDi ~ 0
CA4
Text GLabel 4800 8850 0    60   BiDi ~ 0
CA3
Text GLabel 4800 8700 0    60   BiDi ~ 0
CA2
Text GLabel 4800 8550 0    60   BiDi ~ 0
CA1
Text GLabel 6050 10250 0    60   BiDi ~ 0
CA9
Text GLabel 6050 10100 0    60   BiDi ~ 0
CA8
Text GLabel 6050 9950 0    60   BiDi ~ 0
CA7
Text GLabel 6050 9550 0    60   BiDi ~ 0
CA6
Text GLabel 6050 9400 0    60   BiDi ~ 0
CA5
Text GLabel 6050 9250 0    60   BiDi ~ 0
CA4
Text GLabel 6050 8850 0    60   BiDi ~ 0
CA3
Text GLabel 6050 8700 0    60   BiDi ~ 0
CA2
Text GLabel 6050 8550 0    60   BiDi ~ 0
CA1
Text GLabel 7300 10250 0    60   BiDi ~ 0
CA9
Text GLabel 7300 10100 0    60   BiDi ~ 0
CA8
Text GLabel 7300 9950 0    60   BiDi ~ 0
CA7
Text GLabel 7300 9550 0    60   BiDi ~ 0
CA6
Text GLabel 7300 9400 0    60   BiDi ~ 0
CA5
Text GLabel 7300 9250 0    60   BiDi ~ 0
CA4
Text GLabel 7300 8850 0    60   BiDi ~ 0
CA3
Text GLabel 7300 8700 0    60   BiDi ~ 0
CA2
Text GLabel 7300 8550 0    60   BiDi ~ 0
CA1
Text GLabel 8550 10250 0    60   BiDi ~ 0
CA9
Text GLabel 8550 10100 0    60   BiDi ~ 0
CA8
Text GLabel 8550 9950 0    60   BiDi ~ 0
CA7
Text GLabel 8550 9550 0    60   BiDi ~ 0
CA6
Text GLabel 8550 9400 0    60   BiDi ~ 0
CA5
Text GLabel 8550 9250 0    60   BiDi ~ 0
CA4
Text GLabel 8550 8850 0    60   BiDi ~ 0
CA3
Text GLabel 8550 8700 0    60   BiDi ~ 0
CA2
Text GLabel 8550 8550 0    60   BiDi ~ 0
CA1
Text GLabel 9800 10250 0    60   BiDi ~ 0
CA9
Text GLabel 9800 10100 0    60   BiDi ~ 0
CA8
Text GLabel 9800 9950 0    60   BiDi ~ 0
CA7
Text GLabel 9800 9550 0    60   BiDi ~ 0
CA6
Text GLabel 9800 9400 0    60   BiDi ~ 0
CA5
Text GLabel 9800 9250 0    60   BiDi ~ 0
CA4
Text GLabel 9800 8850 0    60   BiDi ~ 0
CA3
Text GLabel 9800 8700 0    60   BiDi ~ 0
CA2
Text GLabel 9800 8550 0    60   BiDi ~ 0
CA1
Text GLabel 11050 10250 0    60   BiDi ~ 0
CA9
Text GLabel 11050 10100 0    60   BiDi ~ 0
CA8
Text GLabel 11050 9950 0    60   BiDi ~ 0
CA7
Text GLabel 11050 9550 0    60   BiDi ~ 0
CA6
Text GLabel 11050 9400 0    60   BiDi ~ 0
CA5
Text GLabel 11050 9250 0    60   BiDi ~ 0
CA4
Text GLabel 11050 8850 0    60   BiDi ~ 0
CA3
Text GLabel 11050 8700 0    60   BiDi ~ 0
CA2
Text GLabel 11050 8550 0    60   BiDi ~ 0
CA1
Text GLabel 2800 8550 2    60   BiDi ~ 0
CA2
Text GLabel 4150 8550 2    60   BiDi ~ 0
CA3
Text GLabel 5450 8550 2    60   BiDi ~ 0
CA4
Text GLabel 6700 8550 2    60   BiDi ~ 0
CA5
Text GLabel 7950 8550 2    60   BiDi ~ 0
CA6
Text GLabel 9200 8550 2    60   BiDi ~ 0
CA7
Text GLabel 10450 8550 2    60   BiDi ~ 0
CA8
Text GLabel 11700 8550 2    60   BiDi ~ 0
CA9
Text GLabel 2800 8700 2    60   BiDi ~ 0
CA1
Text GLabel 2800 8850 2    60   BiDi ~ 0
CA1
Text GLabel 2800 9250 2    60   BiDi ~ 0
CA1
Text GLabel 2800 9400 2    60   BiDi ~ 0
CA1
Text GLabel 2800 9550 2    60   BiDi ~ 0
CA1
Text GLabel 2800 9950 2    60   BiDi ~ 0
CA1
Text GLabel 2800 10100 2    60   BiDi ~ 0
CA1
Text GLabel 2800 10250 2    60   BiDi ~ 0
CA1
Text GLabel 4150 8700 2    60   BiDi ~ 0
CA3
Text GLabel 4150 8850 2    60   BiDi ~ 0
CA2
Text GLabel 4150 9250 2    60   BiDi ~ 0
CA2
Text GLabel 4150 9400 2    60   BiDi ~ 0
CA2
Text GLabel 4150 9550 2    60   BiDi ~ 0
CA2
Text GLabel 4150 9950 2    60   BiDi ~ 0
CA2
Text GLabel 4150 10100 2    60   BiDi ~ 0
CA2
Text GLabel 4150 10250 2    60   BiDi ~ 0
CA2
Text GLabel 5450 8700 2    60   BiDi ~ 0
CA4
Text GLabel 5450 8850 2    60   BiDi ~ 0
CA4
Text GLabel 5450 9250 2    60   BiDi ~ 0
CA3
Text GLabel 5450 9400 2    60   BiDi ~ 0
CA3
Text GLabel 5450 9550 2    60   BiDi ~ 0
CA3
Text GLabel 5450 9950 2    60   BiDi ~ 0
CA3
Text GLabel 5450 10100 2    60   BiDi ~ 0
CA3
Text GLabel 5450 10250 2    60   BiDi ~ 0
CA3
Text GLabel 6700 8700 2    60   BiDi ~ 0
CA5
Text GLabel 6700 8850 2    60   BiDi ~ 0
CA5
Text GLabel 6700 9250 2    60   BiDi ~ 0
CA5
Text GLabel 6700 9400 2    60   BiDi ~ 0
CA4
Text GLabel 6700 9550 2    60   BiDi ~ 0
CA4
Text GLabel 6700 9950 2    60   BiDi ~ 0
CA4
Text GLabel 6700 10100 2    60   BiDi ~ 0
CA4
Text GLabel 6700 10250 2    60   BiDi ~ 0
CA4
Text GLabel 7950 8700 2    60   BiDi ~ 0
CA6
Text GLabel 7950 8850 2    60   BiDi ~ 0
CA6
Text GLabel 7950 9250 2    60   BiDi ~ 0
CA6
Text GLabel 7950 9400 2    60   BiDi ~ 0
CA6
Text GLabel 7950 9550 2    60   BiDi ~ 0
CA5
Text GLabel 7950 9950 2    60   BiDi ~ 0
CA5
Text GLabel 7950 10100 2    60   BiDi ~ 0
CA5
Text GLabel 7950 10250 2    60   BiDi ~ 0
CA5
Text GLabel 9200 8700 2    60   BiDi ~ 0
CA7
Text GLabel 9200 8850 2    60   BiDi ~ 0
CA7
Text GLabel 9200 9250 2    60   BiDi ~ 0
CA7
Text GLabel 9200 9400 2    60   BiDi ~ 0
CA7
Text GLabel 9200 9550 2    60   BiDi ~ 0
CA7
Text GLabel 9200 9950 2    60   BiDi ~ 0
CA6
Text GLabel 9200 10100 2    60   BiDi ~ 0
CA6
Text GLabel 9200 10250 2    60   BiDi ~ 0
CA6
Text GLabel 10450 8700 2    60   BiDi ~ 0
CA8
Text GLabel 10450 8850 2    60   BiDi ~ 0
CA8
Text GLabel 10450 9250 2    60   BiDi ~ 0
CA8
Text GLabel 10450 9400 2    60   BiDi ~ 0
CA8
Text GLabel 10450 9550 2    60   BiDi ~ 0
CA8
Text GLabel 10450 9950 2    60   BiDi ~ 0
CA8
Text GLabel 10450 10100 2    60   BiDi ~ 0
CA7
Text GLabel 10450 10250 2    60   BiDi ~ 0
CA7
Text GLabel 11700 8700 2    60   BiDi ~ 0
CA9
Text GLabel 11700 8850 2    60   BiDi ~ 0
CA9
Text GLabel 11700 9250 2    60   BiDi ~ 0
CA9
Text GLabel 11700 9400 2    60   BiDi ~ 0
CA9
Text GLabel 11700 9550 2    60   BiDi ~ 0
CA9
Text GLabel 11700 9950 2    60   BiDi ~ 0
CA9
Text GLabel 11700 10100 2    60   BiDi ~ 0
CA9
Text GLabel 11700 10250 2    60   BiDi ~ 0
CA1
Text Notes 8300 2750 0    60   ~ 0
Possible DNS
Text GLabel 2100 6400 0    60   Output ~ 0
INTB
Text GLabel 3200 4450 2    60   Input ~ 0
INTB
Text GLabel 2100 6500 0    60   Input ~ 0
SDB
Text GLabel 3200 4650 2    60   Input ~ 0
SDB
Text GLabel 6250 3050 1    60   Input ~ 0
INTB
Text GLabel 6000 3050 1    60   Input ~ 0
SDB
Wire Wire Line
	4800 3700 5150 3700
Wire Wire Line
	5600 3500 5600 3700
Wire Wire Line
	5600 3700 5400 3700
Wire Wire Line
	4800 3800 5150 3800
Wire Wire Line
	4800 3900 5150 3900
Wire Wire Line
	5400 3900 5650 3900
Wire Wire Line
	5650 3900 5650 4050
Wire Wire Line
	5400 3800 5800 3800
Wire Wire Line
	1100 2400 1100 3300
Wire Wire Line
	1100 2550 1300 2550
Wire Wire Line
	1300 4750 1100 4750
Wire Wire Line
	1100 4550 1100 4950
Wire Wire Line
	1300 4850 1100 4850
Wire Wire Line
	1100 2850 1300 2850
Wire Wire Line
	1100 3150 1300 3150
Wire Wire Line
	6400 4950 6400 5050
Wire Wire Line
	7750 4950 8500 4950
Wire Wire Line
	7750 4850 7850 4850
Wire Wire Line
	7850 4850 7850 4700
Wire Wire Line
	7750 5750 7900 5750
Wire Wire Line
	7900 5750 7900 6000
Wire Wire Line
	7750 5850 7900 5850
Wire Wire Line
	7950 4750 7850 4750
Wire Wire Line
	8050 1000 8600 1000
Wire Wire Line
	8050 900  8050 1050
Wire Wire Line
	8050 1250 8050 1300
Wire Wire Line
	10100 1000 10650 1000
Wire Wire Line
	11150 1200 11150 1350
Wire Wire Line
	11150 950  11150 1000
Wire Wire Line
	11150 950  10850 950 
Wire Wire Line
	10850 950  10850 900 
Wire Wire Line
	10850 900  10650 900 
Wire Wire Line
	10650 1000 10650 850 
Wire Wire Line
	10600 1550 10850 1550
Wire Wire Line
	10850 1550 10850 1450
Wire Wire Line
	2800 1400 2800 1450
Wire Wire Line
	2950 1400 2950 1350
Wire Wire Line
	2700 1400 2950 1400
Wire Wire Line
	2700 1350 2700 1400
Wire Wire Line
	1300 2650 1100 2650
Wire Wire Line
	1300 4650 1100 4650
Wire Wire Line
	1300 4550 1100 4550
Wire Wire Line
	6550 5750 6400 5750
Wire Wire Line
	6400 5750 6400 5800
Wire Wire Line
	6400 4950 6550 4950
Wire Wire Line
	8400 850  8400 1200
Wire Wire Line
	8100 3250 8000 3250
Wire Wire Line
	8000 3250 8000 3450
Wire Wire Line
	8100 3350 8000 3350
Wire Wire Line
	8100 3050 7800 3050
Wire Wire Line
	7800 2900 7800 3100
Wire Wire Line
	1850 5600 1850 5700
Wire Wire Line
	2700 1150 3400 1150
Wire Wire Line
	3250 1050 3250 1250
Wire Wire Line
	3250 1250 3400 1250
Wire Wire Line
	3400 1450 3250 1450
Wire Wire Line
	3250 1450 3250 2000
Wire Wire Line
	3400 1550 3250 1550
Wire Wire Line
	3400 1650 3250 1650
Wire Wire Line
	3400 1850 3250 1850
Wire Wire Line
	1700 5600 2100 5600
Wire Wire Line
	1750 7400 2100 7400
Wire Wire Line
	1950 7300 1950 7500
Wire Wire Line
	2100 7300 1950 7300
Wire Wire Line
	8400 1200 8600 1200
Wire Wire Line
	1900 7200 1750 7200
Wire Wire Line
	1400 7100 1450 7100
Wire Wire Line
	1750 7100 2100 7100
Wire Wire Line
	1750 7200 1750 7400
Wire Wire Line
	9850 3750 9850 3850
Wire Wire Line
	9850 4450 9850 4550
Wire Wire Line
	9950 4500 9850 4500
Wire Wire Line
	8050 2950 8050 3050
Wire Wire Line
	1500 6650 1650 6650
Wire Wire Line
	1650 6650 1650 6800
Wire Wire Line
	1650 6800 1800 6800
Wire Wire Line
	1500 6750 1550 6750
Wire Wire Line
	1550 6750 1550 6850
Wire Wire Line
	600  6650 500  6650
Wire Wire Line
	500  6650 500  6800
Wire Wire Line
	600  6750 500  6750
Wire Wire Line
	8600 1400 8500 1400
Wire Wire Line
	8500 1400 8500 1450
Wire Wire Line
	10100 1400 10600 1400
Wire Wire Line
	10600 1400 10600 1550
Connection ~ 1100 4850
Connection ~ 1100 2550
Connection ~ 1100 2850
Connection ~ 7900 5850
Connection ~ 8300 4950
Connection ~ 7850 4750
Connection ~ 8400 1000
Connection ~ 10650 900 
Connection ~ 10850 950 
Connection ~ 1100 3150
Connection ~ 2800 1400
Connection ~ 2950 1150
Connection ~ 1100 2650
Connection ~ 1100 4750
Connection ~ 1100 4650
Connection ~ 8000 3350
Connection ~ 7800 3050
Connection ~ 3250 1150
Connection ~ 3250 1550
Connection ~ 3250 1650
Connection ~ 3250 1850
Connection ~ 1850 5600
Connection ~ 1950 7400
Connection ~ 8050 1000
Connection ~ 9850 4500
Connection ~ 8050 3050
Connection ~ 500  6750
NoConn ~ 5450 7300
NoConn ~ 5350 7300
NoConn ~ 5250 7300
NoConn ~ 3200 2750
NoConn ~ 3200 3150
NoConn ~ 1300 3900
NoConn ~ 1300 4000
NoConn ~ 3200 3700
NoConn ~ 3200 4150
NoConn ~ 3200 4850
NoConn ~ 5100 1850
NoConn ~ 3300 6600
NoConn ~ 3300 6700
NoConn ~ 3300 6800
NoConn ~ 3300 6900
NoConn ~ 3300 7000
NoConn ~ 3300 7100
NoConn ~ 3300 7200
NoConn ~ 3300 7300
NoConn ~ 3300 7400
NoConn ~ 3200 4550
NoConn ~ 3200 4750
NoConn ~ 3200 3250
$EndSCHEMATC