PCBNEW-LibModule-V1  
# encoding utf-8
Units mm
$INDEX
QFN50P400X400X80-25N
$EndINDEX
$MODULE QFN50P400X400X80-25N
Po 0 0 0 15 00000000 00000000 ~~
Li QFN50P400X400X80-25N
Cd 
Sc 00000000
At SMD
Op 0 0 0
.SolderMask 0
.SolderPaste 0
T0 0.711386 -6.123 1.64043 1.64043 0 0.05 N V 21 "QFN50P400X400X80-25N"
T1 1.75422 5.44064 1.64152 1.64152 0 0.05 N V 21 "VAL**"
DS 0.889 -2.6924 0.889 -3.7084 0.1524 21
DS 0.127 3.7084 0.127 2.6924 0.1524 21
DS 2.0828 -1.7272 2.0828 -2.0828 0.1524 21
DS 1.7272 2.0828 2.0828 2.0828 0.1524 21
DS -1.7272 -2.0828 -2.0828 -2.0828 0.1524 21
DS -2.0828 2.0828 -1.7272 2.0828 0.1524 21
DS 2.0828 2.0828 2.0828 1.7272 0.1524 21
DS 2.0828 -2.0828 1.7272 -2.0828 0.1524 21
DS -2.0828 -2.0828 -2.0828 -1.7272 0.1524 21
DS -2.0828 1.7272 -2.0828 2.0828 0.1524 21
DS -2.0828 -0.8128 -0.8128 -2.0828 0 24
DS 1.397 -2.0828 1.0922 -2.0828 0 24
DS 0.889 -2.0828 0.6096 -2.0828 0 24
DS 0.4064 -2.0828 0.1016 -2.0828 0 24
DS -0.1016 -2.0828 -0.4064 -2.0828 0 24
DS -0.6096 -2.0828 -0.889 -2.0828 0 24
DS -1.0922 -2.0828 -1.397 -2.0828 0 24
DS -2.0828 -1.397 -2.0828 -1.0922 0 24
DS -2.0828 -0.889 -2.0828 -0.6096 0 24
DS -2.0828 -0.4064 -2.0828 -0.1016 0 24
DS -2.0828 0.1016 -2.0828 0.4064 0 24
DS -2.0828 0.6096 -2.0828 0.889 0 24
DS -2.0828 1.0922 -2.0828 1.397 0 24
DS -1.397 2.0828 -1.0922 2.0828 0 24
DS -0.889 2.0828 -0.6096 2.0828 0 24
DS -0.4064 2.0828 -0.1016 2.0828 0 24
DS 0.1016 2.0828 0.4064 2.0828 0 24
DS 0.6096 2.0828 0.889 2.0828 0 24
DS 1.0922 2.0828 1.397 2.0828 0 24
DS 2.0828 1.397 2.0828 1.0922 0 24
DS 2.0828 0.889 2.0828 0.6096 0 24
DS 2.0828 0.4064 2.0828 0.1016 0 24
DS 2.0828 -0.1016 2.0828 -0.4064 0 24
DS 2.0828 -0.6096 2.0828 -0.889 0 24
DS 2.0828 -1.0922 2.0828 -1.397 0 24
DS -2.0828 2.0828 2.0828 2.0828 0 24
DS 2.0828 2.0828 2.0828 -2.0828 0 24
DS 2.0828 -2.0828 -2.0828 -2.0828 0 24
DS -2.0828 -2.0828 -2.0828 2.0828 0 24
$PAD
Sh "1" R 0.3048 0.8128 0 0 2700
At SMD N 00888000
.SolderMask 0
.SolderPaste 0
Ne 0 ""
Po -1.9812 -1.2446
$EndPAD
$PAD
Sh "2" R 0.3048 0.8128 0 0 2700
At SMD N 00888000
.SolderMask 0
.SolderPaste 0
Ne 0 ""
Po -1.9812 -0.762
$EndPAD
$PAD
Sh "3" R 0.3048 0.8128 0 0 2700
At SMD N 00888000
.SolderMask 0
.SolderPaste 0
Ne 0 ""
Po -1.9812 -0.254
$EndPAD
$PAD
Sh "4" R 0.3048 0.8128 0 0 2700
At SMD N 00888000
.SolderMask 0
.SolderPaste 0
Ne 0 ""
Po -1.9812 0.254
$EndPAD
$PAD
Sh "5" R 0.3048 0.8128 0 0 2700
At SMD N 00888000
.SolderMask 0
.SolderPaste 0
Ne 0 ""
Po -1.9812 0.762
$EndPAD
$PAD
Sh "6" R 0.3048 0.8128 0 0 2700
At SMD N 00888000
.SolderMask 0
.SolderPaste 0
Ne 0 ""
Po -1.9812 1.2446
$EndPAD
$PAD
Sh "7" R 0.3048 0.8128 0 0 1800
At SMD N 00888000
.SolderMask 0
.SolderPaste 0
Ne 0 ""
Po -1.2446 1.9812
$EndPAD
$PAD
Sh "8" R 0.3048 0.8128 0 0 1800
At SMD N 00888000
.SolderMask 0
.SolderPaste 0
Ne 0 ""
Po -0.762 1.9812
$EndPAD
$PAD
Sh "9" R 0.3048 0.8128 0 0 1800
At SMD N 00888000
.SolderMask 0
.SolderPaste 0
Ne 0 ""
Po -0.254 1.9812
$EndPAD
$PAD
Sh "10" R 0.3048 0.8128 0 0 1800
At SMD N 00888000
.SolderMask 0
.SolderPaste 0
Ne 0 ""
Po 0.254 1.9812
$EndPAD
$PAD
Sh "11" R 0.3048 0.8128 0 0 1800
At SMD N 00888000
.SolderMask 0
.SolderPaste 0
Ne 0 ""
Po 0.762 1.9812
$EndPAD
$PAD
Sh "12" R 0.3048 0.8128 0 0 1800
At SMD N 00888000
.SolderMask 0
.SolderPaste 0
Ne 0 ""
Po 1.2446 1.9812
$EndPAD
$PAD
Sh "13" R 0.3048 0.8128 0 0 2700
At SMD N 00888000
.SolderMask 0
.SolderPaste 0
Ne 0 ""
Po 1.9812 1.2446
$EndPAD
$PAD
Sh "14" R 0.3048 0.8128 0 0 2700
At SMD N 00888000
.SolderMask 0
.SolderPaste 0
Ne 0 ""
Po 1.9812 0.762
$EndPAD
$PAD
Sh "15" R 0.3048 0.8128 0 0 2700
At SMD N 00888000
.SolderMask 0
.SolderPaste 0
Ne 0 ""
Po 1.9812 0.254
$EndPAD
$PAD
Sh "16" R 0.3048 0.8128 0 0 2700
At SMD N 00888000
.SolderMask 0
.SolderPaste 0
Ne 0 ""
Po 1.9812 -0.254
$EndPAD
$PAD
Sh "17" R 0.3048 0.8128 0 0 2700
At SMD N 00888000
.SolderMask 0
.SolderPaste 0
Ne 0 ""
Po 1.9812 -0.762
$EndPAD
$PAD
Sh "18" R 0.3048 0.8128 0 0 2700
At SMD N 00888000
.SolderMask 0
.SolderPaste 0
Ne 0 ""
Po 1.9812 -1.2446
$EndPAD
$PAD
Sh "19" R 0.3048 0.8128 0 0 1800
At SMD N 00888000
.SolderMask 0
.SolderPaste 0
Ne 0 ""
Po 1.2446 -1.9812
$EndPAD
$PAD
Sh "20" R 0.3048 0.8128 0 0 1800
At SMD N 00888000
.SolderMask 0
.SolderPaste 0
Ne 0 ""
Po 0.762 -1.9812
$EndPAD
$PAD
Sh "21" R 0.3048 0.8128 0 0 1800
At SMD N 00888000
.SolderMask 0
.SolderPaste 0
Ne 0 ""
Po 0.254 -1.9812
$EndPAD
$PAD
Sh "22" R 0.3048 0.8128 0 0 1800
At SMD N 00888000
.SolderMask 0
.SolderPaste 0
Ne 0 ""
Po -0.254 -1.9812
$EndPAD
$PAD
Sh "23" R 0.3048 0.8128 0 0 1800
At SMD N 00888000
.SolderMask 0
.SolderPaste 0
Ne 0 ""
Po -0.762 -1.9812
$EndPAD
$PAD
Sh "24" R 0.3048 0.8128 0 0 1800
At SMD N 00888000
.SolderMask 0
.SolderPaste 0
Ne 0 ""
Po -1.2446 -1.9812
$EndPAD
$PAD
Sh "25" R 2.3622 2.3622 0 0 0
At SMD N 00888000
.SolderMask 0
.SolderPaste 0
Ne 0 ""
Po 0 0
$EndPAD
$EndMODULE QFN50P400X400X80-25N
