G04 #@! TF.GenerationSoftware,KiCad,Pcbnew,(5.0.1)-rc2*
G04 #@! TF.CreationDate,2018-10-15T15:40:50-04:00*
G04 #@! TF.ProjectId,bracelight,62726163656C696768742E6B69636164,rev?*
G04 #@! TF.SameCoordinates,Original*
G04 #@! TF.FileFunction,Paste,Top*
G04 #@! TF.FilePolarity,Positive*
%FSLAX46Y46*%
G04 Gerber Fmt 4.6, Leading zero omitted, Abs format (unit mm)*
G04 Created by KiCad (PCBNEW (5.0.1)-rc2) date 10/15/2018 3:40:50 PM*
%MOMM*%
%LPD*%
G01*
G04 APERTURE LIST*
%ADD10R,0.700000X0.250000*%
%ADD11R,0.250000X0.700000*%
%ADD12R,0.772500X0.772500*%
%ADD13R,0.600000X0.400000*%
%ADD14R,1.600000X2.100000*%
%ADD15R,1.900000X1.900000*%
%ADD16R,1.350000X0.400000*%
%ADD17R,1.900000X1.800000*%
%ADD18R,0.500000X0.600000*%
%ADD19R,0.600000X0.500000*%
%ADD20R,0.800000X1.800000*%
%ADD21R,1.220000X0.650000*%
%ADD22R,0.400000X0.600000*%
%ADD23R,0.200000X0.800000*%
%ADD24R,0.800000X0.200000*%
%ADD25R,0.720000X0.720000*%
%ADD26C,0.800000*%
%ADD27R,0.900000X0.800000*%
%ADD28R,0.475000X0.350000*%
%ADD29R,0.350000X0.475000*%
%ADD30R,0.750000X1.400000*%
%ADD31R,0.900000X0.700000*%
%ADD32R,1.060000X0.650000*%
%ADD33R,0.850000X1.500000*%
%ADD34R,1.150000X1.200000*%
G04 APERTURE END LIST*
D10*
G04 #@! TO.C,U4*
X234350000Y-105750000D03*
X234350000Y-106250000D03*
X234350000Y-106750000D03*
X234350000Y-107250000D03*
X234350000Y-107750000D03*
X234350000Y-108250000D03*
X234350000Y-108750000D03*
X234350000Y-109250000D03*
X234350000Y-109750000D03*
X234350000Y-110250000D03*
X234350000Y-110750000D03*
X234350000Y-111250000D03*
D11*
X235000000Y-111900000D03*
X235500000Y-111900000D03*
X236000000Y-111900000D03*
X236500000Y-111900000D03*
X237000000Y-111900000D03*
X237500000Y-111900000D03*
X238000000Y-111900000D03*
X238500000Y-111900000D03*
X239000000Y-111900000D03*
X239500000Y-111900000D03*
X240000000Y-111900000D03*
X240500000Y-111900000D03*
D10*
X241150000Y-111250000D03*
X241150000Y-110750000D03*
X241150000Y-110250000D03*
X241150000Y-109750000D03*
X241150000Y-109250000D03*
X241150000Y-108750000D03*
X241150000Y-108250000D03*
X241150000Y-107750000D03*
X241150000Y-107250000D03*
X241150000Y-106750000D03*
X241150000Y-106250000D03*
X241150000Y-105750000D03*
D11*
X240500000Y-105100000D03*
X240000000Y-105100000D03*
X239500000Y-105100000D03*
X239000000Y-105100000D03*
X238500000Y-105100000D03*
X238000000Y-105100000D03*
X237500000Y-105100000D03*
X237000000Y-105100000D03*
X236500000Y-105100000D03*
X236000000Y-105100000D03*
X235500000Y-105100000D03*
X235000000Y-105100000D03*
D12*
X239681250Y-110431250D03*
X239681250Y-109143750D03*
X239681250Y-107856250D03*
X239681250Y-106568750D03*
X238393750Y-110431250D03*
X238393750Y-109143750D03*
X238393750Y-107856250D03*
X238393750Y-106568750D03*
X237106250Y-110431250D03*
X237106250Y-109143750D03*
X237106250Y-107856250D03*
X237106250Y-106568750D03*
X235818750Y-110431250D03*
X235818750Y-109143750D03*
X235818750Y-107856250D03*
X235818750Y-106568750D03*
G04 #@! TD*
D13*
G04 #@! TO.C,R1*
X234500000Y-114300000D03*
X234500000Y-115200000D03*
G04 #@! TD*
D14*
G04 #@! TO.C,P1*
X246975000Y-111200000D03*
X246975000Y-105000000D03*
D15*
X249525000Y-109300000D03*
X249525000Y-106900000D03*
D16*
X246850000Y-109400000D03*
X246850000Y-108750000D03*
X246850000Y-108100000D03*
X246850000Y-107450000D03*
X246850000Y-106800000D03*
D17*
X249525000Y-111900000D03*
X249525000Y-104300000D03*
G04 #@! TD*
D18*
G04 #@! TO.C,C3*
X250000000Y-114950000D03*
X250000000Y-116050000D03*
G04 #@! TD*
D19*
G04 #@! TO.C,C7*
X42450000Y-107500000D03*
X43550000Y-107500000D03*
G04 #@! TD*
D13*
G04 #@! TO.C,R12*
X238500000Y-113300000D03*
X238500000Y-114200000D03*
G04 #@! TD*
G04 #@! TO.C,R11*
X239750000Y-113300000D03*
X239750000Y-114200000D03*
G04 #@! TD*
D20*
G04 #@! TO.C,U3*
X142615000Y-103100000D03*
X143885000Y-103100000D03*
X145155000Y-103100000D03*
X141345000Y-103100000D03*
G04 #@! TD*
D18*
G04 #@! TO.C,C5*
X139000000Y-101950000D03*
X139000000Y-103050000D03*
G04 #@! TD*
D19*
G04 #@! TO.C,C8*
X42200000Y-112000000D03*
X43300000Y-112000000D03*
G04 #@! TD*
D13*
G04 #@! TO.C,R13*
X235750000Y-114300000D03*
X235750000Y-115200000D03*
G04 #@! TD*
G04 #@! TO.C,R14*
X235750000Y-116300000D03*
X235750000Y-117200000D03*
G04 #@! TD*
D21*
G04 #@! TO.C,U5*
X42190000Y-108800000D03*
X42190000Y-109750000D03*
X42190000Y-110700000D03*
X44810000Y-110700000D03*
X44810000Y-108800000D03*
G04 #@! TD*
D22*
G04 #@! TO.C,R15*
X44550000Y-107500000D03*
X45450000Y-107500000D03*
G04 #@! TD*
D18*
G04 #@! TO.C,C2*
X236050000Y-103050000D03*
X236050000Y-101950000D03*
G04 #@! TD*
G04 #@! TO.C,C9*
X238250000Y-101950000D03*
X238250000Y-103050000D03*
G04 #@! TD*
D13*
G04 #@! TO.C,R17*
X234850000Y-102050000D03*
X234850000Y-102950000D03*
G04 #@! TD*
G04 #@! TO.C,R18*
X233650000Y-102050000D03*
X233650000Y-102950000D03*
G04 #@! TD*
D18*
G04 #@! TO.C,C11*
X137500000Y-117300000D03*
X137500000Y-116200000D03*
G04 #@! TD*
D23*
G04 #@! TO.C,U7*
X132050000Y-116200000D03*
X132450000Y-116200000D03*
X132850000Y-116200000D03*
X133250000Y-116200000D03*
X133650000Y-116200000D03*
X134050000Y-116200000D03*
X134450000Y-116200000D03*
D24*
X135200000Y-115450000D03*
X135200000Y-115050000D03*
X135200000Y-114650000D03*
X135200000Y-114250000D03*
X135200000Y-113850000D03*
X135200000Y-113450000D03*
X135200000Y-113050000D03*
D23*
X134450000Y-112300000D03*
X134050000Y-112300000D03*
X133650000Y-112300000D03*
X133250000Y-112300000D03*
X132850000Y-112300000D03*
X132450000Y-112300000D03*
X132050000Y-112300000D03*
D24*
X131300000Y-113050000D03*
X131300000Y-113450000D03*
X131300000Y-113850000D03*
X131300000Y-114250000D03*
X131300000Y-114650000D03*
X131300000Y-115050000D03*
X131300000Y-115450000D03*
D25*
X133850000Y-113650000D03*
X132650000Y-113650000D03*
X133850000Y-114850000D03*
X132650000Y-114850000D03*
G04 #@! TD*
D18*
G04 #@! TO.C,C12*
X130562000Y-102663000D03*
X130562000Y-101563000D03*
G04 #@! TD*
G04 #@! TO.C,C13*
X129450000Y-102663000D03*
X129450000Y-101563000D03*
G04 #@! TD*
G04 #@! TO.C,C14*
X134000000Y-111050000D03*
X134000000Y-109950000D03*
G04 #@! TD*
D22*
G04 #@! TO.C,R2*
X148700000Y-117250000D03*
X147800000Y-117250000D03*
G04 #@! TD*
G04 #@! TO.C,R3*
X147800000Y-116000000D03*
X148700000Y-116000000D03*
G04 #@! TD*
D26*
G04 #@! TO.C,U8*
X132020000Y-103350000D03*
X134480000Y-103350000D03*
X134480000Y-101650000D03*
X132020000Y-101650000D03*
G04 #@! TD*
D18*
G04 #@! TO.C,C4*
X237150000Y-103050000D03*
X237150000Y-101950000D03*
G04 #@! TD*
D27*
G04 #@! TO.C,Q1*
X241750000Y-103200000D03*
X241750000Y-101300000D03*
X239750000Y-102250000D03*
G04 #@! TD*
D28*
G04 #@! TO.C,U2*
X246987500Y-114950000D03*
X246987500Y-115450000D03*
X246987500Y-115950000D03*
X246987500Y-116450000D03*
X248612500Y-116450000D03*
X248612500Y-115950000D03*
X248612500Y-115450000D03*
X248612500Y-114950000D03*
D29*
X247550000Y-114887500D03*
X247550000Y-116512500D03*
X248050000Y-116512500D03*
X248050000Y-114887500D03*
G04 #@! TD*
D18*
G04 #@! TO.C,C10*
X136000000Y-103800000D03*
X136000000Y-102700000D03*
G04 #@! TD*
D30*
G04 #@! TO.C,D13*
X130800000Y-110700000D03*
X129200000Y-110700000D03*
X130800000Y-107300000D03*
X129200000Y-107300000D03*
G04 #@! TD*
G04 #@! TO.C,D14*
X137300000Y-110700000D03*
X135700000Y-110700000D03*
X137300000Y-107300000D03*
X135700000Y-107300000D03*
G04 #@! TD*
G04 #@! TO.C,D16*
X150300000Y-110700000D03*
X148700000Y-110700000D03*
X150300000Y-107300000D03*
X148700000Y-107300000D03*
G04 #@! TD*
D18*
G04 #@! TO.C,C15*
X148500000Y-114550000D03*
X148500000Y-113450000D03*
G04 #@! TD*
D19*
G04 #@! TO.C,C16*
X135950000Y-101500000D03*
X137050000Y-101500000D03*
G04 #@! TD*
D31*
G04 #@! TO.C,SW1*
X141250000Y-117125000D03*
X141250000Y-112875000D03*
X144750000Y-112875000D03*
X144750000Y-117125000D03*
G04 #@! TD*
D32*
G04 #@! TO.C,U1*
X42650000Y-113550000D03*
X42650000Y-114500000D03*
X42650000Y-115450000D03*
X44850000Y-115450000D03*
X44850000Y-113550000D03*
G04 #@! TD*
D33*
G04 #@! TO.C,D31*
X221800000Y-107300000D03*
X221800000Y-110700000D03*
X220200000Y-107300000D03*
X220200000Y-110700000D03*
G04 #@! TD*
G04 #@! TO.C,D30*
X215300000Y-107300000D03*
X215300000Y-110700000D03*
X213700000Y-107300000D03*
X213700000Y-110700000D03*
G04 #@! TD*
G04 #@! TO.C,D29*
X208800000Y-107300000D03*
X208800000Y-110700000D03*
X207200000Y-107300000D03*
X207200000Y-110700000D03*
G04 #@! TD*
G04 #@! TO.C,D1*
X52800000Y-107300000D03*
X52800000Y-110700000D03*
X51200000Y-107300000D03*
X51200000Y-110700000D03*
G04 #@! TD*
G04 #@! TO.C,D2*
X59300000Y-107300000D03*
X59300000Y-110700000D03*
X57700000Y-107300000D03*
X57700000Y-110700000D03*
G04 #@! TD*
G04 #@! TO.C,D3*
X65800000Y-107300000D03*
X65800000Y-110700000D03*
X64200000Y-107300000D03*
X64200000Y-110700000D03*
G04 #@! TD*
G04 #@! TO.C,D4*
X72300000Y-107300000D03*
X72300000Y-110700000D03*
X70700000Y-107300000D03*
X70700000Y-110700000D03*
G04 #@! TD*
G04 #@! TO.C,D5*
X78800000Y-107300000D03*
X78800000Y-110700000D03*
X77200000Y-107300000D03*
X77200000Y-110700000D03*
G04 #@! TD*
G04 #@! TO.C,D6*
X85300000Y-107300000D03*
X85300000Y-110700000D03*
X83700000Y-107300000D03*
X83700000Y-110700000D03*
G04 #@! TD*
G04 #@! TO.C,D7*
X91800000Y-107300000D03*
X91800000Y-110700000D03*
X90200000Y-107300000D03*
X90200000Y-110700000D03*
G04 #@! TD*
G04 #@! TO.C,D8*
X98300000Y-107300000D03*
X98300000Y-110700000D03*
X96700000Y-107300000D03*
X96700000Y-110700000D03*
G04 #@! TD*
G04 #@! TO.C,D9*
X104800000Y-107300000D03*
X104800000Y-110700000D03*
X103200000Y-107300000D03*
X103200000Y-110700000D03*
G04 #@! TD*
G04 #@! TO.C,D10*
X111300000Y-107300000D03*
X111300000Y-110700000D03*
X109700000Y-107300000D03*
X109700000Y-110700000D03*
G04 #@! TD*
G04 #@! TO.C,D11*
X117800000Y-107300000D03*
X117800000Y-110700000D03*
X116200000Y-107300000D03*
X116200000Y-110700000D03*
G04 #@! TD*
G04 #@! TO.C,D12*
X124300000Y-107300000D03*
X124300000Y-110700000D03*
X122700000Y-107300000D03*
X122700000Y-110700000D03*
G04 #@! TD*
G04 #@! TO.C,D18*
X163300000Y-107300000D03*
X163300000Y-110700000D03*
X161700000Y-107300000D03*
X161700000Y-110700000D03*
G04 #@! TD*
G04 #@! TO.C,D19*
X169800000Y-107300000D03*
X169800000Y-110700000D03*
X168200000Y-107300000D03*
X168200000Y-110700000D03*
G04 #@! TD*
G04 #@! TO.C,D20*
X176300000Y-107300000D03*
X176300000Y-110700000D03*
X174700000Y-107300000D03*
X174700000Y-110700000D03*
G04 #@! TD*
G04 #@! TO.C,D21*
X182800000Y-107300000D03*
X182800000Y-110700000D03*
X181200000Y-107300000D03*
X181200000Y-110700000D03*
G04 #@! TD*
G04 #@! TO.C,D22*
X189300000Y-107300000D03*
X189300000Y-110700000D03*
X187700000Y-107300000D03*
X187700000Y-110700000D03*
G04 #@! TD*
G04 #@! TO.C,D23*
X195800000Y-107300000D03*
X195800000Y-110700000D03*
X194200000Y-107300000D03*
X194200000Y-110700000D03*
G04 #@! TD*
G04 #@! TO.C,D24*
X202300000Y-107300000D03*
X202300000Y-110700000D03*
X200700000Y-107300000D03*
X200700000Y-110700000D03*
G04 #@! TD*
D30*
G04 #@! TO.C,D15*
X143800000Y-110700000D03*
X142200000Y-110700000D03*
X143800000Y-107300000D03*
X142200000Y-107300000D03*
G04 #@! TD*
D33*
G04 #@! TO.C,D17*
X156800000Y-107300000D03*
X156800000Y-110700000D03*
X155200000Y-107300000D03*
X155200000Y-110700000D03*
G04 #@! TD*
D34*
G04 #@! TO.C,D28*
X208000000Y-116750000D03*
X208000000Y-115250000D03*
G04 #@! TD*
G04 #@! TO.C,D27*
X71500000Y-101250000D03*
X71500000Y-102750000D03*
G04 #@! TD*
G04 #@! TO.C,D26*
X110500000Y-101250000D03*
X110500000Y-102750000D03*
G04 #@! TD*
G04 #@! TO.C,D25*
X175500000Y-116750000D03*
X175500000Y-115250000D03*
G04 #@! TD*
M02*
