(module SJ-352X-SMT (layer F.Cu) (tedit 598B7262)
  (fp_text reference REF** (at 0 5) (layer F.SilkS)
    (effects (font (size 1 1) (thickness 0.15)))
  )
  (fp_text value SJ-352X-SMT (at 0 -6) (layer F.Fab)
    (effects (font (size 1 1) (thickness 0.15)))
  )
  (fp_line (start -2.25 2.75) (end -1.5 2.75) (layer F.SilkS) (width 0.15))
  (fp_line (start 0.5 -2.75) (end -2.25 -2.75) (layer F.SilkS) (width 0.15))
  (fp_line (start 8 2.75) (end 1.5 2.75) (layer F.SilkS) (width 0.15))
  (fp_line (start 10.75 2.75) (end 11.9 2.75) (layer F.SilkS) (width 0.15))
  (fp_line (start -2.4 -2.75) (end -2.4 2.75) (layer Dwgs.User) (width 0.15))
  (fp_line (start 3.4 -2.75) (end 11.9 -2.75) (layer F.SilkS) (width 0.15))
  (fp_line (start 11.9 -2.750869) (end 11.9 2.750908) (layer F.SilkS) (width 0.15))
  (pad 1 smd rect (at 0 3.7) (size 2.2 2.8) (layers F.Cu F.Paste F.Mask))
  (pad 3 smd rect (at 2 -3.7) (size 2.2 2.8) (layers F.Cu F.Paste F.Mask))
  (pad 2 smd rect (at 9.4 3.7) (size 2.2 2.8) (layers F.Cu F.Paste F.Mask))
  (pad 4 smd rect (at 13.3 -0.75) (size 2.8 2.2) (layers F.Cu F.Paste F.Mask))
  (pad ~ thru_hole circle (at 1.1 0) (size 2 2) (drill 1.7) (layers *.Cu *.Mask))
  (pad ~ thru_hole circle (at 8.3 0) (size 2 2) (drill 1.7) (layers *.Cu *.Mask))
)
